(module RCL_C1310 (layer F.Cu) (tedit 200000)
  (descr CAPACITOR)
  (tags CAPACITOR)
  (attr smd)
  (fp_text reference >NAME (at 2.54 -1.905) (layer F.SilkS)
    (effects (font (size 1.27 1.27) (thickness 0.1016)))
  )
  (fp_text value >VALUE (at 3.175 1.905) (layer F.SilkS)
    (effects (font (size 1.27 1.27) (thickness 0.1016)))
  )
  (fp_line (start -0.6604 0.6223) (end -0.2794 0.6223) (layer Dwgs.User) (width 0.06604))
  (fp_line (start -0.2794 0.6223) (end -0.2794 -0.62738) (layer Dwgs.User) (width 0.06604))
  (fp_line (start -0.6604 -0.62738) (end -0.2794 -0.62738) (layer Dwgs.User) (width 0.06604))
  (fp_line (start -0.6604 0.6223) (end -0.6604 -0.62738) (layer Dwgs.User) (width 0.06604))
  (fp_line (start 0.2794 0.6223) (end 0.65786 0.6223) (layer Dwgs.User) (width 0.06604))
  (fp_line (start 0.65786 0.6223) (end 0.65786 -0.62738) (layer Dwgs.User) (width 0.06604))
  (fp_line (start 0.2794 -0.62738) (end 0.65786 -0.62738) (layer Dwgs.User) (width 0.06604))
  (fp_line (start 0.2794 0.6223) (end 0.2794 -0.62738) (layer Dwgs.User) (width 0.06604))
  (fp_line (start -0.09906 0.29972) (end 0.09906 0.29972) (layer F.SilkS) (width 0.06604))
  (fp_line (start 0.09906 0.29972) (end 0.09906 -0.29972) (layer F.SilkS) (width 0.06604))
  (fp_line (start -0.09906 -0.29972) (end 0.09906 -0.29972) (layer F.SilkS) (width 0.06604))
  (fp_line (start -0.09906 0.29972) (end -0.09906 -0.29972) (layer F.SilkS) (width 0.06604))
  (fp_line (start -1.47066 -0.98298) (end 1.47066 -0.98298) (layer F.SilkS) (width 0.0508))
  (fp_line (start 1.47066 -0.98298) (end 1.47066 0.98298) (layer F.SilkS) (width 0.0508))
  (fp_line (start 1.47066 0.98298) (end -1.47066 0.98298) (layer F.SilkS) (width 0.0508))
  (fp_line (start -1.47066 0.98298) (end -1.47066 -0.98298) (layer F.SilkS) (width 0.0508))
  (fp_line (start -0.2921 -0.5588) (end 0.2921 -0.5588) (layer Dwgs.User) (width 0.1016))
  (fp_line (start -0.2921 0.5588) (end 0.2921 0.5588) (layer Dwgs.User) (width 0.1016))
  (pad 1 smd rect (at -0.6985 0) (size 0.99822 1.29794) (layers F.Cu F.Paste F.Mask))
  (pad 2 smd rect (at 0.6985 0) (size 0.99822 1.29794) (layers F.Cu F.Paste F.Mask))
)
