(module RCL_R4527 (layer F.Cu) (tedit 200000)
  (descr "PACKAGE 4527")
  (tags "PACKAGE 4527")
  (attr smd)
  (fp_text reference >NAME (at -2.54 -4.445) (layer F.SilkS)
    (effects (font (size 1.27 1.27) (thickness 0.1016)))
  )
  (fp_text value >VALUE (at -1.905 4.445) (layer F.SilkS)
    (effects (font (size 1.27 1.27) (thickness 0.1016)))
  )
  (fp_line (start -5.67436 3.37312) (end 5.64896 3.37312) (layer F.SilkS) (width 0.2032))
  (fp_line (start 5.64896 3.37312) (end 5.64896 -3.37312) (layer Dwgs.User) (width 0.2032))
  (fp_line (start 5.64896 -3.37312) (end -5.67436 -3.37312) (layer F.SilkS) (width 0.2032))
  (fp_line (start -5.67436 -3.37312) (end -5.67436 3.37312) (layer Dwgs.User) (width 0.2032))
  (pad 1 smd rect (at -4.57454 0) (size 3.93954 5.83946) (layers F.Cu F.Paste F.Mask))
  (pad 2 smd rect (at 4.57454 0) (size 3.93954 5.83946) (layers F.Cu F.Paste F.Mask))
)
