(module RCL_P0817V (layer F.Cu) (tedit 200000)
  (descr RESISTOR)
  (tags RESISTOR)
  (attr virtual)
  (fp_text reference >NAME (at 2.159 -1.905) (layer F.SilkS)
    (effects (font (size 1.27 1.27) (thickness 0.127)))
  )
  (fp_text value >VALUE (at 2.794 1.905) (layer F.SilkS)
    (effects (font (size 1.27 1.27) (thickness 0.127)))
  )
  (fp_line (start -3.81 0.4064) (end 0 0.4064) (layer F.SilkS) (width 0.06604))
  (fp_line (start 0 0.4064) (end 0 -0.4064) (layer F.SilkS) (width 0.06604))
  (fp_line (start -3.81 -0.4064) (end 0 -0.4064) (layer F.SilkS) (width 0.06604))
  (fp_line (start -3.81 0.4064) (end -3.81 -0.4064) (layer F.SilkS) (width 0.06604))
  (fp_line (start -3.81 0) (end -5.08 0) (layer Dwgs.User) (width 0.8128))
  (fp_line (start 1.27 0) (end 0 0) (layer Dwgs.User) (width 0.8128))
  (fp_circle (center -5.08 0) (end -5.08 -3.81) (layer F.SilkS) (width 0.1524))
  (fp_circle (center -5.08 0) (end -5.08 -1.27) (layer Dwgs.User) (width 0.1524))
  (fp_text user 0817 (at -4.826 -2.54) (layer F.SilkS)
    (effects (font (size 1.016 1.016) (thickness 0.127)))
  )
  (pad 1 thru_hole circle (at -5.08 0) (size 1.524 3.048) (drill 1.016) (layers *.Cu *.Paste *.Mask))
  (pad 2 thru_hole circle (at 1.27 0) (size 1.524 3.048) (drill 1.016) (layers *.Cu *.Paste *.Mask))
)
