(module RCL_C0603 (layer F.Cu) (tedit 59187F77)
  (descr CAPACITOR)
  (tags CAPACITOR)
  (attr smd)
  (fp_text reference C22 (at -0.381 -2.159) (layer F.SilkS)
    (effects (font (size 1.27 1.27) (thickness 0.1016)))
  )
  (fp_text value 100n (at 0.3048 2.0066) (layer F.SilkS) hide
    (effects (font (size 1.27 1.27) (thickness 0.1016)))
  )
  (fp_line (start -0.8382 0.4699) (end -0.33782 0.4699) (layer Dwgs.User) (width 0.06604))
  (fp_line (start -0.33782 0.4699) (end -0.33782 -0.48006) (layer Dwgs.User) (width 0.06604))
  (fp_line (start -0.8382 -0.48006) (end -0.33782 -0.48006) (layer Dwgs.User) (width 0.06604))
  (fp_line (start -0.8382 0.4699) (end -0.8382 -0.48006) (layer Dwgs.User) (width 0.06604))
  (fp_line (start 0.3302 0.4699) (end 0.82804 0.4699) (layer Dwgs.User) (width 0.06604))
  (fp_line (start 0.82804 0.4699) (end 0.82804 -0.48006) (layer Dwgs.User) (width 0.06604))
  (fp_line (start 0.3302 -0.48006) (end 0.82804 -0.48006) (layer Dwgs.User) (width 0.06604))
  (fp_line (start 0.3302 0.4699) (end 0.3302 -0.48006) (layer Dwgs.User) (width 0.06604))
  (fp_line (start -0.127 0.29972) (end 0.127 0.29972) (layer F.Adhes) (width 0.06604))
  (fp_line (start 0.127 0.29972) (end 0.127 -0.29972) (layer F.Adhes) (width 0.06604))
  (fp_line (start -0.127 -0.29972) (end 0.127 -0.29972) (layer F.Adhes) (width 0.06604))
  (fp_line (start -0.127 0.29972) (end -0.127 -0.29972) (layer F.Adhes) (width 0.06604))
  (fp_line (start -0.3556 -0.4318) (end 0.3556 -0.4318) (layer Dwgs.User) (width 0.1016))
  (fp_line (start -0.3556 0.41656) (end 0.3556 0.41656) (layer Dwgs.User) (width 0.1016))
  (pad 1 smd rect (at -0.84836 0) (size 1.09982 0.99822) (layers F.Cu F.Paste F.Mask))
  (pad 2 smd rect (at 0.84836 0) (size 1.09982 0.99822) (layers F.Cu F.Paste F.Mask))
)
