(module RCL_R2012W (layer F.Cu) (tedit 200000)
  (descr RESISTOR)
  (tags RESISTOR)
  (attr smd)
  (fp_text reference >NAME (at 2.54 -1.905) (layer F.SilkS)
    (effects (font (size 1.27 1.27) (thickness 0.1016)))
  )
  (fp_text value >VALUE (at 3.175 1.905) (layer F.SilkS)
    (effects (font (size 1.27 1.27) (thickness 0.1016)))
  )
  (fp_line (start 0.4064 0.6985) (end 1.0541 0.6985) (layer Dwgs.User) (width 0.06604))
  (fp_line (start 1.0541 0.6985) (end 1.0541 -0.70104) (layer Dwgs.User) (width 0.06604))
  (fp_line (start 0.4064 -0.70104) (end 1.0541 -0.70104) (layer Dwgs.User) (width 0.06604))
  (fp_line (start 0.4064 0.6985) (end 0.4064 -0.70104) (layer Dwgs.User) (width 0.06604))
  (fp_line (start -1.0668 0.6985) (end -0.41656 0.6985) (layer Dwgs.User) (width 0.06604))
  (fp_line (start -0.41656 0.6985) (end -0.41656 -0.70104) (layer Dwgs.User) (width 0.06604))
  (fp_line (start -1.0668 -0.70104) (end -0.41656 -0.70104) (layer Dwgs.User) (width 0.06604))
  (fp_line (start -1.0668 0.6985) (end -1.0668 -0.70104) (layer Dwgs.User) (width 0.06604))
  (fp_line (start -0.09906 0.59944) (end 0.09906 0.59944) (layer F.SilkS) (width 0.06604))
  (fp_line (start 0.09906 0.59944) (end 0.09906 -0.59944) (layer F.SilkS) (width 0.06604))
  (fp_line (start -0.09906 -0.59944) (end 0.09906 -0.59944) (layer F.SilkS) (width 0.06604))
  (fp_line (start -0.09906 0.59944) (end -0.09906 -0.59944) (layer F.SilkS) (width 0.06604))
  (fp_line (start -0.40894 -0.635) (end 0.40894 -0.635) (layer Dwgs.User) (width 0.1524))
  (fp_line (start -0.40894 0.635) (end 0.40894 0.635) (layer Dwgs.User) (width 0.1524))
  (fp_line (start -1.97104 -0.98298) (end 1.97104 -0.98298) (layer F.SilkS) (width 0.0508))
  (fp_line (start 1.97104 -0.98298) (end 1.97104 0.98298) (layer F.SilkS) (width 0.0508))
  (fp_line (start 1.97104 0.98298) (end -1.97104 0.98298) (layer F.SilkS) (width 0.0508))
  (fp_line (start -1.97104 0.98298) (end -1.97104 -0.98298) (layer F.SilkS) (width 0.0508))
  (pad 1 smd rect (at -0.9398 0) (size 1.4986 0.99822) (layers F.Cu F.Paste F.Mask))
  (pad 2 smd rect (at 0.9398 0) (size 1.4986 0.99822) (layers F.Cu F.Paste F.Mask))
)
