(module RCL_C1825 (layer F.Cu) (tedit 200000)
  (descr CAPACITOR)
  (tags CAPACITOR)
  (attr smd)
  (fp_text reference >NAME (at 1.27 -4.445) (layer F.SilkS)
    (effects (font (size 1.27 1.27) (thickness 0.1016)))
  )
  (fp_text value >VALUE (at 1.905 4.445) (layer F.SilkS)
    (effects (font (size 1.27 1.27) (thickness 0.1016)))
  )
  (fp_line (start -2.413 3.3528) (end -1.4605 3.3528) (layer Dwgs.User) (width 0.06604))
  (fp_line (start -1.4605 3.3528) (end -1.4605 -3.34518) (layer Dwgs.User) (width 0.06604))
  (fp_line (start -2.413 -3.34518) (end -1.4605 -3.34518) (layer Dwgs.User) (width 0.06604))
  (fp_line (start -2.413 3.3528) (end -2.413 -3.34518) (layer Dwgs.User) (width 0.06604))
  (fp_line (start 1.4478 3.3528) (end 2.39776 3.3528) (layer Dwgs.User) (width 0.06604))
  (fp_line (start 2.39776 3.3528) (end 2.39776 -3.34518) (layer Dwgs.User) (width 0.06604))
  (fp_line (start 1.4478 -3.34518) (end 2.39776 -3.34518) (layer Dwgs.User) (width 0.06604))
  (fp_line (start 1.4478 3.3528) (end 1.4478 -3.34518) (layer Dwgs.User) (width 0.06604))
  (fp_line (start -0.6985 0.6985) (end 0.6985 0.6985) (layer F.SilkS) (width 0.06604))
  (fp_line (start 0.6985 0.6985) (end 0.6985 -0.6985) (layer F.SilkS) (width 0.06604))
  (fp_line (start -0.6985 -0.6985) (end 0.6985 -0.6985) (layer F.SilkS) (width 0.06604))
  (fp_line (start -0.6985 0.6985) (end -0.6985 -0.6985) (layer F.SilkS) (width 0.06604))
  (fp_line (start -2.9718 -3.48234) (end 2.9718 -3.48234) (layer F.SilkS) (width 0.0508))
  (fp_line (start 2.9718 3.48234) (end -2.9718 3.48234) (layer F.SilkS) (width 0.0508))
  (fp_line (start -2.9718 3.48234) (end -2.9718 -3.48234) (layer F.SilkS) (width 0.0508))
  (fp_line (start -1.4986 -3.2766) (end 1.4732 -3.2766) (layer Dwgs.User) (width 0.1016))
  (fp_line (start -1.4732 3.2766) (end 1.4986 3.2766) (layer Dwgs.User) (width 0.1016))
  (fp_line (start 2.9718 -3.48234) (end 2.9718 3.48234) (layer F.SilkS) (width 0.0508))
  (pad 1 smd rect (at -1.94818 0) (size 1.89992 6.79958) (layers F.Cu F.Paste F.Mask))
  (pad 2 smd rect (at 1.94818 0) (size 1.89992 6.79958) (layers F.Cu F.Paste F.Mask))
)
