(footprint "LT_S8" (version 20211014) (generator pcbnew)
  (layer "F.Cu")
  (tedit 61C789F7)
  (attr smd)
  (fp_text reference "REF**" (at 0 -3.5814) (layer "F.SilkS")
    (effects (font (size 0.6 0.6) (thickness 0.1)))
    (tstamp 579630bf-40e9-4eff-b131-726a7f710f4a)
  )
  (fp_text value "LT_S8" (at 0 4.1) (layer "F.Fab")
    (effects (font (size 0.6 0.6) (thickness 0.1)))
    (tstamp 9ce8cb99-b4a2-414f-93aa-9cb086e19ae7)
  )
  (fp_line (start 1.5 1.5) (end -1.5 1.5) (layer "F.SilkS") (width 0.15) (tstamp 1f71612b-c23e-4b10-9ed8-737019efafdd))
  (fp_line (start -1.5 -1.5) (end 1.5 -1.5) (layer "F.SilkS") (width 0.15) (tstamp 24c4de02-d915-4f40-b870-f3b56c5cd836))
  (fp_line (start -1.5 1.5) (end -1.5 -1.5) (layer "F.SilkS") (width 0.15) (tstamp 4d7327d1-5651-43b7-bc27-24d134a32e50))
  (fp_line (start 1.5 -1.5) (end 1.5 1.5) (layer "F.SilkS") (width 0.15) (tstamp e174aa42-a7f8-4024-bb7a-10256a5aefe0))
  (fp_circle (center -1.9 1.3) (end -2 1.3) (layer "F.SilkS") (width 0.15) (fill none) (tstamp 74b6c71d-1987-4754-ac0f-6cbba7f3a597))
  (fp_line (start -2.54 3.1242) (end -2.54 -3.1242) (layer "F.CrtYd") (width 0.05) (tstamp 65e42dca-624e-45d5-9a56-39744b89e577))
  (fp_line (start 2.54 -3.1242) (end 2.54 3.1242) (layer "F.CrtYd") (width 0.05) (tstamp 6c9c25fb-15a9-44ac-bac6-f8743b3bfb49))
  (fp_line (start 2.54 3.1242) (end -2.54 3.1242) (layer "F.CrtYd") (width 0.05) (tstamp b5747175-eb50-4296-855d-3d9b48f3fd6a))
  (fp_line (start -2.54 -3.1242) (end 2.54 -3.1242) (layer "F.CrtYd") (width 0.05) (tstamp f897640a-deff-466d-b8e3-1f9f5d2eacec))
  (pad "1" smd rect (at -1.905 2.57175) (size 0.762 1.0795) (layers "F.Cu" "F.Paste" "F.Mask") (tstamp f75b1b40-3904-4652-8d1e-e4b1e3ebcb18))
  (pad "2" smd rect (at -0.635 2.57175) (size 0.762 1.0795) (layers "F.Cu" "F.Paste" "F.Mask") (tstamp 86cc5a7f-35b1-48f6-9b30-76f7dd15e901))
  (pad "3" smd rect (at 0.635 2.57175) (size 0.762 1.0795) (layers "F.Cu" "F.Paste" "F.Mask") (tstamp 3efd5d7c-1563-44ad-be09-286b5661b724))
  (pad "4" smd rect (at 1.905 2.57175) (size 0.762 1.0795) (layers "F.Cu" "F.Paste" "F.Mask") (tstamp b4abf1dd-010c-40fe-bc8f-7c1d165bb37e))
  (pad "5" smd rect (at 1.905 -2.57175) (size 0.762 1.0795) (layers "F.Cu" "F.Paste" "F.Mask") (tstamp 1c74d156-173a-4aa6-ae88-97275d615858))
  (pad "6" smd rect (at 0.635 -2.57175) (size 0.762 1.0795) (layers "F.Cu" "F.Paste" "F.Mask") (tstamp 3c13c94f-0f3b-4443-859b-9000c658035c))
  (pad "7" smd rect (at -0.635 -2.57175) (size 0.762 1.0795) (layers "F.Cu" "F.Paste" "F.Mask") (tstamp 056b640b-6c03-44a8-b236-2f883523084c))
  (pad "8" smd rect (at -1.905 -2.57175) (size 0.762 1.0795) (layers "F.Cu" "F.Paste" "F.Mask") (tstamp 8966d55f-2890-4879-add1-002311b0e4a7))
  (model "${FALCO_3DMODEL_DIR}/falco_LT.3dshapes/SO_8_ADI.step"
    (offset (xyz 0 0 0))
    (scale (xyz 1 1 1))
    (rotate (xyz 0 0 -90))
  )
)
