(module LT_TSSOP-20 (layer F.Cu) (tedit 5A5D2D84)
  (fp_text reference REF** (at 0 -4.7) (layer F.SilkS)
    (effects (font (size 1 1) (thickness 0.15)))
  )
  (fp_text value LT_TSSOP-20 (at 0 4.6) (layer F.Fab)
    (effects (font (size 1 1) (thickness 0.15)))
  )
  (fp_circle (center -3.6 2.6) (end -3.6 2.4) (layer F.SilkS) (width 0.15))
  (fp_line (start -3.25 2.1) (end -3.25 -2.1) (layer F.SilkS) (width 0.15))
  (fp_line (start 3.25 -2.1) (end 3.25 2.1) (layer F.SilkS) (width 0.15))
  (pad 1 smd rect (at -2.925 2.775) (size 0.45 1.05) (layers F.Cu F.Paste F.Mask))
  (pad 2 smd rect (at -2.275 2.775) (size 0.45 1.05) (layers F.Cu F.Paste F.Mask))
  (pad 3 smd rect (at -1.625 2.775) (size 0.45 1.05) (layers F.Cu F.Paste F.Mask))
  (pad 4 smd rect (at -0.975 2.775) (size 0.45 1.05) (layers F.Cu F.Paste F.Mask))
  (pad 5 smd rect (at -0.325 2.775) (size 0.45 1.05) (layers F.Cu F.Paste F.Mask))
  (pad 6 smd rect (at 0.325 2.775) (size 0.45 1.05) (layers F.Cu F.Paste F.Mask))
  (pad 7 smd rect (at 0.975 2.775) (size 0.45 1.05) (layers F.Cu F.Paste F.Mask))
  (pad 8 smd rect (at 1.625 2.775) (size 0.45 1.05) (layers F.Cu F.Paste F.Mask))
  (pad 9 smd rect (at 2.275 2.775) (size 0.45 1.05) (layers F.Cu F.Paste F.Mask))
  (pad 10 smd rect (at 2.925 2.775) (size 0.45 1.05) (layers F.Cu F.Paste F.Mask))
  (pad 11 smd rect (at 2.925 -2.775) (size 0.45 1.05) (layers F.Cu F.Paste F.Mask))
  (pad 12 smd rect (at 2.275 -2.775) (size 0.45 1.05) (layers F.Cu F.Paste F.Mask))
  (pad 13 smd rect (at 1.625 -2.775) (size 0.45 1.05) (layers F.Cu F.Paste F.Mask))
  (pad 14 smd rect (at 0.975 -2.775) (size 0.45 1.05) (layers F.Cu F.Paste F.Mask))
  (pad 15 smd rect (at 0.325 -2.775) (size 0.45 1.05) (layers F.Cu F.Paste F.Mask))
  (pad 16 smd rect (at -0.325 -2.775) (size 0.45 1.05) (layers F.Cu F.Paste F.Mask))
  (pad 17 smd rect (at -0.975 -2.775) (size 0.45 1.05) (layers F.Cu F.Paste F.Mask))
  (pad 18 smd rect (at -1.625 -2.775) (size 0.45 1.05) (layers F.Cu F.Paste F.Mask))
  (pad 19 smd rect (at -2.275 -2.775) (size 0.45 1.05) (layers F.Cu F.Paste F.Mask))
  (pad 20 smd rect (at -2.925 -2.775) (size 0.45 1.05) (layers F.Cu F.Paste F.Mask))
  (pad 21 smd rect (at 0 0) (size 2.74 2.74) (layers F.Cu F.Paste F.Mask))
)
