(module SPARKFUN-CONNECTORS_SMTSO-256-ET-0.165DIA (layer F.Cu) (tedit 200000)
  (descr "SMTSO-256-ET FLUSH MOUNT NUT")
  (tags "SMTSO-256-ET FLUSH MOUNT NUT")
  (attr virtual)
  (fp_text reference >NAME (at 0.127 -3.60426) (layer F.SilkS)
    (effects (font (size 0.6096 0.6096) (thickness 0.127)))
  )
  (fp_text value >VALUE (at 0.3048 3.62966) (layer F.SilkS)
    (effects (font (size 0.6096 0.6096) (thickness 0.127)))
  )
  (fp_circle (center 0 0) (end 0 -1.016) (layer Dwgs.User) (width 0.127))
  (fp_arc (start 0 0) (end -2.286 -1.016) (angle 42) (layer F.SilkS) (width 1.016))
  (fp_arc (start 0 0) (end 1.016 -2.286) (angle 42) (layer F.SilkS) (width 1.016))
  (fp_arc (start 0 0) (end 2.286 1.016) (angle 42) (layer F.SilkS) (width 1.016))
  (fp_arc (start 0 0) (end -1.016 2.286) (angle 42) (layer F.SilkS) (width 1.016))
  (pad P$1 thru_hole circle (at 0 0) (size 6.1976 6.1976) (drill 4.191) (layers *.Cu *.Paste *.Mask))
)
