(kicad_symbol_lib (version 20211014) (generator kicad_symbol_editor)
  (symbol "Conn_Coaxial" (pin_names (offset 1.016) hide) (in_bom yes) (on_board yes)
    (property "Reference" "J" (id 0) (at 0.254 3.048 0)
      (effects (font (size 1.27 1.27)))
    )
    (property "Value" "Conn_Coaxial" (id 1) (at -5.08 -7.62 90)
      (effects (font (size 1.27 1.27)))
    )
    (property "Footprint" "" (id 2) (at 0 0 0)
      (effects (font (size 1.27 1.27)) hide)
    )
    (property "Datasheet" "" (id 3) (at 0 0 0)
      (effects (font (size 1.27 1.27)) hide)
    )
    (property "ki_keywords" "BNC SMA SMB SMC coaxial connector CINCH RCA" (id 4) (at 0 0 0)
      (effects (font (size 1.27 1.27)) hide)
    )
    (property "ki_description" "coaxial connector (BNC, SMA, SMB, SMC, Cinch/RCA, ...)" (id 5) (at 0 0 0)
      (effects (font (size 1.27 1.27)) hide)
    )
    (property "ki_fp_filters" "*BNC* *SMA* *SMB* *SMC* *Cinch*" (id 6) (at 0 0 0)
      (effects (font (size 1.27 1.27)) hide)
    )
    (symbol "Conn_Coaxial_0_1"
      (arc (start -1.778 -0.508) (mid 0.222 -1.808) (end 1.778 0)
        (stroke (width 0.254) (type default) (color 0 0 0 0))
        (fill (type none))
      )
      (polyline
        (pts
          (xy -2.54 0)
          (xy -0.508 0)
        )
        (stroke (width 0) (type default) (color 0 0 0 0))
        (fill (type none))
      )
      (polyline
        (pts
          (xy 0 -2.54)
          (xy 0 -1.778)
        )
        (stroke (width 0) (type default) (color 0 0 0 0))
        (fill (type none))
      )
      (polyline
        (pts
          (xy 2.54 -2.54)
          (xy 2.54 0)
        )
        (stroke (width 0) (type default) (color 0 0 0 0))
        (fill (type none))
      )
      (polyline
        (pts
          (xy 2.54 0)
          (xy 1.7526 0)
        )
        (stroke (width 0) (type default) (color 0 0 0 0))
        (fill (type none))
      )
      (polyline
        (pts
          (xy 5.08 -2.54)
          (xy 2.54 0)
        )
        (stroke (width 0) (type default) (color 0 0 0 0))
        (fill (type none))
      )
      (circle (center 0 0) (radius 0.508)
        (stroke (width 0.2032) (type default) (color 0 0 0 0))
        (fill (type none))
      )
      (arc (start 1.778 0) (mid 0.222 1.8083) (end -1.778 0.508)
        (stroke (width 0.254) (type default) (color 0 0 0 0))
        (fill (type none))
      )
    )
    (symbol "Conn_Coaxial_1_1"
      (pin passive line (at -5.08 0 0) (length 2.54)
        (name "In" (effects (font (size 1.27 1.27))))
        (number "1" (effects (font (size 1.27 1.27))))
      )
      (pin passive line (at 0 -5.08 90) (length 2.54)
        (name "Ext" (effects (font (size 1.27 1.27))))
        (number "2" (effects (font (size 1.27 1.27))))
      )
      (pin passive line (at 2.54 -5.08 90) (length 2.54)
        (name "GND1" (effects (font (size 1.27 1.27))))
        (number "G1" (effects (font (size 1.27 1.27))))
      )
      (pin passive line (at 5.08 -5.08 90) (length 2.54)
        (name "GND2" (effects (font (size 1.27 1.27))))
        (number "G2" (effects (font (size 1.27 1.27))))
      )
    )
  )
  (symbol "conn1" (pin_names (offset 1.016)) (in_bom yes) (on_board yes)
    (property "Reference" "J" (id 0) (at 0 2.54 0)
      (effects (font (size 1.27 1.27)))
    )
    (property "Value" "conn1" (id 1) (at 0 -2.54 0)
      (effects (font (size 1.27 1.27)))
    )
    (property "Footprint" "" (id 2) (at 0 -6.35 0)
      (effects (font (size 1.27 1.27)) hide)
    )
    (property "Datasheet" "" (id 3) (at 0 -6.35 0)
      (effects (font (size 1.27 1.27)) hide)
    )
    (symbol "conn1_0_1"
      (polyline
        (pts
          (xy -1.27 1.27)
          (xy -1.27 -1.27)
          (xy 0 -1.27)
          (xy 1.27 -1.27)
          (xy 1.27 1.27)
          (xy -1.27 1.27)
        )
        (stroke (width 0) (type default) (color 0 0 0 0))
        (fill (type none))
      )
    )
    (symbol "conn1_1_1"
      (pin passive line (at -3.81 0 0) (length 2.54)
        (name "~" (effects (font (size 1.27 1.27))))
        (number "1" (effects (font (size 1.27 1.27))))
      )
    )
  )
  (symbol "conn12" (pin_names (offset 1.016)) (in_bom yes) (on_board yes)
    (property "Reference" "J" (id 0) (at 0 16.51 0)
      (effects (font (size 1.27 1.27)))
    )
    (property "Value" "conn12" (id 1) (at -2.54 -16.51 0)
      (effects (font (size 1.27 1.27)))
    )
    (property "Footprint" "" (id 2) (at 0 5.08 0)
      (effects (font (size 1.27 1.27)) hide)
    )
    (property "Datasheet" "" (id 3) (at 0 5.08 0)
      (effects (font (size 1.27 1.27)) hide)
    )
    (symbol "conn12_0_1"
      (polyline
        (pts
          (xy -1.27 15.24)
          (xy -1.27 -15.24)
          (xy 1.27 -15.24)
          (xy 1.27 15.24)
          (xy -1.27 15.24)
        )
        (stroke (width 0) (type default) (color 0 0 0 0))
        (fill (type none))
      )
    )
    (symbol "conn12_1_1"
      (pin passive line (at -3.81 13.97 0) (length 2.54)
        (name "~" (effects (font (size 1.27 1.27))))
        (number "1" (effects (font (size 1.27 1.27))))
      )
      (pin passive line (at -3.81 -8.89 0) (length 2.54)
        (name "~" (effects (font (size 1.27 1.27))))
        (number "10" (effects (font (size 1.27 1.27))))
      )
      (pin passive line (at -3.81 -11.43 0) (length 2.54)
        (name "~" (effects (font (size 1.27 1.27))))
        (number "11" (effects (font (size 1.27 1.27))))
      )
      (pin passive line (at -3.81 -13.97 0) (length 2.54)
        (name "~" (effects (font (size 1.27 1.27))))
        (number "12" (effects (font (size 1.27 1.27))))
      )
      (pin passive line (at -3.81 11.43 0) (length 2.54)
        (name "~" (effects (font (size 1.27 1.27))))
        (number "2" (effects (font (size 1.27 1.27))))
      )
      (pin passive line (at -3.81 8.89 0) (length 2.54)
        (name "~" (effects (font (size 1.27 1.27))))
        (number "3" (effects (font (size 1.27 1.27))))
      )
      (pin passive line (at -3.81 6.35 0) (length 2.54)
        (name "~" (effects (font (size 1.27 1.27))))
        (number "4" (effects (font (size 1.27 1.27))))
      )
      (pin passive line (at -3.81 3.81 0) (length 2.54)
        (name "~" (effects (font (size 1.27 1.27))))
        (number "5" (effects (font (size 1.27 1.27))))
      )
      (pin passive line (at -3.81 1.27 0) (length 2.54)
        (name "~" (effects (font (size 1.27 1.27))))
        (number "6" (effects (font (size 1.27 1.27))))
      )
      (pin passive line (at -3.81 -1.27 0) (length 2.54)
        (name "~" (effects (font (size 1.27 1.27))))
        (number "7" (effects (font (size 1.27 1.27))))
      )
      (pin passive line (at -3.81 -3.81 0) (length 2.54)
        (name "~" (effects (font (size 1.27 1.27))))
        (number "8" (effects (font (size 1.27 1.27))))
      )
      (pin passive line (at -3.81 -6.35 0) (length 2.54)
        (name "~" (effects (font (size 1.27 1.27))))
        (number "9" (effects (font (size 1.27 1.27))))
      )
    )
  )
  (symbol "conn3" (pin_names (offset 1.016)) (in_bom yes) (on_board yes)
    (property "Reference" "J" (id 0) (at 0 5.08 0)
      (effects (font (size 1.27 1.27)))
    )
    (property "Value" "conn3" (id 1) (at -1.27 -5.08 0)
      (effects (font (size 1.27 1.27)))
    )
    (property "Footprint" "" (id 2) (at 0 -6.35 0)
      (effects (font (size 1.27 1.27)) hide)
    )
    (property "Datasheet" "" (id 3) (at 0 -6.35 0)
      (effects (font (size 1.27 1.27)) hide)
    )
    (symbol "conn3_0_1"
      (polyline
        (pts
          (xy -1.27 3.81)
          (xy -1.27 -3.81)
          (xy 1.27 -3.81)
          (xy 1.27 3.81)
          (xy -1.27 3.81)
        )
        (stroke (width 0) (type default) (color 0 0 0 0))
        (fill (type none))
      )
    )
    (symbol "conn3_1_1"
      (pin passive line (at -3.81 2.54 0) (length 2.54)
        (name "~" (effects (font (size 1.27 1.27))))
        (number "1" (effects (font (size 1.27 1.27))))
      )
      (pin passive line (at -3.81 0 0) (length 2.54)
        (name "~" (effects (font (size 1.27 1.27))))
        (number "2" (effects (font (size 1.27 1.27))))
      )
      (pin passive line (at -3.81 -2.54 0) (length 2.54)
        (name "~" (effects (font (size 1.27 1.27))))
        (number "3" (effects (font (size 1.27 1.27))))
      )
    )
  )
  (symbol "conn4" (pin_names (offset 1.016)) (in_bom yes) (on_board yes)
    (property "Reference" "J" (id 0) (at 0 5.08 0)
      (effects (font (size 1.27 1.27)))
    )
    (property "Value" "conn4" (id 1) (at -1.27 -7.62 0)
      (effects (font (size 1.27 1.27)))
    )
    (property "Footprint" "" (id 2) (at 0 -6.35 0)
      (effects (font (size 1.27 1.27)) hide)
    )
    (property "Datasheet" "" (id 3) (at 0 -6.35 0)
      (effects (font (size 1.27 1.27)) hide)
    )
    (symbol "conn4_0_1"
      (polyline
        (pts
          (xy -1.27 3.81)
          (xy -1.27 -6.35)
          (xy 0 -6.35)
          (xy 1.27 -6.35)
          (xy 1.27 3.81)
          (xy -1.27 3.81)
        )
        (stroke (width 0) (type default) (color 0 0 0 0))
        (fill (type none))
      )
    )
    (symbol "conn4_1_1"
      (pin passive line (at -3.81 2.54 0) (length 2.54)
        (name "~" (effects (font (size 1.27 1.27))))
        (number "1" (effects (font (size 1.27 1.27))))
      )
      (pin passive line (at -3.81 0 0) (length 2.54)
        (name "~" (effects (font (size 1.27 1.27))))
        (number "2" (effects (font (size 1.27 1.27))))
      )
      (pin passive line (at -3.81 -2.54 0) (length 2.54)
        (name "~" (effects (font (size 1.27 1.27))))
        (number "3" (effects (font (size 1.27 1.27))))
      )
      (pin passive line (at -3.81 -5.08 0) (length 2.54)
        (name "~" (effects (font (size 1.27 1.27))))
        (number "4" (effects (font (size 1.27 1.27))))
      )
    )
  )
  (symbol "db25" (pin_names (offset 1.016)) (in_bom yes) (on_board yes)
    (property "Reference" "J" (id 0) (at 0 17.78 0)
      (effects (font (size 1.27 1.27)))
    )
    (property "Value" "db25" (id 1) (at 0 -17.78 0)
      (effects (font (size 1.27 1.27)))
    )
    (property "Footprint" "" (id 2) (at 0 3.81 0)
      (effects (font (size 1.27 1.27)) hide)
    )
    (property "Datasheet" "" (id 3) (at 0 3.81 0)
      (effects (font (size 1.27 1.27)) hide)
    )
    (symbol "db25_0_1"
      (rectangle (start -2.54 16.51) (end 2.54 -16.51)
        (stroke (width 0) (type default) (color 0 0 0 0))
        (fill (type none))
      )
    )
    (symbol "db25_1_1"
      (pin passive line (at -5.08 15.24 0) (length 2.54)
        (name "~" (effects (font (size 1.27 1.27))))
        (number "1" (effects (font (size 1.27 1.27))))
      )
      (pin passive line (at -5.08 -7.62 0) (length 2.54)
        (name "~" (effects (font (size 1.27 1.27))))
        (number "10" (effects (font (size 1.27 1.27))))
      )
      (pin passive line (at -5.08 -10.16 0) (length 2.54)
        (name "~" (effects (font (size 1.27 1.27))))
        (number "11" (effects (font (size 1.27 1.27))))
      )
      (pin passive line (at -5.08 -12.7 0) (length 2.54)
        (name "~" (effects (font (size 1.27 1.27))))
        (number "12" (effects (font (size 1.27 1.27))))
      )
      (pin passive line (at -5.08 -15.24 0) (length 2.54)
        (name "~" (effects (font (size 1.27 1.27))))
        (number "13" (effects (font (size 1.27 1.27))))
      )
      (pin passive line (at 5.08 13.97 180) (length 2.54)
        (name "~" (effects (font (size 1.27 1.27))))
        (number "14" (effects (font (size 1.27 1.27))))
      )
      (pin passive line (at 5.08 11.43 180) (length 2.54)
        (name "~" (effects (font (size 1.27 1.27))))
        (number "15" (effects (font (size 1.27 1.27))))
      )
      (pin passive line (at 5.08 8.89 180) (length 2.54)
        (name "~" (effects (font (size 1.27 1.27))))
        (number "16" (effects (font (size 1.27 1.27))))
      )
      (pin passive line (at 5.08 6.35 180) (length 2.54)
        (name "~" (effects (font (size 1.27 1.27))))
        (number "17" (effects (font (size 1.27 1.27))))
      )
      (pin passive line (at 5.08 3.81 180) (length 2.54)
        (name "~" (effects (font (size 1.27 1.27))))
        (number "18" (effects (font (size 1.27 1.27))))
      )
      (pin passive line (at 5.08 1.27 180) (length 2.54)
        (name "~" (effects (font (size 1.27 1.27))))
        (number "19" (effects (font (size 1.27 1.27))))
      )
      (pin passive line (at -5.08 12.7 0) (length 2.54)
        (name "~" (effects (font (size 1.27 1.27))))
        (number "2" (effects (font (size 1.27 1.27))))
      )
      (pin passive line (at 5.08 -1.27 180) (length 2.54)
        (name "~" (effects (font (size 1.27 1.27))))
        (number "20" (effects (font (size 1.27 1.27))))
      )
      (pin passive line (at 5.08 -3.81 180) (length 2.54)
        (name "~" (effects (font (size 1.27 1.27))))
        (number "21" (effects (font (size 1.27 1.27))))
      )
      (pin passive line (at 5.08 -6.35 180) (length 2.54)
        (name "~" (effects (font (size 1.27 1.27))))
        (number "22" (effects (font (size 1.27 1.27))))
      )
      (pin passive line (at 5.08 -8.89 180) (length 2.54)
        (name "~" (effects (font (size 1.27 1.27))))
        (number "23" (effects (font (size 1.27 1.27))))
      )
      (pin passive line (at 5.08 -11.43 180) (length 2.54)
        (name "~" (effects (font (size 1.27 1.27))))
        (number "24" (effects (font (size 1.27 1.27))))
      )
      (pin passive line (at 5.08 -13.97 180) (length 2.54)
        (name "~" (effects (font (size 1.27 1.27))))
        (number "25" (effects (font (size 1.27 1.27))))
      )
      (pin passive line (at -5.08 10.16 0) (length 2.54)
        (name "~" (effects (font (size 1.27 1.27))))
        (number "3" (effects (font (size 1.27 1.27))))
      )
      (pin passive line (at -5.08 7.62 0) (length 2.54)
        (name "~" (effects (font (size 1.27 1.27))))
        (number "4" (effects (font (size 1.27 1.27))))
      )
      (pin passive line (at -5.08 5.08 0) (length 2.54)
        (name "~" (effects (font (size 1.27 1.27))))
        (number "5" (effects (font (size 1.27 1.27))))
      )
      (pin passive line (at -5.08 2.54 0) (length 2.54)
        (name "~" (effects (font (size 1.27 1.27))))
        (number "6" (effects (font (size 1.27 1.27))))
      )
      (pin passive line (at -5.08 0 0) (length 2.54)
        (name "~" (effects (font (size 1.27 1.27))))
        (number "7" (effects (font (size 1.27 1.27))))
      )
      (pin passive line (at -5.08 -2.54 0) (length 2.54)
        (name "~" (effects (font (size 1.27 1.27))))
        (number "8" (effects (font (size 1.27 1.27))))
      )
      (pin passive line (at -5.08 -5.08 0) (length 2.54)
        (name "~" (effects (font (size 1.27 1.27))))
        (number "9" (effects (font (size 1.27 1.27))))
      )
    )
  )
  (symbol "de9" (pin_names (offset 1.016)) (in_bom yes) (on_board yes)
    (property "Reference" "J" (id 0) (at 0 7.62 0)
      (effects (font (size 1.27 1.27)))
    )
    (property "Value" "de9" (id 1) (at 0 -7.62 0)
      (effects (font (size 1.27 1.27)))
    )
    (property "Footprint" "" (id 2) (at 0 -6.35 0)
      (effects (font (size 1.27 1.27)) hide)
    )
    (property "Datasheet" "" (id 3) (at 0 -6.35 0)
      (effects (font (size 1.27 1.27)) hide)
    )
    (symbol "de9_0_1"
      (rectangle (start -2.54 6.35) (end 2.54 -6.35)
        (stroke (width 0) (type default) (color 0 0 0 0))
        (fill (type none))
      )
    )
    (symbol "de9_1_1"
      (pin passive line (at -5.08 5.08 0) (length 2.54)
        (name "~" (effects (font (size 1.27 1.27))))
        (number "1" (effects (font (size 1.27 1.27))))
      )
      (pin passive line (at -5.08 2.54 0) (length 2.54)
        (name "~" (effects (font (size 1.27 1.27))))
        (number "2" (effects (font (size 1.27 1.27))))
      )
      (pin passive line (at -5.08 0 0) (length 2.54)
        (name "~" (effects (font (size 1.27 1.27))))
        (number "3" (effects (font (size 1.27 1.27))))
      )
      (pin passive line (at -5.08 -2.54 0) (length 2.54)
        (name "~" (effects (font (size 1.27 1.27))))
        (number "4" (effects (font (size 1.27 1.27))))
      )
      (pin passive line (at -5.08 -5.08 0) (length 2.54)
        (name "~" (effects (font (size 1.27 1.27))))
        (number "5" (effects (font (size 1.27 1.27))))
      )
      (pin passive line (at 5.08 3.81 180) (length 2.54)
        (name "~" (effects (font (size 1.27 1.27))))
        (number "6" (effects (font (size 1.27 1.27))))
      )
      (pin passive line (at 5.08 1.27 180) (length 2.54)
        (name "~" (effects (font (size 1.27 1.27))))
        (number "7" (effects (font (size 1.27 1.27))))
      )
      (pin passive line (at 5.08 -1.27 180) (length 2.54)
        (name "~" (effects (font (size 1.27 1.27))))
        (number "8" (effects (font (size 1.27 1.27))))
      )
      (pin passive line (at 5.08 -3.81 180) (length 2.54)
        (name "~" (effects (font (size 1.27 1.27))))
        (number "9" (effects (font (size 1.27 1.27))))
      )
    )
  )
)
