(kicad_symbol_lib (version 20211014) (generator kicad_symbol_editor)
  (symbol "SPARKFUN-CONNECTORS_CONN_01" (pin_numbers hide) (pin_names (offset 1.016) hide) (in_bom yes) (on_board yes)
    (property "Reference" "J" (id 0) (at -2.54 3.048 0)
      (effects (font (size 1.143 1.143)) (justify left bottom))
    )
    (property "Value" "SPARKFUN-CONNECTORS_CONN_01" (id 1) (at -2.54 -4.826 0)
      (effects (font (size 1.143 1.143)) (justify left bottom))
    )
    (property "Footprint" "SPARKFUN-CONNECTORS_1X01" (id 2) (at 0.762 3.81 0)
      (effects (font (size 0.508 0.508)) hide)
    )
    (property "Datasheet" "" (id 3) (at 0 0 0)
      (effects (font (size 1.524 1.524)) hide)
    )
    (property "ki_locked" "" (id 4) (at 0 0 0)
      (effects (font (size 1.27 1.27)))
    )
    (property "ki_fp_filters" "*SPARKFUN-CONNECTORS_1X01* *SPARKFUN-CONNECTORS_1X01_OFFSET* *SPARKFUN-CONNECTORS_1X01_POGOPIN_HOLE_0.58_DIA* *SPARKFUN-CONNECTORS_1X01_POGOPIN_HOLE_0.061_DIA* *SPARKFUN-CONNECTORS_1X01_2MM* *SPARKFUN-CONNECTORS_1X01_LONGPAD* *SPARKFUN-CONNECTORS_1X01NS_KIT* *SPARKFUN-CONNECTORS_1X01_NO_SILK* *SPARKFUN-CONNECTORS_SNAP-FEMALE*" (id 5) (at 0 0 0)
      (effects (font (size 1.27 1.27)) hide)
    )
    (symbol "SPARKFUN-CONNECTORS_CONN_01_1_0"
      (polyline
        (pts
          (xy -2.54 2.54)
          (xy -2.54 -2.54)
        )
        (stroke (width 0) (type default) (color 0 0 0 0))
        (fill (type none))
      )
      (polyline
        (pts
          (xy -2.54 2.54)
          (xy 3.81 2.54)
        )
        (stroke (width 0) (type default) (color 0 0 0 0))
        (fill (type none))
      )
      (polyline
        (pts
          (xy 1.27 0)
          (xy 2.54 0)
        )
        (stroke (width 0) (type default) (color 0 0 0 0))
        (fill (type none))
      )
      (polyline
        (pts
          (xy 3.81 -2.54)
          (xy -2.54 -2.54)
        )
        (stroke (width 0) (type default) (color 0 0 0 0))
        (fill (type none))
      )
      (polyline
        (pts
          (xy 3.81 -2.54)
          (xy 3.81 2.54)
        )
        (stroke (width 0) (type default) (color 0 0 0 0))
        (fill (type none))
      )
    )
    (symbol "SPARKFUN-CONNECTORS_CONN_01_1_1"
      (pin passive line (at 7.62 0 180) (length 5.08)
        (name "1" (effects (font (size 1.016 1.016))))
        (number "1" (effects (font (size 1.016 1.016))))
      )
    )
  )
  (symbol "SPARKFUN-CONNECTORS_CONN_01OFFSET" (pin_numbers hide) (pin_names (offset 1.016) hide) (in_bom yes) (on_board yes)
    (property "Reference" "J" (id 0) (at -2.54 3.048 0)
      (effects (font (size 1.143 1.143)) (justify left bottom))
    )
    (property "Value" "SPARKFUN-CONNECTORS_CONN_01OFFSET" (id 1) (at -2.54 -4.826 0)
      (effects (font (size 1.143 1.143)) (justify left bottom))
    )
    (property "Footprint" "SPARKFUN-CONNECTORS_1X01_OFFSET" (id 2) (at 0.762 3.81 0)
      (effects (font (size 0.508 0.508)) hide)
    )
    (property "Datasheet" "" (id 3) (at 0 0 0)
      (effects (font (size 1.524 1.524)) hide)
    )
    (property "ki_locked" "" (id 4) (at 0 0 0)
      (effects (font (size 1.27 1.27)))
    )
    (property "ki_fp_filters" "*SPARKFUN-CONNECTORS_1X01_OFFSET* *SPARKFUN-CONNECTORS_1X01_POGOPIN_HOLE_0.58_DIA* *SPARKFUN-CONNECTORS_1X01_POGOPIN_HOLE_0.061_DIA* *SPARKFUN-CONNECTORS_1X01_2MM* *SPARKFUN-CONNECTORS_1X01_LONGPAD* *SPARKFUN-CONNECTORS_1X01NS_KIT* *SPARKFUN-CONNECTORS_1X01_NO_SILK* *SPARKFUN-CONNECTORS_SNAP-FEMALE*" (id 5) (at 0 0 0)
      (effects (font (size 1.27 1.27)) hide)
    )
    (symbol "SPARKFUN-CONNECTORS_CONN_01OFFSET_1_0"
      (polyline
        (pts
          (xy -2.54 2.54)
          (xy -2.54 -2.54)
        )
        (stroke (width 0) (type default) (color 0 0 0 0))
        (fill (type none))
      )
      (polyline
        (pts
          (xy -2.54 2.54)
          (xy 3.81 2.54)
        )
        (stroke (width 0) (type default) (color 0 0 0 0))
        (fill (type none))
      )
      (polyline
        (pts
          (xy 1.27 0)
          (xy 2.54 0)
        )
        (stroke (width 0) (type default) (color 0 0 0 0))
        (fill (type none))
      )
      (polyline
        (pts
          (xy 3.81 -2.54)
          (xy -2.54 -2.54)
        )
        (stroke (width 0) (type default) (color 0 0 0 0))
        (fill (type none))
      )
      (polyline
        (pts
          (xy 3.81 -2.54)
          (xy 3.81 2.54)
        )
        (stroke (width 0) (type default) (color 0 0 0 0))
        (fill (type none))
      )
    )
    (symbol "SPARKFUN-CONNECTORS_CONN_01OFFSET_1_1"
      (pin passive line (at 7.62 0 180) (length 5.08)
        (name "1" (effects (font (size 1.016 1.016))))
        (number "1" (effects (font (size 1.016 1.016))))
      )
    )
  )
  (symbol "SPARKFUN-CONNECTORS_CONN_01POGOPIN_HOLE_0.58" (pin_numbers hide) (pin_names (offset 1.016) hide) (in_bom yes) (on_board yes)
    (property "Reference" "J" (id 0) (at -2.54 3.048 0)
      (effects (font (size 1.143 1.143)) (justify left bottom))
    )
    (property "Value" "SPARKFUN-CONNECTORS_CONN_01POGOPIN_HOLE_0.58" (id 1) (at -2.54 -4.826 0)
      (effects (font (size 1.143 1.143)) (justify left bottom))
    )
    (property "Footprint" "SPARKFUN-CONNECTORS_1X01_POGOPIN_HOLE_0.58_DIA" (id 2) (at 0.762 3.81 0)
      (effects (font (size 0.508 0.508)) hide)
    )
    (property "Datasheet" "" (id 3) (at 0 0 0)
      (effects (font (size 1.524 1.524)) hide)
    )
    (property "ki_locked" "" (id 4) (at 0 0 0)
      (effects (font (size 1.27 1.27)))
    )
    (property "ki_fp_filters" "*SPARKFUN-CONNECTORS_1X01_POGOPIN_HOLE_0.58_DIA*" (id 5) (at 0 0 0)
      (effects (font (size 1.27 1.27)) hide)
    )
    (symbol "SPARKFUN-CONNECTORS_CONN_01POGOPIN_HOLE_0.58_1_0"
      (polyline
        (pts
          (xy -2.54 2.54)
          (xy -2.54 -2.54)
        )
        (stroke (width 0) (type default) (color 0 0 0 0))
        (fill (type none))
      )
      (polyline
        (pts
          (xy -2.54 2.54)
          (xy 3.81 2.54)
        )
        (stroke (width 0) (type default) (color 0 0 0 0))
        (fill (type none))
      )
      (polyline
        (pts
          (xy 1.27 0)
          (xy 2.54 0)
        )
        (stroke (width 0) (type default) (color 0 0 0 0))
        (fill (type none))
      )
      (polyline
        (pts
          (xy 3.81 -2.54)
          (xy -2.54 -2.54)
        )
        (stroke (width 0) (type default) (color 0 0 0 0))
        (fill (type none))
      )
      (polyline
        (pts
          (xy 3.81 -2.54)
          (xy 3.81 2.54)
        )
        (stroke (width 0) (type default) (color 0 0 0 0))
        (fill (type none))
      )
    )
    (symbol "SPARKFUN-CONNECTORS_CONN_01POGOPIN_HOLE_0.58_1_1"
      (pin passive line (at 7.62 0 180) (length 5.08)
        (name "1" (effects (font (size 1.016 1.016))))
        (number "1" (effects (font (size 1.016 1.016))))
      )
    )
  )
  (symbol "SPARKFUN-CONNECTORS_CONN_01POGOPIN_HOLE_LARGE" (pin_numbers hide) (pin_names (offset 1.016) hide) (in_bom yes) (on_board yes)
    (property "Reference" "J" (id 0) (at -2.54 3.048 0)
      (effects (font (size 1.143 1.143)) (justify left bottom))
    )
    (property "Value" "SPARKFUN-CONNECTORS_CONN_01POGOPIN_HOLE_LARGE" (id 1) (at -2.54 -4.826 0)
      (effects (font (size 1.143 1.143)) (justify left bottom))
    )
    (property "Footprint" "SPARKFUN-CONNECTORS_1X01_POGOPIN_HOLE_0.061_DIA" (id 2) (at 0.762 3.81 0)
      (effects (font (size 0.508 0.508)) hide)
    )
    (property "Datasheet" "" (id 3) (at 0 0 0)
      (effects (font (size 1.524 1.524)) hide)
    )
    (property "ki_locked" "" (id 4) (at 0 0 0)
      (effects (font (size 1.27 1.27)))
    )
    (property "ki_fp_filters" "*SPARKFUN-CONNECTORS_1X01_POGOPIN_HOLE_0.061_DIA*" (id 5) (at 0 0 0)
      (effects (font (size 1.27 1.27)) hide)
    )
    (symbol "SPARKFUN-CONNECTORS_CONN_01POGOPIN_HOLE_LARGE_1_0"
      (polyline
        (pts
          (xy -2.54 2.54)
          (xy -2.54 -2.54)
        )
        (stroke (width 0) (type default) (color 0 0 0 0))
        (fill (type none))
      )
      (polyline
        (pts
          (xy -2.54 2.54)
          (xy 3.81 2.54)
        )
        (stroke (width 0) (type default) (color 0 0 0 0))
        (fill (type none))
      )
      (polyline
        (pts
          (xy 1.27 0)
          (xy 2.54 0)
        )
        (stroke (width 0) (type default) (color 0 0 0 0))
        (fill (type none))
      )
      (polyline
        (pts
          (xy 3.81 -2.54)
          (xy -2.54 -2.54)
        )
        (stroke (width 0) (type default) (color 0 0 0 0))
        (fill (type none))
      )
      (polyline
        (pts
          (xy 3.81 -2.54)
          (xy 3.81 2.54)
        )
        (stroke (width 0) (type default) (color 0 0 0 0))
        (fill (type none))
      )
    )
    (symbol "SPARKFUN-CONNECTORS_CONN_01POGOPIN_HOLE_LARGE_1_1"
      (pin passive line (at 7.62 0 180) (length 5.08)
        (name "1" (effects (font (size 1.016 1.016))))
        (number "1" (effects (font (size 1.016 1.016))))
      )
    )
  )
  (symbol "SPARKFUN-CONNECTORS_CONN_01PTH_2MM" (pin_numbers hide) (pin_names (offset 1.016) hide) (in_bom yes) (on_board yes)
    (property "Reference" "J" (id 0) (at -2.54 3.048 0)
      (effects (font (size 1.143 1.143)) (justify left bottom))
    )
    (property "Value" "SPARKFUN-CONNECTORS_CONN_01PTH_2MM" (id 1) (at -2.54 -4.826 0)
      (effects (font (size 1.143 1.143)) (justify left bottom))
    )
    (property "Footprint" "SPARKFUN-CONNECTORS_1X01_2MM" (id 2) (at 0.762 3.81 0)
      (effects (font (size 0.508 0.508)) hide)
    )
    (property "Datasheet" "" (id 3) (at 0 0 0)
      (effects (font (size 1.524 1.524)) hide)
    )
    (property "ki_locked" "" (id 4) (at 0 0 0)
      (effects (font (size 1.27 1.27)))
    )
    (property "ki_fp_filters" "*SPARKFUN-CONNECTORS_1X01_2MM*" (id 5) (at 0 0 0)
      (effects (font (size 1.27 1.27)) hide)
    )
    (symbol "SPARKFUN-CONNECTORS_CONN_01PTH_2MM_1_0"
      (polyline
        (pts
          (xy -2.54 2.54)
          (xy -2.54 -2.54)
        )
        (stroke (width 0) (type default) (color 0 0 0 0))
        (fill (type none))
      )
      (polyline
        (pts
          (xy -2.54 2.54)
          (xy 3.81 2.54)
        )
        (stroke (width 0) (type default) (color 0 0 0 0))
        (fill (type none))
      )
      (polyline
        (pts
          (xy 1.27 0)
          (xy 2.54 0)
        )
        (stroke (width 0) (type default) (color 0 0 0 0))
        (fill (type none))
      )
      (polyline
        (pts
          (xy 3.81 -2.54)
          (xy -2.54 -2.54)
        )
        (stroke (width 0) (type default) (color 0 0 0 0))
        (fill (type none))
      )
      (polyline
        (pts
          (xy 3.81 -2.54)
          (xy 3.81 2.54)
        )
        (stroke (width 0) (type default) (color 0 0 0 0))
        (fill (type none))
      )
    )
    (symbol "SPARKFUN-CONNECTORS_CONN_01PTH_2MM_1_1"
      (pin passive line (at 7.62 0 180) (length 5.08)
        (name "1" (effects (font (size 1.016 1.016))))
        (number "1" (effects (font (size 1.016 1.016))))
      )
    )
  )
  (symbol "SPARKFUN-CONNECTORS_CONN_01PTH_LONGPAD" (pin_numbers hide) (pin_names (offset 1.016) hide) (in_bom yes) (on_board yes)
    (property "Reference" "J" (id 0) (at -2.54 3.048 0)
      (effects (font (size 1.143 1.143)) (justify left bottom))
    )
    (property "Value" "SPARKFUN-CONNECTORS_CONN_01PTH_LONGPAD" (id 1) (at -2.54 -4.826 0)
      (effects (font (size 1.143 1.143)) (justify left bottom))
    )
    (property "Footprint" "SPARKFUN-CONNECTORS_1X01_LONGPAD" (id 2) (at 0.762 3.81 0)
      (effects (font (size 0.508 0.508)) hide)
    )
    (property "Datasheet" "" (id 3) (at 0 0 0)
      (effects (font (size 1.524 1.524)) hide)
    )
    (property "ki_locked" "" (id 4) (at 0 0 0)
      (effects (font (size 1.27 1.27)))
    )
    (property "ki_fp_filters" "*SPARKFUN-CONNECTORS_1X01_LONGPAD*" (id 5) (at 0 0 0)
      (effects (font (size 1.27 1.27)) hide)
    )
    (symbol "SPARKFUN-CONNECTORS_CONN_01PTH_LONGPAD_1_0"
      (polyline
        (pts
          (xy -2.54 2.54)
          (xy -2.54 -2.54)
        )
        (stroke (width 0) (type default) (color 0 0 0 0))
        (fill (type none))
      )
      (polyline
        (pts
          (xy -2.54 2.54)
          (xy 3.81 2.54)
        )
        (stroke (width 0) (type default) (color 0 0 0 0))
        (fill (type none))
      )
      (polyline
        (pts
          (xy 1.27 0)
          (xy 2.54 0)
        )
        (stroke (width 0) (type default) (color 0 0 0 0))
        (fill (type none))
      )
      (polyline
        (pts
          (xy 3.81 -2.54)
          (xy -2.54 -2.54)
        )
        (stroke (width 0) (type default) (color 0 0 0 0))
        (fill (type none))
      )
      (polyline
        (pts
          (xy 3.81 -2.54)
          (xy 3.81 2.54)
        )
        (stroke (width 0) (type default) (color 0 0 0 0))
        (fill (type none))
      )
    )
    (symbol "SPARKFUN-CONNECTORS_CONN_01PTH_LONGPAD_1_1"
      (pin passive line (at 7.62 0 180) (length 5.08)
        (name "1" (effects (font (size 1.016 1.016))))
        (number "1" (effects (font (size 1.016 1.016))))
      )
    )
  )
  (symbol "SPARKFUN-CONNECTORS_CONN_01PTH_NO_SILK_KIT" (pin_numbers hide) (pin_names (offset 1.016) hide) (in_bom yes) (on_board yes)
    (property "Reference" "J" (id 0) (at -2.54 3.048 0)
      (effects (font (size 1.143 1.143)) (justify left bottom))
    )
    (property "Value" "SPARKFUN-CONNECTORS_CONN_01PTH_NO_SILK_KIT" (id 1) (at -2.54 -4.826 0)
      (effects (font (size 1.143 1.143)) (justify left bottom))
    )
    (property "Footprint" "SPARKFUN-CONNECTORS_1X01NS_KIT" (id 2) (at 0.762 3.81 0)
      (effects (font (size 0.508 0.508)) hide)
    )
    (property "Datasheet" "" (id 3) (at 0 0 0)
      (effects (font (size 1.524 1.524)) hide)
    )
    (property "ki_locked" "" (id 4) (at 0 0 0)
      (effects (font (size 1.27 1.27)))
    )
    (property "ki_fp_filters" "*SPARKFUN-CONNECTORS_1X01NS_KIT*" (id 5) (at 0 0 0)
      (effects (font (size 1.27 1.27)) hide)
    )
    (symbol "SPARKFUN-CONNECTORS_CONN_01PTH_NO_SILK_KIT_1_0"
      (polyline
        (pts
          (xy -2.54 2.54)
          (xy -2.54 -2.54)
        )
        (stroke (width 0) (type default) (color 0 0 0 0))
        (fill (type none))
      )
      (polyline
        (pts
          (xy -2.54 2.54)
          (xy 3.81 2.54)
        )
        (stroke (width 0) (type default) (color 0 0 0 0))
        (fill (type none))
      )
      (polyline
        (pts
          (xy 1.27 0)
          (xy 2.54 0)
        )
        (stroke (width 0) (type default) (color 0 0 0 0))
        (fill (type none))
      )
      (polyline
        (pts
          (xy 3.81 -2.54)
          (xy -2.54 -2.54)
        )
        (stroke (width 0) (type default) (color 0 0 0 0))
        (fill (type none))
      )
      (polyline
        (pts
          (xy 3.81 -2.54)
          (xy 3.81 2.54)
        )
        (stroke (width 0) (type default) (color 0 0 0 0))
        (fill (type none))
      )
    )
    (symbol "SPARKFUN-CONNECTORS_CONN_01PTH_NO_SILK_KIT_1_1"
      (pin passive line (at 7.62 0 180) (length 5.08)
        (name "1" (effects (font (size 1.016 1.016))))
        (number "1" (effects (font (size 1.016 1.016))))
      )
    )
  )
  (symbol "SPARKFUN-CONNECTORS_CONN_01PTH_NO_SILK_YES_STOP" (pin_numbers hide) (pin_names (offset 1.016) hide) (in_bom yes) (on_board yes)
    (property "Reference" "J" (id 0) (at -2.54 3.048 0)
      (effects (font (size 1.143 1.143)) (justify left bottom))
    )
    (property "Value" "SPARKFUN-CONNECTORS_CONN_01PTH_NO_SILK_YES_STOP" (id 1) (at -2.54 -4.826 0)
      (effects (font (size 1.143 1.143)) (justify left bottom))
    )
    (property "Footprint" "SPARKFUN-CONNECTORS_1X01_NO_SILK" (id 2) (at 0.762 3.81 0)
      (effects (font (size 0.508 0.508)) hide)
    )
    (property "Datasheet" "" (id 3) (at 0 0 0)
      (effects (font (size 1.524 1.524)) hide)
    )
    (property "ki_locked" "" (id 4) (at 0 0 0)
      (effects (font (size 1.27 1.27)))
    )
    (property "ki_fp_filters" "*SPARKFUN-CONNECTORS_1X01_NO_SILK*" (id 5) (at 0 0 0)
      (effects (font (size 1.27 1.27)) hide)
    )
    (symbol "SPARKFUN-CONNECTORS_CONN_01PTH_NO_SILK_YES_STOP_1_0"
      (polyline
        (pts
          (xy -2.54 2.54)
          (xy -2.54 -2.54)
        )
        (stroke (width 0) (type default) (color 0 0 0 0))
        (fill (type none))
      )
      (polyline
        (pts
          (xy -2.54 2.54)
          (xy 3.81 2.54)
        )
        (stroke (width 0) (type default) (color 0 0 0 0))
        (fill (type none))
      )
      (polyline
        (pts
          (xy 1.27 0)
          (xy 2.54 0)
        )
        (stroke (width 0) (type default) (color 0 0 0 0))
        (fill (type none))
      )
      (polyline
        (pts
          (xy 3.81 -2.54)
          (xy -2.54 -2.54)
        )
        (stroke (width 0) (type default) (color 0 0 0 0))
        (fill (type none))
      )
      (polyline
        (pts
          (xy 3.81 -2.54)
          (xy 3.81 2.54)
        )
        (stroke (width 0) (type default) (color 0 0 0 0))
        (fill (type none))
      )
    )
    (symbol "SPARKFUN-CONNECTORS_CONN_01PTH_NO_SILK_YES_STOP_1_1"
      (pin passive line (at 7.62 0 180) (length 5.08)
        (name "1" (effects (font (size 1.016 1.016))))
        (number "1" (effects (font (size 1.016 1.016))))
      )
    )
  )
  (symbol "SPARKFUN-CONNECTORS_CONN_01SMTSO-256-ET-0.165DIA" (pin_numbers hide) (pin_names (offset 1.016) hide) (in_bom yes) (on_board yes)
    (property "Reference" "J" (id 0) (at -2.54 3.048 0)
      (effects (font (size 1.143 1.143)) (justify left bottom))
    )
    (property "Value" "SPARKFUN-CONNECTORS_CONN_01SMTSO-256-ET-0.165DIA" (id 1) (at -2.54 -4.826 0)
      (effects (font (size 1.143 1.143)) (justify left bottom))
    )
    (property "Footprint" "SPARKFUN-CONNECTORS_SMTSO-256-ET-0.165DIA" (id 2) (at 0.762 3.81 0)
      (effects (font (size 0.508 0.508)) hide)
    )
    (property "Datasheet" "" (id 3) (at 0 0 0)
      (effects (font (size 1.524 1.524)) hide)
    )
    (property "ki_locked" "" (id 4) (at 0 0 0)
      (effects (font (size 1.27 1.27)))
    )
    (property "ki_fp_filters" "*SPARKFUN-CONNECTORS_SMTSO-256-ET-0.165DIA*" (id 5) (at 0 0 0)
      (effects (font (size 1.27 1.27)) hide)
    )
    (symbol "SPARKFUN-CONNECTORS_CONN_01SMTSO-256-ET-0.165DIA_1_0"
      (polyline
        (pts
          (xy -2.54 2.54)
          (xy -2.54 -2.54)
        )
        (stroke (width 0) (type default) (color 0 0 0 0))
        (fill (type none))
      )
      (polyline
        (pts
          (xy -2.54 2.54)
          (xy 3.81 2.54)
        )
        (stroke (width 0) (type default) (color 0 0 0 0))
        (fill (type none))
      )
      (polyline
        (pts
          (xy 1.27 0)
          (xy 2.54 0)
        )
        (stroke (width 0) (type default) (color 0 0 0 0))
        (fill (type none))
      )
      (polyline
        (pts
          (xy 3.81 -2.54)
          (xy -2.54 -2.54)
        )
        (stroke (width 0) (type default) (color 0 0 0 0))
        (fill (type none))
      )
      (polyline
        (pts
          (xy 3.81 -2.54)
          (xy 3.81 2.54)
        )
        (stroke (width 0) (type default) (color 0 0 0 0))
        (fill (type none))
      )
    )
    (symbol "SPARKFUN-CONNECTORS_CONN_01SMTSO-256-ET-0.165DIA_1_1"
      (pin passive line (at 7.62 0 180) (length 5.08)
        (name "1" (effects (font (size 1.016 1.016))))
        (number "P$1" (effects (font (size 1.016 1.016))))
      )
    )
  )
  (symbol "SPARKFUN-CONNECTORS_CONN_01SNAP-FEMALE" (pin_numbers hide) (pin_names (offset 1.016) hide) (in_bom yes) (on_board yes)
    (property "Reference" "J" (id 0) (at -2.54 3.048 0)
      (effects (font (size 1.143 1.143)) (justify left bottom))
    )
    (property "Value" "SPARKFUN-CONNECTORS_CONN_01SNAP-FEMALE" (id 1) (at -2.54 -4.826 0)
      (effects (font (size 1.143 1.143)) (justify left bottom))
    )
    (property "Footprint" "SPARKFUN-CONNECTORS_SNAP-FEMALE" (id 2) (at 0.762 3.81 0)
      (effects (font (size 0.508 0.508)) hide)
    )
    (property "Datasheet" "" (id 3) (at 0 0 0)
      (effects (font (size 1.524 1.524)) hide)
    )
    (property "ki_locked" "" (id 4) (at 0 0 0)
      (effects (font (size 1.27 1.27)))
    )
    (property "ki_fp_filters" "*SPARKFUN-CONNECTORS_SNAP-FEMALE*" (id 5) (at 0 0 0)
      (effects (font (size 1.27 1.27)) hide)
    )
    (symbol "SPARKFUN-CONNECTORS_CONN_01SNAP-FEMALE_1_0"
      (polyline
        (pts
          (xy -2.54 2.54)
          (xy -2.54 -2.54)
        )
        (stroke (width 0) (type default) (color 0 0 0 0))
        (fill (type none))
      )
      (polyline
        (pts
          (xy -2.54 2.54)
          (xy 3.81 2.54)
        )
        (stroke (width 0) (type default) (color 0 0 0 0))
        (fill (type none))
      )
      (polyline
        (pts
          (xy 1.27 0)
          (xy 2.54 0)
        )
        (stroke (width 0) (type default) (color 0 0 0 0))
        (fill (type none))
      )
      (polyline
        (pts
          (xy 3.81 -2.54)
          (xy -2.54 -2.54)
        )
        (stroke (width 0) (type default) (color 0 0 0 0))
        (fill (type none))
      )
      (polyline
        (pts
          (xy 3.81 -2.54)
          (xy 3.81 2.54)
        )
        (stroke (width 0) (type default) (color 0 0 0 0))
        (fill (type none))
      )
    )
    (symbol "SPARKFUN-CONNECTORS_CONN_01SNAP-FEMALE_1_1"
      (pin passive line (at 7.62 0 180) (length 5.08)
        (name "1" (effects (font (size 1.016 1.016))))
        (number "1" (effects (font (size 1.016 1.016))))
      )
    )
  )
  (symbol "SPARKFUN-CONNECTORS_CONN_01SNAP-MALE" (pin_numbers hide) (pin_names (offset 1.016) hide) (in_bom yes) (on_board yes)
    (property "Reference" "J" (id 0) (at -2.54 3.048 0)
      (effects (font (size 1.143 1.143)) (justify left bottom))
    )
    (property "Value" "SPARKFUN-CONNECTORS_CONN_01SNAP-MALE" (id 1) (at -2.54 -4.826 0)
      (effects (font (size 1.143 1.143)) (justify left bottom))
    )
    (property "Footprint" "SPARKFUN-CONNECTORS_SNAP-MALE" (id 2) (at 0.762 3.81 0)
      (effects (font (size 0.508 0.508)) hide)
    )
    (property "Datasheet" "" (id 3) (at 0 0 0)
      (effects (font (size 1.524 1.524)) hide)
    )
    (property "ki_locked" "" (id 4) (at 0 0 0)
      (effects (font (size 1.27 1.27)))
    )
    (property "ki_fp_filters" "*SPARKFUN-CONNECTORS_SNAP-MALE*" (id 5) (at 0 0 0)
      (effects (font (size 1.27 1.27)) hide)
    )
    (symbol "SPARKFUN-CONNECTORS_CONN_01SNAP-MALE_1_0"
      (polyline
        (pts
          (xy -2.54 2.54)
          (xy -2.54 -2.54)
        )
        (stroke (width 0) (type default) (color 0 0 0 0))
        (fill (type none))
      )
      (polyline
        (pts
          (xy -2.54 2.54)
          (xy 3.81 2.54)
        )
        (stroke (width 0) (type default) (color 0 0 0 0))
        (fill (type none))
      )
      (polyline
        (pts
          (xy 1.27 0)
          (xy 2.54 0)
        )
        (stroke (width 0) (type default) (color 0 0 0 0))
        (fill (type none))
      )
      (polyline
        (pts
          (xy 3.81 -2.54)
          (xy -2.54 -2.54)
        )
        (stroke (width 0) (type default) (color 0 0 0 0))
        (fill (type none))
      )
      (polyline
        (pts
          (xy 3.81 -2.54)
          (xy 3.81 2.54)
        )
        (stroke (width 0) (type default) (color 0 0 0 0))
        (fill (type none))
      )
    )
    (symbol "SPARKFUN-CONNECTORS_CONN_01SNAP-MALE_1_1"
      (pin passive line (at 7.62 0 180) (length 5.08)
        (name "1" (effects (font (size 1.016 1.016))))
        (number "2" (effects (font (size 1.016 1.016))))
      )
    )
  )
  (symbol "SPARKFUN-CONNECTORS_CONN_01SPRING-CONN" (pin_numbers hide) (pin_names (offset 1.016) hide) (in_bom yes) (on_board yes)
    (property "Reference" "J" (id 0) (at -2.54 3.048 0)
      (effects (font (size 1.143 1.143)) (justify left bottom))
    )
    (property "Value" "SPARKFUN-CONNECTORS_CONN_01SPRING-CONN" (id 1) (at -2.54 -4.826 0)
      (effects (font (size 1.143 1.143)) (justify left bottom))
    )
    (property "Footprint" "SPARKFUN-CONNECTORS_SPRING-CONNECTOR" (id 2) (at 0.762 3.81 0)
      (effects (font (size 0.508 0.508)) hide)
    )
    (property "Datasheet" "" (id 3) (at 0 0 0)
      (effects (font (size 1.524 1.524)) hide)
    )
    (property "ki_locked" "" (id 4) (at 0 0 0)
      (effects (font (size 1.27 1.27)))
    )
    (property "ki_fp_filters" "*SPARKFUN-CONNECTORS_SPRING-CONNECTOR*" (id 5) (at 0 0 0)
      (effects (font (size 1.27 1.27)) hide)
    )
    (symbol "SPARKFUN-CONNECTORS_CONN_01SPRING-CONN_1_0"
      (polyline
        (pts
          (xy -2.54 2.54)
          (xy -2.54 -2.54)
        )
        (stroke (width 0) (type default) (color 0 0 0 0))
        (fill (type none))
      )
      (polyline
        (pts
          (xy -2.54 2.54)
          (xy 3.81 2.54)
        )
        (stroke (width 0) (type default) (color 0 0 0 0))
        (fill (type none))
      )
      (polyline
        (pts
          (xy 1.27 0)
          (xy 2.54 0)
        )
        (stroke (width 0) (type default) (color 0 0 0 0))
        (fill (type none))
      )
      (polyline
        (pts
          (xy 3.81 -2.54)
          (xy -2.54 -2.54)
        )
        (stroke (width 0) (type default) (color 0 0 0 0))
        (fill (type none))
      )
      (polyline
        (pts
          (xy 3.81 -2.54)
          (xy 3.81 2.54)
        )
        (stroke (width 0) (type default) (color 0 0 0 0))
        (fill (type none))
      )
    )
    (symbol "SPARKFUN-CONNECTORS_CONN_01SPRING-CONN_1_1"
      (pin passive line (at 7.62 0 180) (length 5.08)
        (name "1" (effects (font (size 1.016 1.016))))
        (number "P$2" (effects (font (size 1.016 1.016))))
      )
    )
  )
)
