(kicad_symbol_lib (version 20211014) (generator kicad_symbol_editor)
  (symbol "ON_SEMI_MMBT2222" (pin_names (offset 1.016) hide) (in_bom yes) (on_board yes)
    (property "Reference" "T" (id 0) (at 2.54 2.54 0)
      (effects (font (size 1.143 1.143)) (justify left bottom))
    )
    (property "Value" "ON_SEMI_MMBT2222" (id 1) (at 2.54 0 0)
      (effects (font (size 1.143 1.143)) (justify left bottom))
    )
    (property "Footprint" "ON_SEMI_SOT23" (id 2) (at 3.81 -3.81 0)
      (effects (font (size 0.508 0.508)) hide)
    )
    (property "Datasheet" "" (id 3) (at 0 0 0)
      (effects (font (size 1.524 1.524)) hide)
    )
    (property "ki_fp_filters" "*ON_SEMI_SOT23*" (id 4) (at 0 0 0)
      (effects (font (size 1.27 1.27)) hide)
    )
    (symbol "ON_SEMI_MMBT2222_1_0"
      (polyline
        (pts
          (xy -2.54 0)
          (xy -2.54 -2.54)
        )
        (stroke (width 0) (type default) (color 0 0 0 0))
        (fill (type none))
      )
      (polyline
        (pts
          (xy -2.54 0)
          (xy -0.508 -2.032)
        )
        (stroke (width 0) (type default) (color 0 0 0 0))
        (fill (type none))
      )
      (polyline
        (pts
          (xy -2.54 0)
          (xy 0 2.54)
        )
        (stroke (width 0) (type default) (color 0 0 0 0))
        (fill (type none))
      )
      (polyline
        (pts
          (xy -2.54 2.54)
          (xy -2.54 0)
        )
        (stroke (width 0) (type default) (color 0 0 0 0))
        (fill (type none))
      )
      (polyline
        (pts
          (xy -1.778 -1.778)
          (xy -0.508 -2.032)
        )
        (stroke (width 0) (type default) (color 0 0 0 0))
        (fill (type none))
      )
      (polyline
        (pts
          (xy -0.508 -2.032)
          (xy -0.7112 -0.762)
        )
        (stroke (width 0) (type default) (color 0 0 0 0))
        (fill (type none))
      )
      (polyline
        (pts
          (xy -0.508 -2.032)
          (xy 0 -2.54)
        )
        (stroke (width 0) (type default) (color 0 0 0 0))
        (fill (type none))
      )
      (polyline
        (pts
          (xy 0 -2.54)
          (xy 0 -5.08)
        )
        (stroke (width 0) (type default) (color 0 0 0 0))
        (fill (type none))
      )
      (polyline
        (pts
          (xy 0 2.54)
          (xy 0 5.08)
        )
        (stroke (width 0) (type default) (color 0 0 0 0))
        (fill (type none))
      )
    )
    (symbol "ON_SEMI_MMBT2222_1_1"
      (pin passive line (at -5.08 0 0) (length 2.54)
        (name "B" (effects (font (size 1.016 1.016))))
        (number "1" (effects (font (size 1.016 1.016))))
      )
      (pin passive line (at 0 -7.62 90) (length 2.54)
        (name "E" (effects (font (size 1.016 1.016))))
        (number "2" (effects (font (size 1.016 1.016))))
      )
      (pin passive line (at 0 7.62 270) (length 2.54)
        (name "C" (effects (font (size 1.016 1.016))))
        (number "3" (effects (font (size 1.016 1.016))))
      )
    )
  )
)
