(kicad_symbol_lib (version 20211014) (generator kicad_symbol_editor)
  (symbol "falco_tt_circuit_knob" (pin_names (offset 1.016)) (in_bom yes) (on_board yes)
    (property "Reference" "U" (id 0) (at 0 5.715 0)
      (effects (font (size 1.27 1.27)))
    )
    (property "Value" "falco_tt_circuit_knob" (id 1) (at 0.635 -7.62 0)
      (effects (font (size 1.27 1.27)))
    )
    (property "Footprint" "" (id 2) (at 0 0 0)
      (effects (font (size 1.27 1.27)) hide)
    )
    (property "Datasheet" "" (id 3) (at 0 0 0)
      (effects (font (size 1.27 1.27)) hide)
    )
    (symbol "falco_tt_circuit_knob_0_0"
      (polyline
        (pts
          (xy -3.429 -0.889)
          (xy -1.27 -0.254)
        )
        (stroke (width 0) (type default) (color 0 0 0 0))
        (fill (type none))
      )
      (polyline
        (pts
          (xy -4.318 -1.143)
          (xy -6.985 -1.778)
          (xy -8.89 -1.778)
        )
        (stroke (width 0) (type default) (color 0 0 0 0))
        (fill (type none))
      )
      (polyline
        (pts
          (xy -4.318 1.143)
          (xy -7.62 1.905)
          (xy -8.89 1.905)
        )
        (stroke (width 0) (type default) (color 0 0 0 0))
        (fill (type none))
      )
      (polyline
        (pts
          (xy -3.175 3.175)
          (xy -5.334 5.461)
          (xy -8.89 5.461)
        )
        (stroke (width 0) (type default) (color 0 0 0 0))
        (fill (type none))
      )
      (polyline
        (pts
          (xy -1.143 4.318)
          (xy -2.032 8.89)
          (xy -8.89 8.89)
        )
        (stroke (width 0) (type default) (color 0 0 0 0))
        (fill (type none))
      )
      (polyline
        (pts
          (xy 1.143 4.318)
          (xy 2.159 8.89)
          (xy 8.763 8.89)
        )
        (stroke (width 0) (type default) (color 0 0 0 0))
        (fill (type none))
      )
      (polyline
        (pts
          (xy 3.175 3.175)
          (xy 5.334 5.461)
          (xy 8.763 5.461)
        )
        (stroke (width 0) (type default) (color 0 0 0 0))
        (fill (type none))
      )
      (polyline
        (pts
          (xy 4.318 -1.143)
          (xy 7.239 -1.778)
          (xy 8.763 -1.778)
        )
        (stroke (width 0) (type default) (color 0 0 0 0))
        (fill (type none))
      )
      (polyline
        (pts
          (xy 4.318 1.143)
          (xy 7.239 1.905)
          (xy 8.763 1.905)
        )
        (stroke (width 0) (type default) (color 0 0 0 0))
        (fill (type none))
      )
      (text "A" (at -8.382 -0.889 0)
        (effects (font (size 1.27 1.27)))
      )
      (text "B" (at -8.509 2.794 0)
        (effects (font (size 1.27 1.27)))
      )
      (text "C" (at -8.509 6.35 0)
        (effects (font (size 1.27 1.27)))
      )
      (text "CIRCUIT SELECTOR" (at 0.635 -5.461 0)
        (effects (font (size 1.27 1.27)))
      )
      (text "D" (at -8.509 9.779 0)
        (effects (font (size 1.27 1.27)))
      )
      (text "E" (at 8.382 9.779 0)
        (effects (font (size 1.27 1.27)))
      )
      (text "F" (at 8.382 6.35 0)
        (effects (font (size 1.27 1.27)))
      )
      (text "G" (at 8.255 2.794 0)
        (effects (font (size 1.27 1.27)))
      )
      (text "H" (at 8.382 -0.889 0)
        (effects (font (size 1.27 1.27)))
      )
    )
    (symbol "falco_tt_circuit_knob_0_1"
      (polyline
        (pts
          (xy -3.683 -0.9906)
          (xy -4.2926 -1.143)
        )
        (stroke (width 0) (type default) (color 0 0 0 0))
        (fill (type none))
      )
      (polyline
        (pts
          (xy -3.683 0.9906)
          (xy -4.2926 1.143)
        )
        (stroke (width 0) (type default) (color 0 0 0 0))
        (fill (type none))
      )
      (polyline
        (pts
          (xy -2.6924 2.6924)
          (xy -3.1496 3.1496)
        )
        (stroke (width 0) (type default) (color 0 0 0 0))
        (fill (type none))
      )
      (polyline
        (pts
          (xy -0.9906 3.683)
          (xy -1.143 4.2926)
        )
        (stroke (width 0) (type default) (color 0 0 0 0))
        (fill (type none))
      )
      (polyline
        (pts
          (xy 0.9906 3.683)
          (xy 1.143 4.2926)
        )
        (stroke (width 0) (type default) (color 0 0 0 0))
        (fill (type none))
      )
      (polyline
        (pts
          (xy 2.6924 2.6924)
          (xy 3.1496 3.1496)
        )
        (stroke (width 0) (type default) (color 0 0 0 0))
        (fill (type none))
      )
      (polyline
        (pts
          (xy 3.683 -0.9906)
          (xy 4.2926 -1.143)
        )
        (stroke (width 0) (type default) (color 0 0 0 0))
        (fill (type none))
      )
      (polyline
        (pts
          (xy 3.683 0.9906)
          (xy 4.2926 1.143)
        )
        (stroke (width 0) (type default) (color 0 0 0 0))
        (fill (type none))
      )
      (circle (center 0 0) (radius 3.81)
        (stroke (width 0) (type default) (color 0 0 0 0))
        (fill (type none))
      )
    )
  )
  (symbol "falco_tt_filament_knob" (pin_names (offset 1.016)) (in_bom yes) (on_board yes)
    (property "Reference" "U" (id 0) (at 1.905 7.62 0)
      (effects (font (size 1.27 1.27)))
    )
    (property "Value" "falco_tt_filament_knob" (id 1) (at 0 -7.62 0)
      (effects (font (size 1.27 1.27)))
    )
    (property "Footprint" "" (id 2) (at 0 0 0)
      (effects (font (size 1.27 1.27)) hide)
    )
    (property "Datasheet" "" (id 3) (at 0 0 0)
      (effects (font (size 1.27 1.27)) hide)
    )
    (symbol "falco_tt_filament_knob_0_0"
      (polyline
        (pts
          (xy -11.811 9.652)
          (xy -8.128 9.652)
        )
        (stroke (width 0) (type default) (color 0 0 0 0))
        (fill (type none))
      )
      (polyline
        (pts
          (xy -10.668 0)
          (xy -11.938 0)
        )
        (stroke (width 0) (type default) (color 0 0 0 0))
        (fill (type none))
      )
      (polyline
        (pts
          (xy -5.9436 3.2766)
          (xy -3.8608 2.2098)
        )
        (stroke (width 0) (type default) (color 0 0 0 0))
        (fill (type none))
      )
      (polyline
        (pts
          (xy -4.445 0)
          (xy -6.604 0)
        )
        (stroke (width 0) (type default) (color 0 0 0 0))
        (fill (type none))
      )
      (polyline
        (pts
          (xy -3.556 0)
          (xy -1.651 0)
        )
        (stroke (width 0) (type default) (color 0 0 0 0))
        (fill (type none))
      )
      (polyline
        (pts
          (xy -2.159 12.446)
          (xy 1.905 12.446)
        )
        (stroke (width 0) (type default) (color 0 0 0 0))
        (fill (type none))
      )
      (polyline
        (pts
          (xy 0 4.445)
          (xy 0 9.652)
        )
        (stroke (width 0) (type default) (color 0 0 0 0))
        (fill (type none))
      )
      (polyline
        (pts
          (xy 0 9.652)
          (xy 0 12.446)
        )
        (stroke (width 0) (type default) (color 0 0 0 0))
        (fill (type none))
      )
      (polyline
        (pts
          (xy 2.2352 3.8354)
          (xy 5.6642 9.652)
        )
        (stroke (width 0) (type default) (color 0 0 0 0))
        (fill (type none))
      )
      (polyline
        (pts
          (xy 4.445 0)
          (xy 11.938 0)
        )
        (stroke (width 0) (type default) (color 0 0 0 0))
        (fill (type none))
      )
      (polyline
        (pts
          (xy 5.715 9.652)
          (xy 11.938 9.652)
        )
        (stroke (width 0) (type default) (color 0 0 0 0))
        (fill (type none))
      )
      (polyline
        (pts
          (xy 11.938 4.826)
          (xy 10.033 4.826)
        )
        (stroke (width 0) (type default) (color 0 0 0 0))
        (fill (type none))
      )
      (polyline
        (pts
          (xy -5.969 3.302)
          (xy -8.763 4.826)
          (xy -11.938 4.826)
        )
        (stroke (width 0) (type default) (color 0 0 0 0))
        (fill (type none))
      )
      (polyline
        (pts
          (xy -2.2098 3.8608)
          (xy -5.3086 9.652)
          (xy -8.128 9.652)
        )
        (stroke (width 0) (type default) (color 0 0 0 0))
        (fill (type none))
      )
      (polyline
        (pts
          (xy 3.8354 2.1844)
          (xy 8.7884 4.8514)
          (xy 10.0584 4.826)
        )
        (stroke (width 0) (type default) (color 0 0 0 0))
        (fill (type none))
      )
      (text "1.4" (at -10.795 -0.889 0)
        (effects (font (size 1.27 1.27)))
      )
      (text "110" (at 10.287 -0.889 0)
        (effects (font (size 1.27 1.27)))
      )
      (text "117" (at 10.287 0.889 0)
        (effects (font (size 1.27 1.27)))
      )
      (text "12.6" (at 4.191 12.446 0)
        (effects (font (size 1.27 1.27)))
      )
      (text "2.0" (at -10.668 0.889 0)
        (effects (font (size 1.27 1.27)))
      )
      (text "2.5" (at -10.668 3.937 0)
        (effects (font (size 1.27 1.27)))
      )
      (text "25" (at 10.922 8.763 0)
        (effects (font (size 1.27 1.27)))
      )
      (text "3.3" (at -10.668 5.715 0)
        (effects (font (size 1.27 1.27)))
      )
      (text "5.0" (at -10.541 8.763 0)
        (effects (font (size 1.27 1.27)))
      )
      (text "50" (at 10.922 10.541 0)
        (effects (font (size 1.27 1.27)))
      )
      (text "6.3" (at -10.668 10.541 0)
        (effects (font (size 1.27 1.27)))
      )
      (text "7.5" (at -3.81 12.446 0)
        (effects (font (size 1.27 1.27)))
      )
      (text "70" (at 11.049 3.937 0)
        (effects (font (size 1.27 1.27)))
      )
      (text "85" (at 11.049 5.715 0)
        (effects (font (size 1.27 1.27)))
      )
      (text "FILAMENT" (at 0.127 -5.461 0)
        (effects (font (size 1.27 1.27)))
      )
    )
    (symbol "falco_tt_filament_knob_0_1"
      (polyline
        (pts
          (xy -6.604 0)
          (xy -10.668 0)
        )
        (stroke (width 0) (type default) (color 0 0 0 0))
        (fill (type none))
      )
      (polyline
        (pts
          (xy -3.81 0)
          (xy -4.445 0)
        )
        (stroke (width 0) (type default) (color 0 0 0 0))
        (fill (type none))
      )
      (polyline
        (pts
          (xy -3.302 1.905)
          (xy -3.8608 2.2098)
        )
        (stroke (width 0) (type default) (color 0 0 0 0))
        (fill (type none))
      )
      (polyline
        (pts
          (xy -1.905 3.302)
          (xy -2.2098 3.8608)
        )
        (stroke (width 0) (type default) (color 0 0 0 0))
        (fill (type none))
      )
      (polyline
        (pts
          (xy 0 3.81)
          (xy 0 4.445)
        )
        (stroke (width 0) (type default) (color 0 0 0 0))
        (fill (type none))
      )
      (polyline
        (pts
          (xy 1.905 3.302)
          (xy 2.2352 3.8608)
        )
        (stroke (width 0) (type default) (color 0 0 0 0))
        (fill (type none))
      )
      (polyline
        (pts
          (xy 3.302 1.905)
          (xy 3.8608 2.2098)
        )
        (stroke (width 0) (type default) (color 0 0 0 0))
        (fill (type none))
      )
      (polyline
        (pts
          (xy 3.81 0)
          (xy 4.445 0)
        )
        (stroke (width 0) (type default) (color 0 0 0 0))
        (fill (type none))
      )
      (circle (center 0 0) (radius 3.81)
        (stroke (width 0) (type default) (color 0 0 0 0))
        (fill (type none))
      )
    )
  )
  (symbol "falco_tt_function_knob" (pin_names (offset 1.016)) (in_bom yes) (on_board yes)
    (property "Reference" "U" (id 0) (at 15.24 24.13 0)
      (effects (font (size 1.27 1.27)))
    )
    (property "Value" "falco_tt_function_knob" (id 1) (at 0 -22.86 0)
      (effects (font (size 1.27 1.27)))
    )
    (property "Footprint" "" (id 2) (at 0 0 0)
      (effects (font (size 1.27 1.27)) hide)
    )
    (property "Datasheet" "" (id 3) (at 0 0 0)
      (effects (font (size 1.27 1.27)) hide)
    )
    (symbol "falco_tt_function_knob_0_0"
      (polyline
        (pts
          (xy -7.493 2.921)
          (xy -8.001 2.921)
        )
        (stroke (width 0) (type default) (color 0 0 0 0))
        (fill (type none))
      )
      (polyline
        (pts
          (xy -2.794 2.921)
          (xy -7.493 2.921)
        )
        (stroke (width 0) (type default) (color 0 0 0 0))
        (fill (type none))
      )
      (polyline
        (pts
          (xy -2.286 2.413)
          (xy -1.143 1.27)
        )
        (stroke (width 0) (type default) (color 0 0 0 0))
        (fill (type none))
      )
      (polyline
        (pts
          (xy 2.794 2.921)
          (xy 9.017 2.921)
        )
        (stroke (width 0) (type default) (color 0 0 0 0))
        (fill (type none))
      )
      (polyline
        (pts
          (xy -1.27 3.81)
          (xy -2.54 7.747)
          (xy -7.747 7.747)
        )
        (stroke (width 0) (type default) (color 0 0 0 0))
        (fill (type none))
      )
      (polyline
        (pts
          (xy 1.143 3.81)
          (xy 2.413 7.747)
          (xy 8.255 7.747)
        )
        (stroke (width 0) (type default) (color 0 0 0 0))
        (fill (type none))
      )
      (text "AC." (at 6.35 3.81 0)
        (effects (font (size 1.27 1.27)))
      )
      (text "D.C.V." (at 5.461 8.636 0)
        (effects (font (size 1.27 1.27)))
      )
      (text "FUNCTION" (at 0.254 -5.715 0)
        (effects (font (size 1.27 1.27)))
      )
      (text "MA." (at 4.699 6.858 0)
        (effects (font (size 1.27 1.27)))
      )
      (text "OHMS" (at -5.334 8.636 0)
        (effects (font (size 1.27 1.27)))
      )
      (text "TEST" (at -5.969 2.032 0)
        (effects (font (size 1.27 1.27)))
      )
      (text "TUBE" (at -5.715 3.81 0)
        (effects (font (size 1.27 1.27)))
      )
      (text "VOLTS" (at 6.35 2.032 0)
        (effects (font (size 1.27 1.27)))
      )
    )
    (symbol "falco_tt_function_knob_0_1"
      (polyline
        (pts
          (xy -2.794 2.921)
          (xy -2.54 2.667)
        )
        (stroke (width 0) (type default) (color 0 0 0 0))
        (fill (type none))
      )
      (polyline
        (pts
          (xy -1.27 3.81)
          (xy -1.143 3.429)
        )
        (stroke (width 0) (type default) (color 0 0 0 0))
        (fill (type none))
      )
      (polyline
        (pts
          (xy 1.143 3.81)
          (xy 1.016 3.429)
        )
        (stroke (width 0) (type default) (color 0 0 0 0))
        (fill (type none))
      )
      (polyline
        (pts
          (xy 2.794 2.921)
          (xy 2.54 2.667)
        )
        (stroke (width 0) (type default) (color 0 0 0 0))
        (fill (type none))
      )
      (circle (center 0 0) (radius 3.5814)
        (stroke (width 0) (type default) (color 0 0 0 0))
        (fill (type none))
      )
    )
  )
  (symbol "falco_tt_load_knob" (pin_names (offset 1.016)) (in_bom yes) (on_board yes)
    (property "Reference" "U" (id 0) (at 1.651 8.382 0)
      (effects (font (size 1.27 1.27)))
    )
    (property "Value" "falco_tt_load_knob" (id 1) (at -0.762 -10.287 0)
      (effects (font (size 1.27 1.27)))
    )
    (property "Footprint" "" (id 2) (at 0 0 0)
      (effects (font (size 1.27 1.27)) hide)
    )
    (property "Datasheet" "" (id 3) (at 0 0 0)
      (effects (font (size 1.27 1.27)) hide)
    )
    (symbol "falco_tt_load_knob_0_0"
      (polyline
        (pts
          (xy -3.937 -0.889)
          (xy -6.096 -1.397)
        )
        (stroke (width 0) (type default) (color 0 0 0 0))
        (fill (type none))
      )
      (polyline
        (pts
          (xy -3.937 0.889)
          (xy -6.096 1.397)
        )
        (stroke (width 0) (type default) (color 0 0 0 0))
        (fill (type none))
      )
      (polyline
        (pts
          (xy -3.175 -2.54)
          (xy -4.953 -3.81)
        )
        (stroke (width 0) (type default) (color 0 0 0 0))
        (fill (type none))
      )
      (polyline
        (pts
          (xy -1.778 -3.683)
          (xy -2.54 -5.334)
        )
        (stroke (width 0) (type default) (color 0 0 0 0))
        (fill (type none))
      )
      (polyline
        (pts
          (xy -1.778 3.683)
          (xy -2.667 5.461)
        )
        (stroke (width 0) (type default) (color 0 0 0 0))
        (fill (type none))
      )
      (polyline
        (pts
          (xy 0 4.445)
          (xy 0 6.096)
        )
        (stroke (width 0) (type default) (color 0 0 0 0))
        (fill (type none))
      )
      (polyline
        (pts
          (xy 1.778 -3.683)
          (xy 2.54 -5.334)
        )
        (stroke (width 0) (type default) (color 0 0 0 0))
        (fill (type none))
      )
      (polyline
        (pts
          (xy 1.778 3.683)
          (xy 2.667 5.588)
        )
        (stroke (width 0) (type default) (color 0 0 0 0))
        (fill (type none))
      )
      (polyline
        (pts
          (xy 3.175 -2.54)
          (xy 5.461 -4.318)
        )
        (stroke (width 0) (type default) (color 0 0 0 0))
        (fill (type none))
      )
      (polyline
        (pts
          (xy 3.175 2.54)
          (xy 5.08 3.937)
        )
        (stroke (width 0) (type default) (color 0 0 0 0))
        (fill (type none))
      )
      (polyline
        (pts
          (xy 3.937 -0.889)
          (xy 6.35 -1.524)
        )
        (stroke (width 0) (type default) (color 0 0 0 0))
        (fill (type none))
      )
      (polyline
        (pts
          (xy 3.937 0.889)
          (xy 6.477 1.524)
        )
        (stroke (width 0) (type default) (color 0 0 0 0))
        (fill (type none))
      )
      (text "0" (at -8.255 -6.223 0)
        (effects (font (size 1.27 1.27)))
      )
      (text "1" (at -8.128 -3.556 0)
        (effects (font (size 1.27 1.27)))
      )
      (text "10" (at 8.001 -0.635 0)
        (effects (font (size 1.27 1.27)))
      )
      (text "11" (at 7.874 -3.556 0)
        (effects (font (size 1.27 1.27)))
      )
      (text "12" (at 7.874 -6.223 0)
        (effects (font (size 1.27 1.27)))
      )
      (text "2" (at -8.001 -0.508 0)
        (effects (font (size 1.27 1.27)))
      )
      (text "3" (at -8.001 2.286 0)
        (effects (font (size 1.27 1.27)))
      )
      (text "4" (at -8.128 5.08 0)
        (effects (font (size 1.27 1.27)))
      )
      (text "5" (at -8.128 8.001 0)
        (effects (font (size 1.27 1.27)))
      )
      (text "6" (at 0 8.001 0)
        (effects (font (size 1.27 1.27)))
      )
      (text "7" (at 8.382 8.001 0)
        (effects (font (size 1.27 1.27)))
      )
      (text "8" (at 8.509 5.08 0)
        (effects (font (size 1.27 1.27)))
      )
      (text "9" (at 8.509 2.413 0)
        (effects (font (size 1.27 1.27)))
      )
      (text "LOAD" (at 0 -8.382 0)
        (effects (font (size 1.27 1.27)))
      )
    )
    (symbol "falco_tt_load_knob_0_1"
      (polyline
        (pts
          (xy -8.509 -7.112)
          (xy -5.842 -7.112)
        )
        (stroke (width 0) (type default) (color 0 0 0 0))
        (fill (type none))
      )
      (polyline
        (pts
          (xy -8.509 -4.445)
          (xy -6.223 -4.445)
        )
        (stroke (width 0) (type default) (color 0 0 0 0))
        (fill (type none))
      )
      (polyline
        (pts
          (xy -8.509 4.191)
          (xy -5.715 4.191)
        )
        (stroke (width 0) (type default) (color 0 0 0 0))
        (fill (type none))
      )
      (polyline
        (pts
          (xy -8.509 7.112)
          (xy -5.842 7.112)
        )
        (stroke (width 0) (type default) (color 0 0 0 0))
        (fill (type none))
      )
      (polyline
        (pts
          (xy -6.096 -1.397)
          (xy -8.509 -1.397)
        )
        (stroke (width 0) (type default) (color 0 0 0 0))
        (fill (type none))
      )
      (polyline
        (pts
          (xy -6.096 1.397)
          (xy -8.509 1.397)
        )
        (stroke (width 0) (type default) (color 0 0 0 0))
        (fill (type none))
      )
      (polyline
        (pts
          (xy -3.7084 -0.8382)
          (xy -4.3434 -0.9906)
        )
        (stroke (width 0) (type default) (color 0 0 0 0))
        (fill (type none))
      )
      (polyline
        (pts
          (xy -3.7084 0.8382)
          (xy -4.3434 0.9906)
        )
        (stroke (width 0) (type default) (color 0 0 0 0))
        (fill (type none))
      )
      (polyline
        (pts
          (xy -2.9718 -2.3876)
          (xy -3.4798 -2.7686)
        )
        (stroke (width 0) (type default) (color 0 0 0 0))
        (fill (type none))
      )
      (polyline
        (pts
          (xy -2.9718 2.3876)
          (xy -3.4798 2.7686)
        )
        (stroke (width 0) (type default) (color 0 0 0 0))
        (fill (type none))
      )
      (polyline
        (pts
          (xy -1.651 -3.429)
          (xy -1.9304 -4.0132)
        )
        (stroke (width 0) (type default) (color 0 0 0 0))
        (fill (type none))
      )
      (polyline
        (pts
          (xy -1.651 3.429)
          (xy -1.9304 4.0132)
        )
        (stroke (width 0) (type default) (color 0 0 0 0))
        (fill (type none))
      )
      (polyline
        (pts
          (xy -1.524 -3.048)
          (xy -0.635 -1.143)
        )
        (stroke (width 0) (type default) (color 0 0 0 0))
        (fill (type none))
      )
      (polyline
        (pts
          (xy 0 3.81)
          (xy 0 4.445)
        )
        (stroke (width 0) (type default) (color 0 0 0 0))
        (fill (type none))
      )
      (polyline
        (pts
          (xy 0 6.096)
          (xy 0 6.223)
        )
        (stroke (width 0) (type default) (color 0 0 0 0))
        (fill (type none))
      )
      (polyline
        (pts
          (xy 0 6.223)
          (xy 0 7.112)
        )
        (stroke (width 0) (type default) (color 0 0 0 0))
        (fill (type none))
      )
      (polyline
        (pts
          (xy 1.651 -3.429)
          (xy 1.9304 -4.0132)
        )
        (stroke (width 0) (type default) (color 0 0 0 0))
        (fill (type none))
      )
      (polyline
        (pts
          (xy 1.651 3.429)
          (xy 1.9304 4.0132)
        )
        (stroke (width 0) (type default) (color 0 0 0 0))
        (fill (type none))
      )
      (polyline
        (pts
          (xy 2.9718 -2.3876)
          (xy 3.4798 -2.7686)
        )
        (stroke (width 0) (type default) (color 0 0 0 0))
        (fill (type none))
      )
      (polyline
        (pts
          (xy 2.9718 2.3876)
          (xy 3.4798 2.7686)
        )
        (stroke (width 0) (type default) (color 0 0 0 0))
        (fill (type none))
      )
      (polyline
        (pts
          (xy 3.7084 -0.8382)
          (xy 4.3434 -0.9906)
        )
        (stroke (width 0) (type default) (color 0 0 0 0))
        (fill (type none))
      )
      (polyline
        (pts
          (xy 3.7084 0.8382)
          (xy 4.3434 0.9906)
        )
        (stroke (width 0) (type default) (color 0 0 0 0))
        (fill (type none))
      )
      (polyline
        (pts
          (xy 6.35 -1.524)
          (xy 8.128 -1.524)
        )
        (stroke (width 0) (type default) (color 0 0 0 0))
        (fill (type none))
      )
      (polyline
        (pts
          (xy 6.477 1.524)
          (xy 8.89 1.524)
        )
        (stroke (width 0) (type default) (color 0 0 0 0))
        (fill (type none))
      )
      (polyline
        (pts
          (xy 8.128 -1.524)
          (xy 8.89 -1.524)
        )
        (stroke (width 0) (type default) (color 0 0 0 0))
        (fill (type none))
      )
      (polyline
        (pts
          (xy 8.89 7.112)
          (xy 6.35 7.112)
        )
        (stroke (width 0) (type default) (color 0 0 0 0))
        (fill (type none))
      )
      (polyline
        (pts
          (xy -4.953 -3.81)
          (xy -5.842 -4.445)
          (xy -6.223 -4.445)
        )
        (stroke (width 0) (type default) (color 0 0 0 0))
        (fill (type none))
      )
      (polyline
        (pts
          (xy -3.175 2.54)
          (xy -5.334 4.191)
          (xy -5.715 4.191)
        )
        (stroke (width 0) (type default) (color 0 0 0 0))
        (fill (type none))
      )
      (polyline
        (pts
          (xy -2.667 5.461)
          (xy -3.556 7.112)
          (xy -5.842 7.112)
        )
        (stroke (width 0) (type default) (color 0 0 0 0))
        (fill (type none))
      )
      (polyline
        (pts
          (xy -2.54 -5.334)
          (xy -3.429 -7.112)
          (xy -5.842 -7.112)
        )
        (stroke (width 0) (type default) (color 0 0 0 0))
        (fill (type none))
      )
      (polyline
        (pts
          (xy 2.54 -5.334)
          (xy 3.429 -7.112)
          (xy 8.89 -7.112)
        )
        (stroke (width 0) (type default) (color 0 0 0 0))
        (fill (type none))
      )
      (polyline
        (pts
          (xy 2.667 5.588)
          (xy 3.302 7.112)
          (xy 6.35 7.112)
        )
        (stroke (width 0) (type default) (color 0 0 0 0))
        (fill (type none))
      )
      (polyline
        (pts
          (xy 5.461 -4.318)
          (xy 5.588 -4.445)
          (xy 8.89 -4.445)
        )
        (stroke (width 0) (type default) (color 0 0 0 0))
        (fill (type none))
      )
      (polyline
        (pts
          (xy 8.89 4.191)
          (xy 5.461 4.191)
          (xy 5.08 3.937)
        )
        (stroke (width 0) (type default) (color 0 0 0 0))
        (fill (type none))
      )
      (circle (center 0 0) (radius 3.81)
        (stroke (width 0) (type default) (color 0 0 0 0))
        (fill (type none))
      )
    )
  )
  (symbol "falco_tt_range_knob" (pin_names (offset 1.016)) (in_bom yes) (on_board yes)
    (property "Reference" "U" (id 0) (at 0 12.065 0)
      (effects (font (size 1.27 1.27)))
    )
    (property "Value" "falco_tt_range_knob" (id 1) (at 0.889 -10.287 0)
      (effects (font (size 1.27 1.27)))
    )
    (property "Footprint" "" (id 2) (at 0 0 0)
      (effects (font (size 1.27 1.27)) hide)
    )
    (property "Datasheet" "" (id 3) (at 0 0 0)
      (effects (font (size 1.27 1.27)) hide)
    )
    (symbol "falco_tt_range_knob_0_0"
      (polyline
        (pts
          (xy -13.843 2.032)
          (xy -14.097 2.032)
        )
        (stroke (width 0) (type default) (color 0 0 0 0))
        (fill (type none))
      )
      (polyline
        (pts
          (xy -13.843 6.223)
          (xy -14.097 6.223)
        )
        (stroke (width 0) (type default) (color 0 0 0 0))
        (fill (type none))
      )
      (polyline
        (pts
          (xy -13.843 10.287)
          (xy -14.097 10.287)
        )
        (stroke (width 0) (type default) (color 0 0 0 0))
        (fill (type none))
      )
      (polyline
        (pts
          (xy -6.477 6.223)
          (xy -13.843 6.223)
        )
        (stroke (width 0) (type default) (color 0 0 0 0))
        (fill (type none))
      )
      (polyline
        (pts
          (xy -3.175 3.175)
          (xy -6.477 6.223)
        )
        (stroke (width 0) (type default) (color 0 0 0 0))
        (fill (type none))
      )
      (polyline
        (pts
          (xy -2.54 -2.54)
          (xy -1.27 -1.27)
        )
        (stroke (width 0) (type default) (color 0 0 0 0))
        (fill (type none))
      )
      (polyline
        (pts
          (xy -4.318 -1.143)
          (xy -7.874 -2.032)
          (xy -14.097 -2.032)
        )
        (stroke (width 0) (type default) (color 0 0 0 0))
        (fill (type none))
      )
      (polyline
        (pts
          (xy -4.318 1.143)
          (xy -7.874 2.032)
          (xy -13.843 2.032)
        )
        (stroke (width 0) (type default) (color 0 0 0 0))
        (fill (type none))
      )
      (polyline
        (pts
          (xy -3.175 -3.175)
          (xy -6.35 -6.223)
          (xy -14.097 -6.223)
        )
        (stroke (width 0) (type default) (color 0 0 0 0))
        (fill (type none))
      )
      (polyline
        (pts
          (xy -1.143 4.318)
          (xy -2.54 10.287)
          (xy -13.843 10.287)
        )
        (stroke (width 0) (type default) (color 0 0 0 0))
        (fill (type none))
      )
      (polyline
        (pts
          (xy 1.143 4.318)
          (xy 2.667 10.287)
          (xy 15.24 10.287)
        )
        (stroke (width 0) (type default) (color 0 0 0 0))
        (fill (type none))
      )
      (polyline
        (pts
          (xy 3.175 -3.175)
          (xy 6.223 -6.223)
          (xy 15.494 -6.223)
        )
        (stroke (width 0) (type default) (color 0 0 0 0))
        (fill (type none))
      )
      (polyline
        (pts
          (xy 3.175 3.175)
          (xy 6.477 6.223)
          (xy 15.367 6.223)
        )
        (stroke (width 0) (type default) (color 0 0 0 0))
        (fill (type none))
      )
      (polyline
        (pts
          (xy 4.318 -1.143)
          (xy 8.763 -2.032)
          (xy 15.494 -2.032)
        )
        (stroke (width 0) (type default) (color 0 0 0 0))
        (fill (type none))
      )
      (polyline
        (pts
          (xy 4.318 1.143)
          (xy 8.763 2.032)
          (xy 11.811 2.032)
          (xy 15.494 2.032)
        )
        (stroke (width 0) (type default) (color 0 0 0 0))
        (fill (type none))
      )
      (text "1.5 AMP." (at -10.16 11.176 0)
        (effects (font (size 1.27 1.27)))
      )
      (text "1.5 MA" (at -11.049 -1.143 0)
        (effects (font (size 1.27 1.27)))
      )
      (text "15 MA" (at -11.43 2.921 0)
        (effects (font (size 1.27 1.27)))
      )
      (text "15 VAC" (at 12.319 -5.334 0)
        (effects (font (size 1.27 1.27)))
      )
      (text "15 VDC" (at 12.319 -2.921 0)
        (effects (font (size 1.27 1.27)))
      )
      (text "150 MA" (at -10.795 7.112 0)
        (effects (font (size 1.27 1.27)))
      )
      (text "150 VAC" (at 11.557 2.921 0)
        (effects (font (size 1.27 1.27)))
      )
      (text "150 VDC" (at 11.557 5.334 0)
        (effects (font (size 1.27 1.27)))
      )
      (text "1500 VAC" (at 10.922 11.176 0)
        (effects (font (size 1.27 1.27)))
      )
      (text "30 VAC" (at 12.319 -1.143 0)
        (effects (font (size 1.27 1.27)))
      )
      (text "300 VAC" (at 11.557 7.112 0)
        (effects (font (size 1.27 1.27)))
      )
      (text "7.5 VDC" (at 11.938 -7.112 0)
        (effects (font (size 1.27 1.27)))
      )
      (text "75 VDC" (at 12.192 1.143 0)
        (effects (font (size 1.27 1.27)))
      )
      (text "750 VDC" (at 11.43 9.398 0)
        (effects (font (size 1.27 1.27)))
      )
      (text "RANGE" (at -0.254 -7.112 0)
        (effects (font (size 1.27 1.27)))
      )
      (text "Rx1" (at -12.7 5.334 0)
        (effects (font (size 1.27 1.27)))
      )
      (text "Rx10" (at -12.065 1.143 0)
        (effects (font (size 1.27 1.27)))
      )
      (text "Rx100" (at -11.43 -2.921 0)
        (effects (font (size 1.27 1.27)))
      )
      (text "Rx10M" (at -11.303 -7.112 0)
        (effects (font (size 1.27 1.27)))
      )
    )
    (symbol "falco_tt_range_knob_0_1"
      (polyline
        (pts
          (xy -3.683 -0.9906)
          (xy -4.2926 -1.143)
        )
        (stroke (width 0) (type default) (color 0 0 0 0))
        (fill (type none))
      )
      (polyline
        (pts
          (xy -3.683 0.9906)
          (xy -4.2926 1.143)
        )
        (stroke (width 0) (type default) (color 0 0 0 0))
        (fill (type none))
      )
      (polyline
        (pts
          (xy -2.6924 -2.6924)
          (xy -3.1496 -3.1496)
        )
        (stroke (width 0) (type default) (color 0 0 0 0))
        (fill (type none))
      )
      (polyline
        (pts
          (xy -2.6924 2.6924)
          (xy -3.1496 3.1496)
        )
        (stroke (width 0) (type default) (color 0 0 0 0))
        (fill (type none))
      )
      (polyline
        (pts
          (xy -0.9906 3.683)
          (xy -1.143 4.2926)
        )
        (stroke (width 0) (type default) (color 0 0 0 0))
        (fill (type none))
      )
      (polyline
        (pts
          (xy 0.9906 3.683)
          (xy 1.143 4.2926)
        )
        (stroke (width 0) (type default) (color 0 0 0 0))
        (fill (type none))
      )
      (polyline
        (pts
          (xy 2.6924 -2.6924)
          (xy 3.1496 -3.1496)
        )
        (stroke (width 0) (type default) (color 0 0 0 0))
        (fill (type none))
      )
      (polyline
        (pts
          (xy 2.6924 2.6924)
          (xy 3.1496 3.1496)
        )
        (stroke (width 0) (type default) (color 0 0 0 0))
        (fill (type none))
      )
      (polyline
        (pts
          (xy 3.683 -0.9906)
          (xy 4.2926 -1.143)
        )
        (stroke (width 0) (type default) (color 0 0 0 0))
        (fill (type none))
      )
      (polyline
        (pts
          (xy 3.683 0.9906)
          (xy 4.2926 1.143)
        )
        (stroke (width 0) (type default) (color 0 0 0 0))
        (fill (type none))
      )
      (circle (center 0 0) (radius 3.81)
        (stroke (width 0) (type default) (color 0 0 0 0))
        (fill (type none))
      )
    )
  )
  (symbol "falco_tt_top_cap" (pin_numbers hide) (pin_names (offset 1.016)) (in_bom yes) (on_board yes)
    (property "Reference" "V" (id 0) (at 2.286 3.429 0)
      (effects (font (size 1.27 1.27)))
    )
    (property "Value" "falco_tt_top_cap" (id 1) (at 3.048 -3.81 0)
      (effects (font (size 1.27 1.27)))
    )
    (property "Footprint" "" (id 2) (at 0 0 0)
      (effects (font (size 1.27 1.27)) hide)
    )
    (property "Datasheet" "" (id 3) (at 0 0 0)
      (effects (font (size 1.27 1.27)) hide)
    )
    (symbol "falco_tt_top_cap_0_1"
      (rectangle (start -2.54 1.27) (end -2.54 -1.27)
        (stroke (width 0) (type default) (color 0 0 0 0))
        (fill (type none))
      )
      (polyline
        (pts
          (xy -2.54 -1.27)
          (xy 2.794 -2.032)
          (xy 2.794 -2.032)
        )
        (stroke (width 0) (type default) (color 0 0 0 0))
        (fill (type none))
      )
      (polyline
        (pts
          (xy -2.54 1.27)
          (xy 2.794 2.032)
          (xy 2.794 2.032)
        )
        (stroke (width 0) (type default) (color 0 0 0 0))
        (fill (type none))
      )
      (polyline
        (pts
          (xy 2.794 -2.032)
          (xy 2.794 -1.905)
          (xy 2.794 -1.905)
        )
        (stroke (width 0) (type default) (color 0 0 0 0))
        (fill (type none))
      )
      (polyline
        (pts
          (xy 2.794 2.032)
          (xy 2.794 1.905)
          (xy 2.794 1.905)
        )
        (stroke (width 0) (type default) (color 0 0 0 0))
        (fill (type none))
      )
      (circle (center 3.048 0) (radius 1.8796)
        (stroke (width 0) (type default) (color 0 0 0 0))
        (fill (type none))
      )
    )
    (symbol "falco_tt_top_cap_1_1"
      (pin passive line (at -5.08 0 0) (length 2.54)
        (name "~" (effects (font (size 1.27 1.27))))
        (number "1" (effects (font (size 1.27 1.27))))
      )
    )
  )
  (symbol "falco_tt_transformer" (pin_numbers hide) (pin_names (offset 1.016)) (in_bom yes) (on_board yes)
    (property "Reference" "T" (id 0) (at 1.27 15.24 0)
      (effects (font (size 1.27 1.27)))
    )
    (property "Value" "falco_tt_transformer" (id 1) (at 3.81 -17.78 0)
      (effects (font (size 1.27 1.27)))
    )
    (property "Footprint" "" (id 2) (at 0 0 0)
      (effects (font (size 1.27 1.27)) hide)
    )
    (property "Datasheet" "" (id 3) (at 0 0 0)
      (effects (font (size 1.27 1.27)) hide)
    )
    (symbol "falco_tt_transformer_0_0"
      (text "1.4" (at 5.1562 10.7188 0)
        (effects (font (size 0.762 0.762)))
      )
      (text "110" (at -1.1684 3.0988 0)
        (effects (font (size 0.762 0.762)))
      )
      (text "117" (at 5.207 -14.6812 0)
        (effects (font (size 0.762 0.762)))
      )
      (text "12.6" (at 4.826 -7.0612 0)
        (effects (font (size 0.762 0.762)))
      )
      (text "120" (at -1.1684 5.6388 0)
        (effects (font (size 0.762 0.762)))
      )
      (text "2.0" (at 5.1816 8.1788 0)
        (effects (font (size 0.762 0.762)))
      )
      (text "2.5" (at 5.1562 5.6388 0)
        (effects (font (size 0.762 0.762)))
      )
      (text "25" (at 5.3594 -9.6012 0)
        (effects (font (size 0.762 0.762)))
      )
      (text "3.3" (at 5.1562 3.0988 0)
        (effects (font (size 0.762 0.762)))
      )
      (text "5.0" (at 5.1816 0.5588 0)
        (effects (font (size 0.762 0.762)))
      )
      (text "50" (at 5.3848 -12.1412 0)
        (effects (font (size 0.762 0.762)))
      )
      (text "6.3" (at 5.1308 -1.9812 0)
        (effects (font (size 0.762 0.762)))
      )
      (text "7.5" (at 5.1816 -4.5212 0)
        (effects (font (size 0.762 0.762)))
      )
      (text "COM" (at -1.1684 -4.5212 0)
        (effects (font (size 0.762 0.762)))
      )
      (text "COM" (at 4.8006 13.2588 0)
        (effects (font (size 0.762 0.762)))
      )
    )
    (symbol "falco_tt_transformer_0_1"
      (arc (start 0 -5.08) (mid 0.635 -4.445) (end 0 -3.81)
        (stroke (width 0) (type default) (color 0 0 0 0))
        (fill (type none))
      )
      (arc (start 0 -3.81) (mid 0.635 -3.175) (end 0 -2.54)
        (stroke (width 0) (type default) (color 0 0 0 0))
        (fill (type none))
      )
      (arc (start 0 -2.54) (mid 0.635 -1.905) (end 0 -1.27)
        (stroke (width 0) (type default) (color 0 0 0 0))
        (fill (type none))
      )
      (arc (start 0 -1.27) (mid 0.635 -0.635) (end 0 0)
        (stroke (width 0) (type default) (color 0 0 0 0))
        (fill (type none))
      )
      (polyline
        (pts
          (xy 1.27 -8.89)
          (xy 1.27 -15.24)
        )
        (stroke (width 0) (type default) (color 0 0 0 0))
        (fill (type none))
      )
      (polyline
        (pts
          (xy 1.27 8.89)
          (xy 1.27 -8.89)
        )
        (stroke (width 0) (type default) (color 0 0 0 0))
        (fill (type none))
      )
      (polyline
        (pts
          (xy 1.27 8.89)
          (xy 1.27 12.7)
        )
        (stroke (width 0) (type default) (color 0 0 0 0))
        (fill (type none))
      )
      (polyline
        (pts
          (xy 2.54 -8.89)
          (xy 2.54 -15.24)
        )
        (stroke (width 0) (type default) (color 0 0 0 0))
        (fill (type none))
      )
      (polyline
        (pts
          (xy 2.54 8.89)
          (xy 2.54 -8.89)
        )
        (stroke (width 0) (type default) (color 0 0 0 0))
        (fill (type none))
      )
      (polyline
        (pts
          (xy 2.54 8.89)
          (xy 2.54 12.7)
        )
        (stroke (width 0) (type default) (color 0 0 0 0))
        (fill (type none))
      )
      (arc (start 0 0) (mid 0.635 0.635) (end 0 1.27)
        (stroke (width 0) (type default) (color 0 0 0 0))
        (fill (type none))
      )
      (arc (start 0 1.27) (mid 0.635 1.905) (end 0 2.54)
        (stroke (width 0) (type default) (color 0 0 0 0))
        (fill (type none))
      )
      (arc (start 0 2.54) (mid 0.635 3.175) (end 0 3.81)
        (stroke (width 0) (type default) (color 0 0 0 0))
        (fill (type none))
      )
      (arc (start 0 3.81) (mid 0.635 4.445) (end 0 5.08)
        (stroke (width 0) (type default) (color 0 0 0 0))
        (fill (type none))
      )
      (arc (start 3.81 -13.97) (mid 3.175 -14.605) (end 3.81 -15.24)
        (stroke (width 0) (type default) (color 0 0 0 0))
        (fill (type none))
      )
      (arc (start 3.81 -12.7) (mid 3.175 -13.335) (end 3.81 -13.97)
        (stroke (width 0) (type default) (color 0 0 0 0))
        (fill (type none))
      )
      (arc (start 3.81 -11.43) (mid 3.175 -12.065) (end 3.81 -12.7)
        (stroke (width 0) (type default) (color 0 0 0 0))
        (fill (type none))
      )
      (arc (start 3.81 -10.16) (mid 3.175 -10.795) (end 3.81 -11.43)
        (stroke (width 0) (type default) (color 0 0 0 0))
        (fill (type none))
      )
      (arc (start 3.81 -8.89) (mid 3.175 -9.525) (end 3.81 -10.16)
        (stroke (width 0) (type default) (color 0 0 0 0))
        (fill (type none))
      )
      (arc (start 3.81 -7.62) (mid 3.175 -8.255) (end 3.81 -8.89)
        (stroke (width 0) (type default) (color 0 0 0 0))
        (fill (type none))
      )
      (arc (start 3.81 -6.35) (mid 3.175 -6.985) (end 3.81 -7.62)
        (stroke (width 0) (type default) (color 0 0 0 0))
        (fill (type none))
      )
      (arc (start 3.81 -5.08) (mid 3.175 -5.715) (end 3.81 -6.35)
        (stroke (width 0) (type default) (color 0 0 0 0))
        (fill (type none))
      )
      (arc (start 3.81 -3.81) (mid 3.175 -4.445) (end 3.81 -5.08)
        (stroke (width 0) (type default) (color 0 0 0 0))
        (fill (type none))
      )
      (arc (start 3.81 -2.54) (mid 3.175 -3.175) (end 3.81 -3.81)
        (stroke (width 0) (type default) (color 0 0 0 0))
        (fill (type none))
      )
      (arc (start 3.81 -1.27) (mid 3.175 -1.905) (end 3.81 -2.54)
        (stroke (width 0) (type default) (color 0 0 0 0))
        (fill (type none))
      )
      (arc (start 3.81 0) (mid 3.175 -0.635) (end 3.81 -1.27)
        (stroke (width 0) (type default) (color 0 0 0 0))
        (fill (type none))
      )
      (arc (start 3.81 1.27) (mid 3.175 0.635) (end 3.81 0)
        (stroke (width 0) (type default) (color 0 0 0 0))
        (fill (type none))
      )
      (arc (start 3.81 2.54) (mid 3.175 1.905) (end 3.81 1.27)
        (stroke (width 0) (type default) (color 0 0 0 0))
        (fill (type none))
      )
      (arc (start 3.81 3.81) (mid 3.175 3.175) (end 3.81 2.54)
        (stroke (width 0) (type default) (color 0 0 0 0))
        (fill (type none))
      )
      (arc (start 3.81 5.08) (mid 3.175 4.445) (end 3.81 3.81)
        (stroke (width 0) (type default) (color 0 0 0 0))
        (fill (type none))
      )
      (arc (start 3.81 6.35) (mid 3.175 5.715) (end 3.81 5.08)
        (stroke (width 0) (type default) (color 0 0 0 0))
        (fill (type none))
      )
      (arc (start 3.81 7.62) (mid 3.175 6.985) (end 3.81 6.35)
        (stroke (width 0) (type default) (color 0 0 0 0))
        (fill (type none))
      )
      (arc (start 3.81 8.89) (mid 3.175 8.255) (end 3.81 7.62)
        (stroke (width 0) (type default) (color 0 0 0 0))
        (fill (type none))
      )
      (arc (start 3.81 10.16) (mid 3.175 9.525) (end 3.81 8.89)
        (stroke (width 0) (type default) (color 0 0 0 0))
        (fill (type none))
      )
      (arc (start 3.81 11.43) (mid 3.175 10.795) (end 3.81 10.16)
        (stroke (width 0) (type default) (color 0 0 0 0))
        (fill (type none))
      )
      (arc (start 3.81 12.7) (mid 3.175 12.065) (end 3.81 11.43)
        (stroke (width 0) (type default) (color 0 0 0 0))
        (fill (type none))
      )
    )
    (symbol "falco_tt_transformer_1_1"
      (pin passive line (at -2.54 -5.08 0) (length 2.54)
        (name "~" (effects (font (size 1.27 1.27))))
        (number "1" (effects (font (size 1.27 1.27))))
      )
      (pin passive line (at 6.35 -2.54 180) (length 2.54)
        (name "~" (effects (font (size 1.27 1.27))))
        (number "10" (effects (font (size 1.27 1.27))))
      )
      (pin passive line (at 6.35 -5.08 180) (length 2.54)
        (name "~" (effects (font (size 1.27 1.27))))
        (number "11" (effects (font (size 1.27 1.27))))
      )
      (pin passive line (at 6.35 -7.62 180) (length 2.54)
        (name "~" (effects (font (size 1.27 1.27))))
        (number "12" (effects (font (size 1.27 1.27))))
      )
      (pin passive line (at 6.35 -10.16 180) (length 2.54)
        (name "~" (effects (font (size 1.27 1.27))))
        (number "13" (effects (font (size 1.27 1.27))))
      )
      (pin passive line (at 6.35 -12.7 180) (length 2.54)
        (name "~" (effects (font (size 1.27 1.27))))
        (number "14" (effects (font (size 1.27 1.27))))
      )
      (pin passive line (at 6.35 -15.24 180) (length 2.54)
        (name "~" (effects (font (size 1.27 1.27))))
        (number "15" (effects (font (size 1.27 1.27))))
      )
      (pin passive line (at -2.54 2.54 0) (length 2.54)
        (name "~" (effects (font (size 1.27 1.27))))
        (number "2" (effects (font (size 1.27 1.27))))
      )
      (pin passive line (at -2.54 5.08 0) (length 2.54)
        (name "~" (effects (font (size 1.27 1.27))))
        (number "3" (effects (font (size 1.27 1.27))))
      )
      (pin passive line (at 6.35 12.7 180) (length 2.54)
        (name "~" (effects (font (size 1.27 1.27))))
        (number "4" (effects (font (size 1.27 1.27))))
      )
      (pin passive line (at 6.35 10.16 180) (length 2.54)
        (name "~" (effects (font (size 1.27 1.27))))
        (number "5" (effects (font (size 1.27 1.27))))
      )
      (pin passive line (at 6.35 7.62 180) (length 2.54)
        (name "~" (effects (font (size 1.27 1.27))))
        (number "6" (effects (font (size 1.27 1.27))))
      )
      (pin passive line (at 6.35 5.08 180) (length 2.54)
        (name "~" (effects (font (size 1.27 1.27))))
        (number "7" (effects (font (size 1.27 1.27))))
      )
      (pin passive line (at 6.35 2.54 180) (length 2.54)
        (name "~" (effects (font (size 1.27 1.27))))
        (number "8" (effects (font (size 1.27 1.27))))
      )
      (pin passive line (at 6.35 0 180) (length 2.54)
        (name "~" (effects (font (size 1.27 1.27))))
        (number "9" (effects (font (size 1.27 1.27))))
      )
    )
  )
  (symbol "socket-4" (pin_names (offset 1.016)) (in_bom yes) (on_board yes)
    (property "Reference" "V" (id 0) (at -1.27 4.318 0)
      (effects (font (size 1.27 1.27)))
    )
    (property "Value" "socket-4" (id 1) (at 0 -3.556 0)
      (effects (font (size 1.27 1.27)))
    )
    (property "Footprint" "" (id 2) (at 0.127 0 0)
      (effects (font (size 1.27 1.27)) hide)
    )
    (property "Datasheet" "" (id 3) (at 0.127 0 0)
      (effects (font (size 1.27 1.27)) hide)
    )
    (symbol "socket-4_0_1"
      (circle (center -1.27 -1.27) (radius 0.4064)
        (stroke (width 0) (type default) (color 0 0 0 0))
        (fill (type none))
      )
      (circle (center -1.27 1.27) (radius 0.254)
        (stroke (width 0) (type default) (color 0 0 0 0))
        (fill (type none))
      )
      (polyline
        (pts
          (xy -2.54 -1.27)
          (xy -1.778 -1.27)
        )
        (stroke (width 0) (type default) (color 0 0 0 0))
        (fill (type none))
      )
      (polyline
        (pts
          (xy -2.54 1.27)
          (xy -1.524 1.27)
        )
        (stroke (width 0) (type default) (color 0 0 0 0))
        (fill (type none))
      )
      (polyline
        (pts
          (xy 2.54 -1.27)
          (xy 1.778 -1.27)
        )
        (stroke (width 0) (type default) (color 0 0 0 0))
        (fill (type none))
      )
      (polyline
        (pts
          (xy 2.54 1.27)
          (xy 1.524 1.27)
        )
        (stroke (width 0) (type default) (color 0 0 0 0))
        (fill (type none))
      )
      (circle (center 0 0) (radius 2.54)
        (stroke (width 0) (type default) (color 0 0 0 0))
        (fill (type none))
      )
      (circle (center 1.27 -1.27) (radius 0.4064)
        (stroke (width 0) (type default) (color 0 0 0 0))
        (fill (type none))
      )
      (circle (center 1.27 1.27) (radius 0.254)
        (stroke (width 0) (type default) (color 0 0 0 0))
        (fill (type none))
      )
    )
    (symbol "socket-4_1_1"
      (pin passive line (at -5.08 -1.27 0) (length 2.54)
        (name "~" (effects (font (size 1.27 1.27))))
        (number "1" (effects (font (size 1.27 1.27))))
      )
      (pin passive line (at -5.08 1.27 0) (length 2.54)
        (name "~" (effects (font (size 1.27 1.27))))
        (number "2" (effects (font (size 1.27 1.27))))
      )
      (pin passive line (at 5.08 1.27 180) (length 2.54)
        (name "~" (effects (font (size 1.27 1.27))))
        (number "3" (effects (font (size 1.27 1.27))))
      )
      (pin passive line (at 5.08 -1.27 180) (length 2.54)
        (name "~" (effects (font (size 1.27 1.27))))
        (number "4" (effects (font (size 1.27 1.27))))
      )
    )
  )
  (symbol "socket-5" (pin_names (offset 1.016)) (in_bom yes) (on_board yes)
    (property "Reference" "V" (id 0) (at 2.54 5.08 0)
      (effects (font (size 1.27 1.27)))
    )
    (property "Value" "socket-5" (id 1) (at 0 -5.08 0)
      (effects (font (size 1.27 1.27)))
    )
    (property "Footprint" "" (id 2) (at 0.127 0 0)
      (effects (font (size 1.27 1.27)) hide)
    )
    (property "Datasheet" "" (id 3) (at 0.127 0 0)
      (effects (font (size 1.27 1.27)) hide)
    )
    (symbol "socket-5_0_1"
      (circle (center -1.778 0) (radius 0.254)
        (stroke (width 0) (type default) (color 0 0 0 0))
        (fill (type none))
      )
      (circle (center -1.016 -1.524) (radius 0.254)
        (stroke (width 0) (type default) (color 0 0 0 0))
        (fill (type none))
      )
      (polyline
        (pts
          (xy -2.54 -2.54)
          (xy -1.27 -1.651)
        )
        (stroke (width 0) (type default) (color 0 0 0 0))
        (fill (type none))
      )
      (polyline
        (pts
          (xy -2.54 0)
          (xy -2.032 0)
        )
        (stroke (width 0) (type default) (color 0 0 0 0))
        (fill (type none))
      )
      (polyline
        (pts
          (xy 0 2.54)
          (xy 0 2.032)
        )
        (stroke (width 0) (type default) (color 0 0 0 0))
        (fill (type none))
      )
      (polyline
        (pts
          (xy 2.54 -2.54)
          (xy 1.27 -1.651)
        )
        (stroke (width 0) (type default) (color 0 0 0 0))
        (fill (type none))
      )
      (polyline
        (pts
          (xy 2.54 0)
          (xy 2.032 0)
        )
        (stroke (width 0) (type default) (color 0 0 0 0))
        (fill (type none))
      )
      (circle (center 0 0) (radius 2.54)
        (stroke (width 0) (type default) (color 0 0 0 0))
        (fill (type none))
      )
      (circle (center 0 1.778) (radius 0.254)
        (stroke (width 0) (type default) (color 0 0 0 0))
        (fill (type none))
      )
      (circle (center 1.016 -1.524) (radius 0.254)
        (stroke (width 0) (type default) (color 0 0 0 0))
        (fill (type none))
      )
      (circle (center 1.778 0) (radius 0.254)
        (stroke (width 0) (type default) (color 0 0 0 0))
        (fill (type none))
      )
    )
    (symbol "socket-5_1_1"
      (pin passive line (at -5.08 -2.54 0) (length 2.54)
        (name "~" (effects (font (size 1.27 1.27))))
        (number "1" (effects (font (size 1.27 1.27))))
      )
      (pin passive line (at -5.08 0 0) (length 2.54)
        (name "~" (effects (font (size 1.27 1.27))))
        (number "2" (effects (font (size 1.27 1.27))))
      )
      (pin passive line (at 0 5.08 270) (length 2.54)
        (name "~" (effects (font (size 1.27 1.27))))
        (number "3" (effects (font (size 1.27 1.27))))
      )
      (pin passive line (at 5.08 0 180) (length 2.54)
        (name "~" (effects (font (size 1.27 1.27))))
        (number "4" (effects (font (size 1.27 1.27))))
      )
      (pin passive line (at 5.08 -2.54 180) (length 2.54)
        (name "~" (effects (font (size 1.27 1.27))))
        (number "5" (effects (font (size 1.27 1.27))))
      )
    )
  )
  (symbol "socket-6" (pin_names (offset 1.016)) (in_bom yes) (on_board yes)
    (property "Reference" "V" (id 0) (at 2.54 5.08 0)
      (effects (font (size 1.27 1.27)))
    )
    (property "Value" "socket-6" (id 1) (at 0 -5.08 0)
      (effects (font (size 1.27 1.27)))
    )
    (property "Footprint" "" (id 2) (at 0.127 0 0)
      (effects (font (size 1.27 1.27)) hide)
    )
    (property "Datasheet" "" (id 3) (at 0.127 0 0)
      (effects (font (size 1.27 1.27)) hide)
    )
    (symbol "socket-6_0_1"
      (circle (center -1.778 0) (radius 0.254)
        (stroke (width 0) (type default) (color 0 0 0 0))
        (fill (type none))
      )
      (circle (center -1.016 1.524) (radius 0.254)
        (stroke (width 0) (type default) (color 0 0 0 0))
        (fill (type none))
      )
      (circle (center -0.889 -1.397) (radius 0.4064)
        (stroke (width 0) (type default) (color 0 0 0 0))
        (fill (type none))
      )
      (polyline
        (pts
          (xy -2.54 -2.54)
          (xy -1.27 -1.651)
        )
        (stroke (width 0) (type default) (color 0 0 0 0))
        (fill (type none))
      )
      (polyline
        (pts
          (xy -2.54 0)
          (xy -2.032 0)
        )
        (stroke (width 0) (type default) (color 0 0 0 0))
        (fill (type none))
      )
      (polyline
        (pts
          (xy -2.54 2.54)
          (xy -1.27 1.651)
        )
        (stroke (width 0) (type default) (color 0 0 0 0))
        (fill (type none))
      )
      (polyline
        (pts
          (xy 2.54 -2.54)
          (xy 1.27 -1.651)
        )
        (stroke (width 0) (type default) (color 0 0 0 0))
        (fill (type none))
      )
      (polyline
        (pts
          (xy 2.54 0)
          (xy 2.032 0)
        )
        (stroke (width 0) (type default) (color 0 0 0 0))
        (fill (type none))
      )
      (polyline
        (pts
          (xy 2.54 2.54)
          (xy 1.27 1.651)
        )
        (stroke (width 0) (type default) (color 0 0 0 0))
        (fill (type none))
      )
      (circle (center 0 0) (radius 2.54)
        (stroke (width 0) (type default) (color 0 0 0 0))
        (fill (type none))
      )
      (circle (center 0.889 -1.397) (radius 0.4064)
        (stroke (width 0) (type default) (color 0 0 0 0))
        (fill (type none))
      )
      (circle (center 1.016 1.524) (radius 0.254)
        (stroke (width 0) (type default) (color 0 0 0 0))
        (fill (type none))
      )
      (circle (center 1.778 0) (radius 0.254)
        (stroke (width 0) (type default) (color 0 0 0 0))
        (fill (type none))
      )
    )
    (symbol "socket-6_1_1"
      (pin passive line (at -5.08 -2.54 0) (length 2.54)
        (name "~" (effects (font (size 1.27 1.27))))
        (number "1" (effects (font (size 1.27 1.27))))
      )
      (pin passive line (at -5.08 0 0) (length 2.54)
        (name "~" (effects (font (size 1.27 1.27))))
        (number "2" (effects (font (size 1.27 1.27))))
      )
      (pin passive line (at -5.08 2.54 0) (length 2.54)
        (name "~" (effects (font (size 1.27 1.27))))
        (number "3" (effects (font (size 1.27 1.27))))
      )
      (pin passive line (at 5.08 2.54 180) (length 2.54)
        (name "~" (effects (font (size 1.27 1.27))))
        (number "4" (effects (font (size 1.27 1.27))))
      )
      (pin passive line (at 5.08 0 180) (length 2.54)
        (name "~" (effects (font (size 1.27 1.27))))
        (number "5" (effects (font (size 1.27 1.27))))
      )
      (pin passive line (at 5.08 -2.54 180) (length 2.54)
        (name "~" (effects (font (size 1.27 1.27))))
        (number "6" (effects (font (size 1.27 1.27))))
      )
    )
  )
  (symbol "socket-7L" (pin_names (offset 1.016)) (in_bom yes) (on_board yes)
    (property "Reference" "V" (id 0) (at 2.54 5.08 0)
      (effects (font (size 1.27 1.27)))
    )
    (property "Value" "socket-7L" (id 1) (at -3.81 -7.62 0)
      (effects (font (size 1.27 1.27)))
    )
    (property "Footprint" "" (id 2) (at 0.127 0 0)
      (effects (font (size 1.27 1.27)) hide)
    )
    (property "Datasheet" "" (id 3) (at 0.127 0 0)
      (effects (font (size 1.27 1.27)) hide)
    )
    (symbol "socket-7L_0_1"
      (circle (center -1.778 -0.254) (radius 0.254)
        (stroke (width 0) (type default) (color 0 0 0 0))
        (fill (type none))
      )
      (circle (center -1.397 1.143) (radius 0.254)
        (stroke (width 0) (type default) (color 0 0 0 0))
        (fill (type none))
      )
      (circle (center -0.889 -1.397) (radius 0.4064)
        (stroke (width 0) (type default) (color 0 0 0 0))
        (fill (type none))
      )
      (polyline
        (pts
          (xy -2.54 -2.54)
          (xy -1.27 -1.651)
        )
        (stroke (width 0) (type default) (color 0 0 0 0))
        (fill (type none))
      )
      (polyline
        (pts
          (xy -2.54 0)
          (xy -2.032 -0.127)
        )
        (stroke (width 0) (type default) (color 0 0 0 0))
        (fill (type none))
      )
      (polyline
        (pts
          (xy -2.54 2.54)
          (xy -1.651 1.397)
        )
        (stroke (width 0) (type default) (color 0 0 0 0))
        (fill (type none))
      )
      (polyline
        (pts
          (xy 0 2.54)
          (xy 0 2.159)
        )
        (stroke (width 0) (type default) (color 0 0 0 0))
        (fill (type none))
      )
      (polyline
        (pts
          (xy 2.54 -2.54)
          (xy 1.27 -1.651)
        )
        (stroke (width 0) (type default) (color 0 0 0 0))
        (fill (type none))
      )
      (polyline
        (pts
          (xy 2.54 0)
          (xy 2.032 -0.127)
        )
        (stroke (width 0) (type default) (color 0 0 0 0))
        (fill (type none))
      )
      (polyline
        (pts
          (xy 2.54 2.54)
          (xy 1.651 1.397)
        )
        (stroke (width 0) (type default) (color 0 0 0 0))
        (fill (type none))
      )
      (polyline
        (pts
          (xy -0.254 -0.254)
          (xy -0.254 -3.302)
          (xy -2.54 -5.08)
        )
        (stroke (width 0) (type default) (color 0 0 0 0))
        (fill (type none))
      )
      (polyline
        (pts
          (xy 0.254 -1.016)
          (xy 0.254 -3.302)
          (xy 2.54 -5.08)
        )
        (stroke (width 0) (type default) (color 0 0 0 0))
        (fill (type none))
      )
      (circle (center 0 0) (radius 0.3556)
        (stroke (width 0) (type default) (color 0 0 0 0))
        (fill (type none))
      )
      (circle (center 0 0) (radius 1.0414)
        (stroke (width 0) (type default) (color 0 0 0 0))
        (fill (type none))
      )
      (circle (center 0 0) (radius 2.54)
        (stroke (width 0) (type default) (color 0 0 0 0))
        (fill (type none))
      )
      (circle (center 0 1.905) (radius 0.254)
        (stroke (width 0) (type default) (color 0 0 0 0))
        (fill (type none))
      )
      (circle (center 0.889 -1.397) (radius 0.4064)
        (stroke (width 0) (type default) (color 0 0 0 0))
        (fill (type none))
      )
      (circle (center 1.397 1.143) (radius 0.254)
        (stroke (width 0) (type default) (color 0 0 0 0))
        (fill (type none))
      )
      (circle (center 1.778 -0.254) (radius 0.254)
        (stroke (width 0) (type default) (color 0 0 0 0))
        (fill (type none))
      )
    )
    (symbol "socket-7L_1_1"
      (pin passive line (at -5.08 -2.54 0) (length 2.54)
        (name "~" (effects (font (size 1.27 1.27))))
        (number "1" (effects (font (size 1.27 1.27))))
      )
      (pin passive line (at -5.08 0 0) (length 2.54)
        (name "~" (effects (font (size 1.27 1.27))))
        (number "2" (effects (font (size 1.27 1.27))))
      )
      (pin passive line (at -5.08 2.54 0) (length 2.54)
        (name "~" (effects (font (size 1.27 1.27))))
        (number "3" (effects (font (size 1.27 1.27))))
      )
      (pin passive line (at 0 5.08 270) (length 2.54)
        (name "~" (effects (font (size 1.27 1.27))))
        (number "4" (effects (font (size 1.27 1.27))))
      )
      (pin passive line (at 5.08 2.54 180) (length 2.54)
        (name "~" (effects (font (size 1.27 1.27))))
        (number "5" (effects (font (size 1.27 1.27))))
      )
      (pin passive line (at 5.08 0 180) (length 2.54)
        (name "~" (effects (font (size 1.27 1.27))))
        (number "6" (effects (font (size 1.27 1.27))))
      )
      (pin passive line (at 5.08 -2.54 180) (length 2.54)
        (name "~" (effects (font (size 1.27 1.27))))
        (number "7" (effects (font (size 1.27 1.27))))
      )
      (pin passive line (at -5.08 -5.08 0) (length 2.54)
        (name "~" (effects (font (size 1.27 1.27))))
        (number "C" (effects (font (size 1.27 1.27))))
      )
      (pin passive line (at 5.08 -5.08 180) (length 2.54)
        (name "~" (effects (font (size 1.27 1.27))))
        (number "R" (effects (font (size 1.27 1.27))))
      )
    )
  )
  (symbol "socket-7S" (pin_names (offset 1.016)) (in_bom yes) (on_board yes)
    (property "Reference" "V" (id 0) (at 2.159 5.461 0)
      (effects (font (size 1.27 1.27)))
    )
    (property "Value" "socket-7S" (id 1) (at -6.35 -6.35 0)
      (effects (font (size 1.27 1.27)))
    )
    (property "Footprint" "" (id 2) (at 0.127 0 0)
      (effects (font (size 1.27 1.27)) hide)
    )
    (property "Datasheet" "" (id 3) (at 0.127 0 0)
      (effects (font (size 1.27 1.27)) hide)
    )
    (symbol "socket-7S_0_1"
      (circle (center -1.778 0) (radius 0.254)
        (stroke (width 0) (type default) (color 0 0 0 0))
        (fill (type none))
      )
      (circle (center -1.27 -1.27) (radius 0.254)
        (stroke (width 0) (type default) (color 0 0 0 0))
        (fill (type none))
      )
      (circle (center -1.27 1.27) (radius 0.254)
        (stroke (width 0) (type default) (color 0 0 0 0))
        (fill (type none))
      )
      (polyline
        (pts
          (xy -2.54 -2.54)
          (xy -1.524 -1.524)
        )
        (stroke (width 0) (type default) (color 0 0 0 0))
        (fill (type none))
      )
      (polyline
        (pts
          (xy -2.54 0)
          (xy -2.032 0)
        )
        (stroke (width 0) (type default) (color 0 0 0 0))
        (fill (type none))
      )
      (polyline
        (pts
          (xy -2.54 2.54)
          (xy -1.524 1.524)
        )
        (stroke (width 0) (type default) (color 0 0 0 0))
        (fill (type none))
      )
      (polyline
        (pts
          (xy 0 -2.54)
          (xy 0 -0.508)
        )
        (stroke (width 0) (type default) (color 0 0 0 0))
        (fill (type none))
      )
      (polyline
        (pts
          (xy 0 2.54)
          (xy 0 2.032)
        )
        (stroke (width 0) (type default) (color 0 0 0 0))
        (fill (type none))
      )
      (polyline
        (pts
          (xy 2.54 -2.54)
          (xy 1.524 -1.524)
        )
        (stroke (width 0) (type default) (color 0 0 0 0))
        (fill (type none))
      )
      (polyline
        (pts
          (xy 2.54 0)
          (xy 2.032 0)
        )
        (stroke (width 0) (type default) (color 0 0 0 0))
        (fill (type none))
      )
      (polyline
        (pts
          (xy 2.54 2.54)
          (xy 1.524 1.524)
        )
        (stroke (width 0) (type default) (color 0 0 0 0))
        (fill (type none))
      )
      (circle (center 0 0) (radius 0.508)
        (stroke (width 0) (type default) (color 0 0 0 0))
        (fill (type none))
      )
      (circle (center 0 0) (radius 2.54)
        (stroke (width 0) (type default) (color 0 0 0 0))
        (fill (type none))
      )
      (circle (center 0 1.778) (radius 0.254)
        (stroke (width 0) (type default) (color 0 0 0 0))
        (fill (type none))
      )
      (circle (center 1.27 -1.27) (radius 0.254)
        (stroke (width 0) (type default) (color 0 0 0 0))
        (fill (type none))
      )
      (circle (center 1.27 1.27) (radius 0.254)
        (stroke (width 0) (type default) (color 0 0 0 0))
        (fill (type none))
      )
      (circle (center 1.778 0) (radius 0.254)
        (stroke (width 0) (type default) (color 0 0 0 0))
        (fill (type none))
      )
    )
    (symbol "socket-7S_1_1"
      (pin passive line (at -5.08 -2.54 0) (length 2.54)
        (name "~" (effects (font (size 1.27 1.27))))
        (number "1" (effects (font (size 1.27 1.27))))
      )
      (pin passive line (at -5.08 0 0) (length 2.54)
        (name "~" (effects (font (size 1.27 1.27))))
        (number "2" (effects (font (size 1.27 1.27))))
      )
      (pin passive line (at -5.08 2.54 0) (length 2.54)
        (name "~" (effects (font (size 1.27 1.27))))
        (number "3" (effects (font (size 1.27 1.27))))
      )
      (pin passive line (at 0 5.08 270) (length 2.54)
        (name "~" (effects (font (size 1.27 1.27))))
        (number "4" (effects (font (size 1.27 1.27))))
      )
      (pin passive line (at 5.08 2.54 180) (length 2.54)
        (name "~" (effects (font (size 1.27 1.27))))
        (number "5" (effects (font (size 1.27 1.27))))
      )
      (pin passive line (at 5.08 0 180) (length 2.54)
        (name "~" (effects (font (size 1.27 1.27))))
        (number "6" (effects (font (size 1.27 1.27))))
      )
      (pin passive line (at 5.08 -2.54 180) (length 2.54)
        (name "~" (effects (font (size 1.27 1.27))))
        (number "7" (effects (font (size 1.27 1.27))))
      )
      (pin passive line (at 0 -5.08 90) (length 2.54)
        (name "~" (effects (font (size 1.27 1.27))))
        (number "S" (effects (font (size 1.27 1.27))))
      )
    )
  )
  (symbol "socket-8-loctal" (pin_names (offset 1.016)) (in_bom yes) (on_board yes)
    (property "Reference" "V" (id 0) (at -2.54 6.35 0)
      (effects (font (size 1.27 1.27)))
    )
    (property "Value" "socket-8-loctal" (id 1) (at 9.779 -5.969 0)
      (effects (font (size 1.27 1.27)))
    )
    (property "Footprint" "" (id 2) (at 0.127 0 0)
      (effects (font (size 1.27 1.27)) hide)
    )
    (property "Datasheet" "" (id 3) (at 0.127 0 0)
      (effects (font (size 1.27 1.27)) hide)
    )
    (symbol "socket-8-loctal_0_1"
      (circle (center -1.651 -0.7112) (radius 0.254)
        (stroke (width 0) (type default) (color 0 0 0 0))
        (fill (type none))
      )
      (circle (center -1.651 0.7112) (radius 0.254)
        (stroke (width 0) (type default) (color 0 0 0 0))
        (fill (type none))
      )
      (circle (center -0.7112 -1.651) (radius 0.254)
        (stroke (width 0) (type default) (color 0 0 0 0))
        (fill (type none))
      )
      (circle (center -0.7112 1.651) (radius 0.254)
        (stroke (width 0) (type default) (color 0 0 0 0))
        (fill (type none))
      )
      (polyline
        (pts
          (xy -2.54 -3.81)
          (xy -0.762 -1.905)
        )
        (stroke (width 0) (type default) (color 0 0 0 0))
        (fill (type none))
      )
      (polyline
        (pts
          (xy -2.54 -1.27)
          (xy -1.905 -0.889)
        )
        (stroke (width 0) (type default) (color 0 0 0 0))
        (fill (type none))
      )
      (polyline
        (pts
          (xy -2.54 1.27)
          (xy -1.905 0.889)
        )
        (stroke (width 0) (type default) (color 0 0 0 0))
        (fill (type none))
      )
      (polyline
        (pts
          (xy -2.54 3.81)
          (xy -0.889 1.905)
        )
        (stroke (width 0) (type default) (color 0 0 0 0))
        (fill (type none))
      )
      (polyline
        (pts
          (xy 0 -2.54)
          (xy 0 -0.762)
        )
        (stroke (width 0) (type default) (color 0 0 0 0))
        (fill (type none))
      )
      (polyline
        (pts
          (xy 2.54 -3.81)
          (xy 0.889 -1.905)
        )
        (stroke (width 0) (type default) (color 0 0 0 0))
        (fill (type none))
      )
      (polyline
        (pts
          (xy 2.54 -1.27)
          (xy 1.905 -0.889)
        )
        (stroke (width 0) (type default) (color 0 0 0 0))
        (fill (type none))
      )
      (polyline
        (pts
          (xy 2.54 1.27)
          (xy 1.905 0.889)
        )
        (stroke (width 0) (type default) (color 0 0 0 0))
        (fill (type none))
      )
      (polyline
        (pts
          (xy 2.54 3.683)
          (xy 0.889 1.905)
        )
        (stroke (width 0) (type default) (color 0 0 0 0))
        (fill (type none))
      )
      (polyline
        (pts
          (xy -0.127 -0.508)
          (xy -0.127 -0.762)
          (xy 0.127 -0.762)
          (xy 0.127 -0.508)
        )
        (stroke (width 0) (type default) (color 0 0 0 0))
        (fill (type none))
      )
      (circle (center 0 0) (radius 2.54)
        (stroke (width 0) (type default) (color 0 0 0 0))
        (fill (type none))
      )
      (arc (start 0.127 -0.508) (mid 0.4841 0.0959) (end -0.127 0.508)
        (stroke (width 0) (type default) (color 0 0 0 0))
        (fill (type none))
      )
      (arc (start 0.127 0.508) (mid -0.5319 0.1079) (end -0.127 -0.508)
        (stroke (width 0) (type default) (color 0 0 0 0))
        (fill (type none))
      )
      (circle (center 0.7112 -1.651) (radius 0.254)
        (stroke (width 0) (type default) (color 0 0 0 0))
        (fill (type none))
      )
      (circle (center 0.7112 1.651) (radius 0.254)
        (stroke (width 0) (type default) (color 0 0 0 0))
        (fill (type none))
      )
      (circle (center 1.651 -0.7112) (radius 0.254)
        (stroke (width 0) (type default) (color 0 0 0 0))
        (fill (type none))
      )
      (circle (center 1.651 0.7112) (radius 0.254)
        (stroke (width 0) (type default) (color 0 0 0 0))
        (fill (type none))
      )
    )
    (symbol "socket-8-loctal_1_1"
      (pin passive line (at -5.08 -3.81 0) (length 2.54)
        (name "~" (effects (font (size 1.27 1.27))))
        (number "1" (effects (font (size 1.27 1.27))))
      )
      (pin passive line (at -5.08 -1.27 0) (length 2.54)
        (name "~" (effects (font (size 1.27 1.27))))
        (number "2" (effects (font (size 1.27 1.27))))
      )
      (pin passive line (at -5.08 1.27 0) (length 2.54)
        (name "~" (effects (font (size 1.27 1.27))))
        (number "3" (effects (font (size 1.27 1.27))))
      )
      (pin passive line (at -5.08 3.81 0) (length 2.54)
        (name "~" (effects (font (size 1.27 1.27))))
        (number "4" (effects (font (size 1.27 1.27))))
      )
      (pin passive line (at 5.08 3.81 180) (length 2.54)
        (name "~" (effects (font (size 1.27 1.27))))
        (number "5" (effects (font (size 1.27 1.27))))
      )
      (pin passive line (at 5.08 1.27 180) (length 2.54)
        (name "~" (effects (font (size 1.27 1.27))))
        (number "6" (effects (font (size 1.27 1.27))))
      )
      (pin passive line (at 5.08 -1.27 180) (length 2.54)
        (name "~" (effects (font (size 1.27 1.27))))
        (number "7" (effects (font (size 1.27 1.27))))
      )
      (pin passive line (at 5.08 -3.81 180) (length 2.54)
        (name "~" (effects (font (size 1.27 1.27))))
        (number "8" (effects (font (size 1.27 1.27))))
      )
      (pin passive line (at 0 -5.08 90) (length 2.54)
        (name "~" (effects (font (size 1.27 1.27))))
        (number "S" (effects (font (size 1.27 1.27))))
      )
    )
  )
  (symbol "socket-8L" (pin_names (offset 1.016)) (in_bom yes) (on_board yes)
    (property "Reference" "V" (id 0) (at -2.54 6.35 0)
      (effects (font (size 1.27 1.27)))
    )
    (property "Value" "socket-8L" (id 1) (at 0.127 -5.969 0)
      (effects (font (size 1.27 1.27)))
    )
    (property "Footprint" "" (id 2) (at 0.127 0 0)
      (effects (font (size 1.27 1.27)) hide)
    )
    (property "Datasheet" "" (id 3) (at 0.127 0 0)
      (effects (font (size 1.27 1.27)) hide)
    )
    (symbol "socket-8L_0_1"
      (circle (center -1.651 -0.7112) (radius 0.254)
        (stroke (width 0) (type default) (color 0 0 0 0))
        (fill (type none))
      )
      (circle (center -1.651 0.7112) (radius 0.254)
        (stroke (width 0) (type default) (color 0 0 0 0))
        (fill (type none))
      )
      (circle (center -0.7112 -1.651) (radius 0.254)
        (stroke (width 0) (type default) (color 0 0 0 0))
        (fill (type none))
      )
      (circle (center -0.7112 1.651) (radius 0.254)
        (stroke (width 0) (type default) (color 0 0 0 0))
        (fill (type none))
      )
      (polyline
        (pts
          (xy -2.54 -3.81)
          (xy -0.762 -1.905)
        )
        (stroke (width 0) (type default) (color 0 0 0 0))
        (fill (type none))
      )
      (polyline
        (pts
          (xy -2.54 -1.27)
          (xy -1.905 -0.889)
        )
        (stroke (width 0) (type default) (color 0 0 0 0))
        (fill (type none))
      )
      (polyline
        (pts
          (xy -2.54 1.27)
          (xy -1.905 0.889)
        )
        (stroke (width 0) (type default) (color 0 0 0 0))
        (fill (type none))
      )
      (polyline
        (pts
          (xy -2.54 3.81)
          (xy -0.889 1.905)
        )
        (stroke (width 0) (type default) (color 0 0 0 0))
        (fill (type none))
      )
      (polyline
        (pts
          (xy 2.54 -3.81)
          (xy 0.889 -1.905)
        )
        (stroke (width 0) (type default) (color 0 0 0 0))
        (fill (type none))
      )
      (polyline
        (pts
          (xy 2.54 -1.27)
          (xy 1.905 -0.889)
        )
        (stroke (width 0) (type default) (color 0 0 0 0))
        (fill (type none))
      )
      (polyline
        (pts
          (xy 2.54 1.27)
          (xy 1.905 0.889)
        )
        (stroke (width 0) (type default) (color 0 0 0 0))
        (fill (type none))
      )
      (polyline
        (pts
          (xy 2.54 3.683)
          (xy 0.889 1.905)
        )
        (stroke (width 0) (type default) (color 0 0 0 0))
        (fill (type none))
      )
      (polyline
        (pts
          (xy -0.127 -0.508)
          (xy -0.127 -0.762)
          (xy 0.127 -0.762)
          (xy 0.127 -0.508)
        )
        (stroke (width 0) (type default) (color 0 0 0 0))
        (fill (type none))
      )
      (circle (center 0 0) (radius 2.54)
        (stroke (width 0) (type default) (color 0 0 0 0))
        (fill (type none))
      )
      (arc (start 0.127 -0.508) (mid 0.4841 0.0959) (end -0.127 0.508)
        (stroke (width 0) (type default) (color 0 0 0 0))
        (fill (type none))
      )
      (arc (start 0.127 0.508) (mid -0.5319 0.1079) (end -0.127 -0.508)
        (stroke (width 0) (type default) (color 0 0 0 0))
        (fill (type none))
      )
      (circle (center 0.7112 -1.651) (radius 0.254)
        (stroke (width 0) (type default) (color 0 0 0 0))
        (fill (type none))
      )
      (circle (center 0.7112 1.651) (radius 0.254)
        (stroke (width 0) (type default) (color 0 0 0 0))
        (fill (type none))
      )
      (circle (center 1.651 -0.7112) (radius 0.254)
        (stroke (width 0) (type default) (color 0 0 0 0))
        (fill (type none))
      )
      (circle (center 1.651 0.7112) (radius 0.254)
        (stroke (width 0) (type default) (color 0 0 0 0))
        (fill (type none))
      )
    )
    (symbol "socket-8L_1_1"
      (pin passive line (at -5.08 -3.81 0) (length 2.54)
        (name "~" (effects (font (size 1.27 1.27))))
        (number "1" (effects (font (size 1.27 1.27))))
      )
      (pin passive line (at -5.08 -1.27 0) (length 2.54)
        (name "~" (effects (font (size 1.27 1.27))))
        (number "2" (effects (font (size 1.27 1.27))))
      )
      (pin passive line (at -5.08 1.27 0) (length 2.54)
        (name "~" (effects (font (size 1.27 1.27))))
        (number "3" (effects (font (size 1.27 1.27))))
      )
      (pin passive line (at -5.08 3.81 0) (length 2.54)
        (name "~" (effects (font (size 1.27 1.27))))
        (number "4" (effects (font (size 1.27 1.27))))
      )
      (pin passive line (at 5.08 3.81 180) (length 2.54)
        (name "~" (effects (font (size 1.27 1.27))))
        (number "5" (effects (font (size 1.27 1.27))))
      )
      (pin passive line (at 5.08 1.27 180) (length 2.54)
        (name "~" (effects (font (size 1.27 1.27))))
        (number "6" (effects (font (size 1.27 1.27))))
      )
      (pin passive line (at 5.08 -1.27 180) (length 2.54)
        (name "~" (effects (font (size 1.27 1.27))))
        (number "7" (effects (font (size 1.27 1.27))))
      )
      (pin passive line (at 5.08 -3.81 180) (length 2.54)
        (name "~" (effects (font (size 1.27 1.27))))
        (number "8" (effects (font (size 1.27 1.27))))
      )
    )
  )
  (symbol "socket-8L_plug" (pin_names (offset 1.016)) (in_bom yes) (on_board yes)
    (property "Reference" "V" (id 0) (at -2.54 6.35 0)
      (effects (font (size 1.27 1.27)))
    )
    (property "Value" "socket-8L_plug" (id 1) (at 0.127 -5.969 0)
      (effects (font (size 1.27 1.27)))
    )
    (property "Footprint" "" (id 2) (at 0.127 0 0)
      (effects (font (size 1.27 1.27)) hide)
    )
    (property "Datasheet" "" (id 3) (at 0.127 0 0)
      (effects (font (size 1.27 1.27)) hide)
    )
    (symbol "socket-8L_plug_0_1"
      (circle (center -1.651 -0.7112) (radius 0.254)
        (stroke (width 0) (type default) (color 0 0 0 0))
        (fill (type outline))
      )
      (circle (center -1.651 0.7112) (radius 0.254)
        (stroke (width 0) (type default) (color 0 0 0 0))
        (fill (type outline))
      )
      (circle (center -0.7112 -1.651) (radius 0.254)
        (stroke (width 0) (type default) (color 0 0 0 0))
        (fill (type outline))
      )
      (circle (center -0.7112 1.651) (radius 0.254)
        (stroke (width 0) (type default) (color 0 0 0 0))
        (fill (type outline))
      )
      (polyline
        (pts
          (xy -2.54 -3.81)
          (xy -0.762 -1.905)
        )
        (stroke (width 0) (type default) (color 0 0 0 0))
        (fill (type none))
      )
      (polyline
        (pts
          (xy -2.54 -1.27)
          (xy -1.905 -0.889)
        )
        (stroke (width 0) (type default) (color 0 0 0 0))
        (fill (type none))
      )
      (polyline
        (pts
          (xy -2.54 1.27)
          (xy -1.905 0.889)
        )
        (stroke (width 0) (type default) (color 0 0 0 0))
        (fill (type none))
      )
      (polyline
        (pts
          (xy -2.54 3.81)
          (xy -0.889 1.905)
        )
        (stroke (width 0) (type default) (color 0 0 0 0))
        (fill (type none))
      )
      (polyline
        (pts
          (xy 0 -0.635)
          (xy 0 0)
        )
        (stroke (width 0) (type default) (color 0 0 0 0))
        (fill (type none))
      )
      (polyline
        (pts
          (xy 2.54 -3.81)
          (xy 0.889 -1.905)
        )
        (stroke (width 0) (type default) (color 0 0 0 0))
        (fill (type none))
      )
      (polyline
        (pts
          (xy 2.54 -1.27)
          (xy 1.905 -0.889)
        )
        (stroke (width 0) (type default) (color 0 0 0 0))
        (fill (type none))
      )
      (polyline
        (pts
          (xy 2.54 1.27)
          (xy 1.905 0.889)
        )
        (stroke (width 0) (type default) (color 0 0 0 0))
        (fill (type none))
      )
      (polyline
        (pts
          (xy 2.54 3.683)
          (xy 0.889 1.905)
        )
        (stroke (width 0) (type default) (color 0 0 0 0))
        (fill (type none))
      )
      (polyline
        (pts
          (xy -0.127 -0.508)
          (xy -0.127 -0.762)
          (xy 0.127 -0.762)
          (xy 0.127 -0.508)
        )
        (stroke (width 0) (type default) (color 0 0 0 0))
        (fill (type outline))
      )
      (circle (center 0 0) (radius 2.54)
        (stroke (width 0) (type default) (color 0 0 0 0))
        (fill (type none))
      )
      (arc (start 0.127 -0.508) (mid 0.4841 0.0959) (end -0.127 0.508)
        (stroke (width 0) (type default) (color 0 0 0 0))
        (fill (type outline))
      )
      (arc (start 0.127 0.508) (mid -0.5319 0.1079) (end -0.127 -0.508)
        (stroke (width 0) (type default) (color 0 0 0 0))
        (fill (type outline))
      )
      (circle (center 0.7112 -1.651) (radius 0.254)
        (stroke (width 0) (type default) (color 0 0 0 0))
        (fill (type outline))
      )
      (circle (center 0.7112 1.651) (radius 0.254)
        (stroke (width 0) (type default) (color 0 0 0 0))
        (fill (type outline))
      )
      (circle (center 1.651 -0.7112) (radius 0.254)
        (stroke (width 0) (type default) (color 0 0 0 0))
        (fill (type outline))
      )
      (circle (center 1.651 0.7112) (radius 0.254)
        (stroke (width 0) (type default) (color 0 0 0 0))
        (fill (type outline))
      )
    )
    (symbol "socket-8L_plug_1_1"
      (pin passive line (at -5.08 -3.81 0) (length 2.54)
        (name "~" (effects (font (size 1.27 1.27))))
        (number "1" (effects (font (size 1.27 1.27))))
      )
      (pin passive line (at -5.08 -1.27 0) (length 2.54)
        (name "~" (effects (font (size 1.27 1.27))))
        (number "2" (effects (font (size 1.27 1.27))))
      )
      (pin passive line (at -5.08 1.27 0) (length 2.54)
        (name "~" (effects (font (size 1.27 1.27))))
        (number "3" (effects (font (size 1.27 1.27))))
      )
      (pin passive line (at -5.08 3.81 0) (length 2.54)
        (name "~" (effects (font (size 1.27 1.27))))
        (number "4" (effects (font (size 1.27 1.27))))
      )
      (pin passive line (at 5.08 3.81 180) (length 2.54)
        (name "~" (effects (font (size 1.27 1.27))))
        (number "5" (effects (font (size 1.27 1.27))))
      )
      (pin passive line (at 5.08 1.27 180) (length 2.54)
        (name "~" (effects (font (size 1.27 1.27))))
        (number "6" (effects (font (size 1.27 1.27))))
      )
      (pin passive line (at 5.08 -1.27 180) (length 2.54)
        (name "~" (effects (font (size 1.27 1.27))))
        (number "7" (effects (font (size 1.27 1.27))))
      )
      (pin passive line (at 5.08 -3.81 180) (length 2.54)
        (name "~" (effects (font (size 1.27 1.27))))
        (number "8" (effects (font (size 1.27 1.27))))
      )
    )
  )
  (symbol "socket-9S" (pin_names (offset 1.016)) (in_bom yes) (on_board yes)
    (property "Reference" "V" (id 0) (at -0.127 5.207 0)
      (effects (font (size 1.27 1.27)))
    )
    (property "Value" "socket-9S" (id 1) (at -6.35 -6.35 0)
      (effects (font (size 1.27 1.27)))
    )
    (property "Footprint" "" (id 2) (at 0.127 0 0)
      (effects (font (size 1.27 1.27)) hide)
    )
    (property "Datasheet" "" (id 3) (at 0.127 0 0)
      (effects (font (size 1.27 1.27)) hide)
    )
    (symbol "socket-9S_0_1"
      (circle (center -2.413 -0.7874) (radius 0.254)
        (stroke (width 0) (type default) (color 0 0 0 0))
        (fill (type none))
      )
      (circle (center -2.413 0.7874) (radius 0.254)
        (stroke (width 0) (type default) (color 0 0 0 0))
        (fill (type none))
      )
      (circle (center -1.4986 -2.0574) (radius 0.254)
        (stroke (width 0) (type default) (color 0 0 0 0))
        (fill (type none))
      )
      (circle (center -1.4986 2.0574) (radius 0.254)
        (stroke (width 0) (type default) (color 0 0 0 0))
        (fill (type none))
      )
      (polyline
        (pts
          (xy -3.6322 -1.1684)
          (xy -3.81 -1.27)
        )
        (stroke (width 0) (type default) (color 0 0 0 0))
        (fill (type none))
      )
      (polyline
        (pts
          (xy -3.6322 -1.1684)
          (xy -2.667 -0.8636)
        )
        (stroke (width 0) (type default) (color 0 0 0 0))
        (fill (type none))
      )
      (polyline
        (pts
          (xy -3.6322 1.1684)
          (xy -3.81 1.27)
        )
        (stroke (width 0) (type default) (color 0 0 0 0))
        (fill (type none))
      )
      (polyline
        (pts
          (xy -3.6322 1.1684)
          (xy -2.667 0.8636)
        )
        (stroke (width 0) (type default) (color 0 0 0 0))
        (fill (type none))
      )
      (polyline
        (pts
          (xy -2.2352 -3.0734)
          (xy -3.81 -3.81)
        )
        (stroke (width 0) (type default) (color 0 0 0 0))
        (fill (type none))
      )
      (polyline
        (pts
          (xy -2.2352 -3.0734)
          (xy -1.651 -2.2606)
        )
        (stroke (width 0) (type default) (color 0 0 0 0))
        (fill (type none))
      )
      (polyline
        (pts
          (xy -2.2352 3.0734)
          (xy -3.81 3.81)
        )
        (stroke (width 0) (type default) (color 0 0 0 0))
        (fill (type none))
      )
      (polyline
        (pts
          (xy -2.2352 3.0734)
          (xy -1.651 2.2606)
        )
        (stroke (width 0) (type default) (color 0 0 0 0))
        (fill (type none))
      )
      (polyline
        (pts
          (xy 0 -3.81)
          (xy 0 -0.381)
        )
        (stroke (width 0) (type default) (color 0 0 0 0))
        (fill (type none))
      )
      (polyline
        (pts
          (xy 0 -3.81)
          (xy 3.81 -6.35)
        )
        (stroke (width 0) (type default) (color 0 0 0 0))
        (fill (type none))
      )
      (polyline
        (pts
          (xy 0 3.81)
          (xy -3.81 6.35)
        )
        (stroke (width 0) (type default) (color 0 0 0 0))
        (fill (type none))
      )
      (polyline
        (pts
          (xy 0 3.81)
          (xy 0 2.794)
        )
        (stroke (width 0) (type default) (color 0 0 0 0))
        (fill (type none))
      )
      (polyline
        (pts
          (xy 2.2352 -3.0734)
          (xy 1.651 -2.2606)
        )
        (stroke (width 0) (type default) (color 0 0 0 0))
        (fill (type none))
      )
      (polyline
        (pts
          (xy 2.2352 -3.0734)
          (xy 3.81 -3.81)
        )
        (stroke (width 0) (type default) (color 0 0 0 0))
        (fill (type none))
      )
      (polyline
        (pts
          (xy 2.2352 3.0734)
          (xy 1.651 2.2606)
        )
        (stroke (width 0) (type default) (color 0 0 0 0))
        (fill (type none))
      )
      (polyline
        (pts
          (xy 2.2352 3.0734)
          (xy 3.81 3.81)
        )
        (stroke (width 0) (type default) (color 0 0 0 0))
        (fill (type none))
      )
      (polyline
        (pts
          (xy 3.6322 -1.1684)
          (xy 2.667 -0.8636)
        )
        (stroke (width 0) (type default) (color 0 0 0 0))
        (fill (type none))
      )
      (polyline
        (pts
          (xy 3.6322 -1.1684)
          (xy 3.81 -1.27)
        )
        (stroke (width 0) (type default) (color 0 0 0 0))
        (fill (type none))
      )
      (polyline
        (pts
          (xy 3.6322 1.1684)
          (xy 2.667 0.8636)
        )
        (stroke (width 0) (type default) (color 0 0 0 0))
        (fill (type none))
      )
      (polyline
        (pts
          (xy 3.6322 1.1684)
          (xy 3.81 1.27)
        )
        (stroke (width 0) (type default) (color 0 0 0 0))
        (fill (type none))
      )
      (circle (center 0 0) (radius 0.381)
        (stroke (width 0) (type default) (color 0 0 0 0))
        (fill (type none))
      )
      (circle (center 0 0) (radius 3.81)
        (stroke (width 0) (type default) (color 0 0 0 0))
        (fill (type none))
      )
      (circle (center 0 2.54) (radius 0.254)
        (stroke (width 0) (type default) (color 0 0 0 0))
        (fill (type none))
      )
      (circle (center 1.4986 -2.0574) (radius 0.254)
        (stroke (width 0) (type default) (color 0 0 0 0))
        (fill (type none))
      )
      (circle (center 1.4986 2.0574) (radius 0.254)
        (stroke (width 0) (type default) (color 0 0 0 0))
        (fill (type none))
      )
      (circle (center 2.413 -0.7874) (radius 0.254)
        (stroke (width 0) (type default) (color 0 0 0 0))
        (fill (type none))
      )
      (circle (center 2.413 0.7874) (radius 0.254)
        (stroke (width 0) (type default) (color 0 0 0 0))
        (fill (type none))
      )
      (pin passive line (at -6.35 -3.81 0) (length 2.54)
        (name "~" (effects (font (size 1.27 1.27))))
        (number "1" (effects (font (size 1.27 1.27))))
      )
      (pin passive line (at 6.35 -6.35 180) (length 2.54)
        (name "~" (effects (font (size 1.27 1.27))))
        (number "10" (effects (font (size 1.27 1.27))))
      )
      (pin passive line (at -6.35 -1.27 0) (length 2.54)
        (name "~" (effects (font (size 1.27 1.27))))
        (number "2" (effects (font (size 1.27 1.27))))
      )
      (pin passive line (at -6.35 1.27 0) (length 2.54)
        (name "~" (effects (font (size 1.27 1.27))))
        (number "3" (effects (font (size 1.27 1.27))))
      )
      (pin passive line (at -6.35 3.81 0) (length 2.54)
        (name "~" (effects (font (size 1.27 1.27))))
        (number "4" (effects (font (size 1.27 1.27))))
      )
      (pin passive line (at -6.35 6.35 0) (length 2.54)
        (name "~" (effects (font (size 1.27 1.27))))
        (number "5" (effects (font (size 1.27 1.27))))
      )
      (pin passive line (at 6.35 3.81 180) (length 2.54)
        (name "~" (effects (font (size 1.27 1.27))))
        (number "6" (effects (font (size 1.27 1.27))))
      )
      (pin passive line (at 6.35 1.27 180) (length 2.54)
        (name "~" (effects (font (size 1.27 1.27))))
        (number "7" (effects (font (size 1.27 1.27))))
      )
      (pin passive line (at 6.35 -1.27 180) (length 2.54)
        (name "~" (effects (font (size 1.27 1.27))))
        (number "8" (effects (font (size 1.27 1.27))))
      )
      (pin passive line (at 6.35 -3.81 180) (length 2.54)
        (name "~" (effects (font (size 1.27 1.27))))
        (number "9" (effects (font (size 1.27 1.27))))
      )
    )
  )
)
