(kicad_symbol_lib (version 20211014) (generator kicad_symbol_editor)
  (symbol "RFM69HCW" (pin_names (offset 1.016)) (in_bom yes) (on_board yes)
    (property "Reference" "U" (id 0) (at -10.16 12.7 0)
      (effects (font (size 1.524 1.524)))
    )
    (property "Value" "RFM69HCW" (id 1) (at 10.16 -13.97 0)
      (effects (font (size 1.524 1.524)))
    )
    (property "Footprint" "" (id 2) (at 0 -2.54 0)
      (effects (font (size 1.524 1.524)) hide)
    )
    (property "Datasheet" "" (id 3) (at 0 -2.54 0)
      (effects (font (size 1.524 1.524)) hide)
    )
    (symbol "RFM69HCW_0_1"
      (rectangle (start -11.43 10.16) (end 11.43 -11.43)
        (stroke (width 0) (type default) (color 0 0 0 0))
        (fill (type background))
      )
    )
    (symbol "RFM69HCW_1_1"
      (pin power_in line (at -2.54 -16.51 90) (length 5.08)
        (name "GND1" (effects (font (size 1.27 1.27))))
        (number "1" (effects (font (size 1.27 1.27))))
      )
      (pin power_in line (at 2.54 -16.51 90) (length 5.08)
        (name "GND10" (effects (font (size 1.27 1.27))))
        (number "10" (effects (font (size 1.27 1.27))))
      )
      (pin bidirectional line (at 16.51 0 180) (length 5.08)
        (name "DIO3" (effects (font (size 1.27 1.27))))
        (number "11" (effects (font (size 1.27 1.27))))
      )
      (pin bidirectional line (at 16.51 -2.54 180) (length 5.08)
        (name "DIO4" (effects (font (size 1.27 1.27))))
        (number "12" (effects (font (size 1.27 1.27))))
      )
      (pin power_in line (at 0 15.24 270) (length 5.08)
        (name "3.3V" (effects (font (size 1.27 1.27))))
        (number "13" (effects (font (size 1.27 1.27))))
      )
      (pin bidirectional line (at 16.51 7.62 180) (length 5.08)
        (name "DIO0" (effects (font (size 1.27 1.27))))
        (number "14" (effects (font (size 1.27 1.27))))
      )
      (pin bidirectional line (at 16.51 5.08 180) (length 5.08)
        (name "DIO1" (effects (font (size 1.27 1.27))))
        (number "15" (effects (font (size 1.27 1.27))))
      )
      (pin bidirectional line (at 16.51 2.54 180) (length 5.08)
        (name "DIO2" (effects (font (size 1.27 1.27))))
        (number "16" (effects (font (size 1.27 1.27))))
      )
      (pin output line (at -16.51 7.62 0) (length 5.08)
        (name "MISO" (effects (font (size 1.27 1.27))))
        (number "2" (effects (font (size 1.27 1.27))))
      )
      (pin input line (at -16.51 5.08 0) (length 5.08)
        (name "MOSI" (effects (font (size 1.27 1.27))))
        (number "3" (effects (font (size 1.27 1.27))))
      )
      (pin input line (at -16.51 2.54 0) (length 5.08)
        (name "SCK" (effects (font (size 1.27 1.27))))
        (number "4" (effects (font (size 1.27 1.27))))
      )
      (pin input line (at -16.51 0 0) (length 5.08)
        (name "NSS" (effects (font (size 1.27 1.27))))
        (number "5" (effects (font (size 1.27 1.27))))
      )
      (pin input line (at -16.51 -3.81 0) (length 5.08)
        (name "RESET" (effects (font (size 1.27 1.27))))
        (number "6" (effects (font (size 1.27 1.27))))
      )
      (pin bidirectional line (at 16.51 -5.08 180) (length 5.08)
        (name "DIO5" (effects (font (size 1.27 1.27))))
        (number "7" (effects (font (size 1.27 1.27))))
      )
      (pin power_in line (at 0 -16.51 90) (length 5.08)
        (name "GND8" (effects (font (size 1.27 1.27))))
        (number "8" (effects (font (size 1.27 1.27))))
      )
      (pin passive line (at 16.51 -8.89 180) (length 5.08)
        (name "ANT" (effects (font (size 1.27 1.27))))
        (number "9" (effects (font (size 1.27 1.27))))
      )
    )
  )
)
