
(footprint DIP794W45P254L959H508Q8 (layer F.Cu) (tedit 648B7417)
  (descr "")
  (fp_text reference REF** (at -0.565 -5.607 0) (layer F.SilkS)
    (effects (font (size 1.0 1.0) (thickness 0.15)))
  )
  (fp_text value DIP794W45P254L959H508Q8 (at 10.865 5.607 0) (layer F.Fab)
    (effects (font (size 1.0 1.0) (thickness 0.15)))
  )
  (pad 1 thru_hole rect (at -3.97 -3.81) (size 1.13 1.13) (drill 0.78) (layers *.Cu *.Mask))
  (pad 2 thru_hole circle (at -3.97 -1.27) (size 1.13 1.13) (drill 0.78) (layers *.Cu *.Mask))
  (pad 3 thru_hole circle (at -3.97 1.27) (size 1.13 1.13) (drill 0.78) (layers *.Cu *.Mask))
  (pad 4 thru_hole circle (at -3.97 3.81) (size 1.13 1.13) (drill 0.78) (layers *.Cu *.Mask))
  (pad 5 thru_hole circle (at 3.97 3.81) (size 1.13 1.13) (drill 0.78) (layers *.Cu *.Mask))
  (pad 6 thru_hole circle (at 3.97 1.27) (size 1.13 1.13) (drill 0.78) (layers *.Cu *.Mask))
  (pad 7 thru_hole circle (at 3.97 -1.27) (size 1.13 1.13) (drill 0.78) (layers *.Cu *.Mask))
  (pad 8 thru_hole circle (at 3.97 -3.81) (size 1.13 1.13) (drill 0.78) (layers *.Cu *.Mask))
  (fp_circle (center -5.035 -3.81) (end -4.935 -3.81) (layer F.SilkS) (width 0.2))
  (fp_circle (center -5.035 -3.81) (end -4.935 -3.81) (layer F.Fab) (width 0.2))
  (fp_line (start -3.175 -4.795) (end 3.175 -4.795) (layer F.Fab) (width 0.127))
  (fp_line (start -3.175 4.795) (end 3.175 4.795) (layer F.Fab) (width 0.127))
  (fp_line (start -3.175 -4.795) (end 3.175 -4.795) (layer F.SilkS) (width 0.127))
  (fp_line (start -3.175 4.795) (end 3.175 4.795) (layer F.SilkS) (width 0.127))
  (fp_line (start -3.175 -4.795) (end -3.175 4.795) (layer F.Fab) (width 0.127))
  (fp_line (start 3.175 -4.795) (end 3.175 4.795) (layer F.Fab) (width 0.127))
  (fp_line (start 4.785 -5.045) (end -4.785 -5.045) (layer F.CrtYd) (width 0.05))
  (fp_line (start 4.785 5.045) (end -4.785 5.045) (layer F.CrtYd) (width 0.05))
  (fp_line (start 4.785 -5.045) (end 4.785 5.045) (layer F.CrtYd) (width 0.05))
  (fp_line (start -4.785 -5.045) (end -4.785 5.045) (layer F.CrtYd) (width 0.05))
)