(module JST-CONN_S7B-ZR-SM4A-TF (layer F.Cu) (tedit 592747FE)
  (descr S6B-ZR-SM4A-TF)
  (tags S6B-ZR-SM4A-TF)
  (attr smd)
  (fp_text reference REF** (at -9.3 -6.7) (layer F.SilkS)
    (effects (font (size 1 1) (thickness 0.15)))
  )
  (fp_text value S7B-ZR-SM4A-TF (at -4.4 3.2) (layer F.Fab)
    (effects (font (size 1 1) (thickness 0.15)))
  )
  (fp_line (start 2.25 -2.6) (end 2.25 0.7) (layer F.SilkS) (width 0.127))
  (fp_line (start 2.25 -5.8) (end -11.25 -5.8) (layer F.SilkS) (width 0.127))
  (fp_line (start 2.25 -5.78) (end 2.25 -5.1) (layer F.SilkS) (width 0.127))
  (fp_line (start 2.25 0.7) (end 0.7 0.7) (layer F.SilkS) (width 0.127))
  (fp_line (start -9.7 0.7) (end -11.25 0.7) (layer F.SilkS) (width 0.127))
  (fp_line (start -11.25 -2.6) (end -11.25 0.7) (layer F.SilkS) (width 0.127))
  (fp_line (start -11.25 -5.8) (end -11.25 -5.1) (layer F.SilkS) (width 0.127))
  (pad 1 smd rect (at 0 0) (size 0.8 3) (layers F.Cu F.Paste F.Mask))
  (pad 2 smd rect (at -1.5 0) (size 0.8 3) (layers F.Cu F.Paste F.Mask))
  (pad 3 smd rect (at -3 0) (size 0.8 3) (layers F.Cu F.Paste F.Mask))
  (pad 4 smd rect (at -4.5 0) (size 0.8 3) (layers F.Cu F.Paste F.Mask))
  (pad G1 smd rect (at 1.95 -3.85) (size 1.1 1.9) (layers F.Cu F.Paste F.Mask))
  (pad G2 smd rect (at -10.95 -3.85) (size 1.1 1.9) (layers F.Cu F.Paste F.Mask))
  (pad 5 smd rect (at -6 0) (size 0.8 3) (layers F.Cu F.Paste F.Mask))
  (pad 6 smd rect (at -7.5 0) (size 0.8 3) (layers F.Cu F.Paste F.Mask))
  (pad 7 smd rect (at -9 0) (size 0.8 3) (layers F.Cu F.Paste F.Mask))
)
