(module SPARKFUN-RF_RFM69HCW-XXXS2 (layer F.Cu) (tedit 200000)
  (descr "HOPE RF RFM69HCW RF TRANSCIEVER")
  (tags "HOPE RF RFM69HCW RF TRANSCIEVER")
  (attr smd)
  (fp_text reference >NAME (at 1.524 -8.5598) (layer F.SilkS)
    (effects (font (size 0.6096 0.6096) (thickness 0.127)))
  )
  (fp_text value >VALUE (at 1.8288 7.99338) (layer F.SilkS)
    (effects (font (size 0.6096 0.6096) (thickness 0.127)))
  )
  (fp_line (start -8.12546 -8.12546) (end 8.12546 -8.12546) (layer F.SilkS) (width 0.2032))
  (fp_line (start 8.12546 8.12546) (end -8.12546 8.12546) (layer F.SilkS) (width 0.2032))
  (fp_line (start -3.99796 -5.99948) (end -3.99796 -1.99898) (layer Dwgs.User) (width 0.2032))
  (fp_line (start -3.99796 -1.99898) (end 0 -1.99898) (layer Dwgs.User) (width 0.2032))
  (fp_line (start 0 -1.99898) (end 0 -5.99948) (layer Dwgs.User) (width 0.2032))
  (fp_line (start 0 -5.99948) (end -3.99796 -5.99948) (layer Dwgs.User) (width 0.2032))
  (fp_line (start 1.99898 0.49784) (end 1.99898 -1.4986) (layer Dwgs.User) (width 0.2032))
  (fp_line (start 3.99796 -1.4986) (end 1.99898 -1.4986) (layer Dwgs.User) (width 0.2032))
  (fp_line (start 3.99796 0.49784) (end 3.99796 -1.4986) (layer Dwgs.User) (width 0.2032))
  (fp_line (start 3.99796 0.49784) (end 1.99898 0.49784) (layer Dwgs.User) (width 0.2032))
  (fp_line (start -7.99846 7.99846) (end 7.99846 7.99846) (layer Dwgs.User) (width 0.127))
  (fp_line (start 7.99846 7.99846) (end 7.99846 -7.99846) (layer Dwgs.User) (width 0.127))
  (fp_line (start 7.99846 -7.99846) (end -7.99846 -7.99846) (layer Dwgs.User) (width 0.127))
  (fp_line (start -7.99846 -7.99846) (end -7.99846 7.99846) (layer Dwgs.User) (width 0.127))
  (fp_line (start -8.12546 8.12546) (end -8.12546 7.85876) (layer F.SilkS) (width 0.2032))
  (fp_line (start 8.12546 7.85876) (end 8.12546 8.12546) (layer F.SilkS) (width 0.2032))
  (fp_line (start -8.12546 -5.82422) (end -8.12546 -6.15442) (layer F.SilkS) (width 0.2032))
  (fp_line (start 8.12546 -8.12546) (end 8.12546 -7.85876) (layer F.SilkS) (width 0.2032))
  (fp_line (start -8.12546 -7.85876) (end -8.12546 -8.12546) (layer F.SilkS) (width 0.2032))
  (fp_line (start -8.12546 -3.82524) (end -8.12546 -4.15544) (layer F.SilkS) (width 0.2032))
  (fp_line (start -8.12546 -1.82372) (end -8.12546 -2.15392) (layer F.SilkS) (width 0.2032))
  (fp_line (start -8.12546 0.17272) (end -8.12546 -0.15494) (layer F.SilkS) (width 0.2032))
  (fp_line (start -8.12546 2.1717) (end -8.12546 1.8415) (layer F.SilkS) (width 0.2032))
  (fp_line (start -8.12546 4.17322) (end -8.12546 3.84302) (layer F.SilkS) (width 0.2032))
  (fp_line (start -8.12546 6.1722) (end -8.12546 5.842) (layer F.SilkS) (width 0.2032))
  (fp_line (start 8.12546 5.82422) (end 8.12546 6.15442) (layer F.SilkS) (width 0.2032))
  (fp_line (start 8.12546 3.82524) (end 8.12546 4.15544) (layer F.SilkS) (width 0.2032))
  (fp_line (start 8.12546 1.82372) (end 8.12546 2.15392) (layer F.SilkS) (width 0.2032))
  (fp_line (start 8.12546 -0.17272) (end 8.12546 0.15494) (layer F.SilkS) (width 0.2032))
  (fp_line (start 8.12546 -2.1717) (end 8.12546 -1.8415) (layer F.SilkS) (width 0.2032))
  (fp_line (start 8.12546 -4.17322) (end 8.12546 -3.84302) (layer F.SilkS) (width 0.2032))
  (fp_line (start 8.12546 -6.1722) (end 8.12546 -5.842) (layer F.SilkS) (width 0.2032))
  (fp_circle (center -9.08812 -8.38962) (end -9.08812 -8.89762) (layer F.SilkS) (width 0))
  (fp_text user 1 (at -4.84886 -5.98424) (layer Dwgs.User)
    (effects (font (size 1.27 1.27) (thickness 0.1524)))
  )
  (pad 1 smd rect (at -7.49808 -6.9977) (size 2.99974 1.19888) (layers F.Cu F.Paste F.Mask))
  (pad 2 smd rect (at -7.49808 -4.99872) (size 2.99974 1.19888) (layers F.Cu F.Paste F.Mask))
  (pad 3 smd rect (at -7.49808 -2.99974) (size 2.99974 1.19888) (layers F.Cu F.Paste F.Mask))
  (pad 4 smd rect (at -7.49808 -0.99822) (size 2.99974 1.19888) (layers F.Cu F.Paste F.Mask))
  (pad 5 smd rect (at -7.49808 0.99822) (size 2.99974 1.19888) (layers F.Cu F.Paste F.Mask))
  (pad 6 smd rect (at -7.49808 2.99974) (size 2.99974 1.19888) (layers F.Cu F.Paste F.Mask))
  (pad 7 smd rect (at -7.49808 4.99872) (size 2.99974 1.19888) (layers F.Cu F.Paste F.Mask))
  (pad 8 smd rect (at -7.49808 6.9977) (size 2.99974 1.19888) (layers F.Cu F.Paste F.Mask))
  (pad 9 smd rect (at 7.49808 6.9977) (size 2.99974 1.19888) (layers F.Cu F.Paste F.Mask))
  (pad 10 smd rect (at 7.49808 4.99872) (size 2.99974 1.19888) (layers F.Cu F.Paste F.Mask))
  (pad 11 smd rect (at 7.49808 2.99974) (size 2.99974 1.19888) (layers F.Cu F.Paste F.Mask))
  (pad 12 smd rect (at 7.49808 0.99822) (size 2.99974 1.19888) (layers F.Cu F.Paste F.Mask))
  (pad 13 smd rect (at 7.49808 -0.99822) (size 2.99974 1.19888) (layers F.Cu F.Paste F.Mask))
  (pad 14 smd rect (at 7.49808 -2.99974) (size 2.99974 1.19888) (layers F.Cu F.Paste F.Mask))
  (pad 15 smd rect (at 7.49808 -4.99872) (size 2.99974 1.19888) (layers F.Cu F.Paste F.Mask))
  (pad 16 smd rect (at 7.49808 -6.9977) (size 2.99974 1.19888) (layers F.Cu F.Paste F.Mask))
)
