(footprint "PinHeader_1x06_P2.54mm_Horizontal_Overhang"
	(version 20240706)
	(generator "pcbnew")
	(generator_version "8.99")
	(layer "F.Cu")
	(descr "Through hole angled pin header, 1x06, 2.54mm pitch, 6mm pin length, single row")
	(tags "Through hole angled pin header THT 1x06 2.54mm single row")
	(property "Reference" "REF**"
		(at 4.385 -2.27 0)
		(layer "F.SilkS")
		(uuid "a5c0a39b-dd0b-4034-a18b-91ae7cb5c9ea")
		(effects
			(font
				(size 1 1)
				(thickness 0.15)
			)
		)
	)
	(property "Value" "PinHeader_1x06_P2.54mm_Horizontal_Overhang"
		(at 4.385 14.97 0)
		(layer "F.Fab")
		(uuid "23d98299-2a7f-469d-a52a-f16555b97762")
		(effects
			(font
				(size 1 1)
				(thickness 0.15)
			)
		)
	)
	(property "Footprint" ""
		(at 0 0 0)
		(unlocked yes)
		(layer "F.Fab")
		(hide yes)
		(uuid "4a5be619-dd68-4c9b-9e45-3d1fe0f9b126")
		(effects
			(font
				(size 1.27 1.27)
				(thickness 0.15)
			)
		)
	)
	(property "Datasheet" ""
		(at 0 0 0)
		(unlocked yes)
		(layer "F.Fab")
		(hide yes)
		(uuid "ed771789-26c0-41fa-8808-4095f126a8d4")
		(effects
			(font
				(size 1.27 1.27)
				(thickness 0.15)
			)
		)
	)
	(property "Description" ""
		(at 0 0 0)
		(unlocked yes)
		(layer "F.Fab")
		(hide yes)
		(uuid "7309fdd8-8f0c-4572-8e27-fc988177e884")
		(effects
			(font
				(size 1.27 1.27)
				(thickness 0.15)
			)
		)
	)
	(attr through_hole)
	(fp_line
		(start -1.27 -1.27)
		(end 0 -1.27)
		(stroke
			(width 0.12)
			(type solid)
		)
		(layer "F.SilkS")
		(uuid "68abb447-d778-4b69-b978-ae5481ddb384")
	)
	(fp_line
		(start -1.27 0)
		(end -1.27 -1.27)
		(stroke
			(width 0.12)
			(type solid)
		)
		(layer "F.SilkS")
		(uuid "b224c1f8-74a5-4a64-87fb-3e48b38aded8")
	)
	(fp_line
		(start 1.042929 2.16)
		(end 1.44 2.16)
		(stroke
			(width 0.12)
			(type solid)
		)
		(layer "F.SilkS")
		(uuid "e4d45df3-bf3b-40a7-9e8b-bff971327486")
	)
	(fp_line
		(start 1.042929 2.92)
		(end 1.44 2.92)
		(stroke
			(width 0.12)
			(type solid)
		)
		(layer "F.SilkS")
		(uuid "006c6d4a-0450-432e-8513-8a3544582d5e")
	)
	(fp_line
		(start 1.042929 4.7)
		(end 1.44 4.7)
		(stroke
			(width 0.12)
			(type solid)
		)
		(layer "F.SilkS")
		(uuid "9ae184b1-39bd-4710-8024-b37b2cd3ce2d")
	)
	(fp_line
		(start 1.042929 5.46)
		(end 1.44 5.46)
		(stroke
			(width 0.12)
			(type solid)
		)
		(layer "F.SilkS")
		(uuid "26157c30-0b94-4640-ad9d-9ddf8054df52")
	)
	(fp_line
		(start 1.042929 7.24)
		(end 1.44 7.24)
		(stroke
			(width 0.12)
			(type solid)
		)
		(layer "F.SilkS")
		(uuid "c1971d60-16aa-4ebb-8238-4500f888d9aa")
	)
	(fp_line
		(start 1.042929 8)
		(end 1.44 8)
		(stroke
			(width 0.12)
			(type solid)
		)
		(layer "F.SilkS")
		(uuid "383f3fb6-f80d-4483-97b8-9e3c0c888042")
	)
	(fp_line
		(start 1.042929 9.78)
		(end 1.44 9.78)
		(stroke
			(width 0.12)
			(type solid)
		)
		(layer "F.SilkS")
		(uuid "3939aa2d-e1de-4a49-b1e4-7136721fc834")
	)
	(fp_line
		(start 1.042929 10.54)
		(end 1.44 10.54)
		(stroke
			(width 0.12)
			(type solid)
		)
		(layer "F.SilkS")
		(uuid "fdf7fba1-d8e6-4606-8fb1-1742bb6ce133")
	)
	(fp_line
		(start 1.042929 12.32)
		(end 1.44 12.32)
		(stroke
			(width 0.12)
			(type solid)
		)
		(layer "F.SilkS")
		(uuid "30365fed-de9a-4459-b405-5ca61ba4f46f")
	)
	(fp_line
		(start 1.042929 13.08)
		(end 1.44 13.08)
		(stroke
			(width 0.12)
			(type solid)
		)
		(layer "F.SilkS")
		(uuid "d85f3fc3-4344-40bb-853d-451ec2094474")
	)
	(fp_line
		(start 1.11 -0.38)
		(end 1.44 -0.38)
		(stroke
			(width 0.12)
			(type solid)
		)
		(layer "F.SilkS")
		(uuid "0df7c082-b22c-40fe-9691-adc2e7deab5a")
	)
	(fp_line
		(start 1.11 0.38)
		(end 1.44 0.38)
		(stroke
			(width 0.12)
			(type solid)
		)
		(layer "F.SilkS")
		(uuid "2a58384b-3cb6-431a-bd04-dc901de6f77c")
	)
	(fp_line
		(start 1.44 -1.33)
		(end 1.44 14.03)
		(stroke
			(width 0.12)
			(type solid)
		)
		(layer "F.SilkS")
		(uuid "08db2ef3-84b3-4ff4-88df-301022c8a07e")
	)
	(fp_line
		(start -1.8 -1.8)
		(end -1.8 14.5)
		(stroke
			(width 0.05)
			(type solid)
		)
		(layer "F.CrtYd")
		(uuid "48da3153-19bb-49ff-a39d-fb397fea6e3b")
	)
	(fp_line
		(start -1.8 14.5)
		(end 10.55 14.5)
		(stroke
			(width 0.05)
			(type solid)
		)
		(layer "F.CrtYd")
		(uuid "8359d90e-59dd-4289-803e-cc373de4809f")
	)
	(fp_line
		(start 10.55 -1.8)
		(end -1.8 -1.8)
		(stroke
			(width 0.05)
			(type solid)
		)
		(layer "F.CrtYd")
		(uuid "864703f1-7d98-4d7d-91a0-ac9a00a1a849")
	)
	(fp_line
		(start 10.55 14.5)
		(end 10.55 -1.8)
		(stroke
			(width 0.05)
			(type solid)
		)
		(layer "F.CrtYd")
		(uuid "aa07c315-2241-4dd6-a594-b99f2b58d249")
	)
	(fp_line
		(start -0.32 -0.32)
		(end -0.32 0.32)
		(stroke
			(width 0.1)
			(type solid)
		)
		(layer "F.Fab")
		(uuid "6a323168-976f-4d8d-b85f-17975780c3a6")
	)
	(fp_line
		(start -0.32 -0.32)
		(end 1.5 -0.32)
		(stroke
			(width 0.1)
			(type solid)
		)
		(layer "F.Fab")
		(uuid "b9493a06-1679-4f37-aa74-da11468c289c")
	)
	(fp_line
		(start -0.32 0.32)
		(end 1.5 0.32)
		(stroke
			(width 0.1)
			(type solid)
		)
		(layer "F.Fab")
		(uuid "e3732044-78d0-46f7-8cfa-30e98d501795")
	)
	(fp_line
		(start -0.32 2.22)
		(end -0.32 2.86)
		(stroke
			(width 0.1)
			(type solid)
		)
		(layer "F.Fab")
		(uuid "28a38c4e-911b-4199-86aa-3c9af3f62bc2")
	)
	(fp_line
		(start -0.32 2.22)
		(end 1.5 2.22)
		(stroke
			(width 0.1)
			(type solid)
		)
		(layer "F.Fab")
		(uuid "a85ca6a4-2e35-44ef-a9b5-1a3a183b3163")
	)
	(fp_line
		(start -0.32 2.86)
		(end 1.5 2.86)
		(stroke
			(width 0.1)
			(type solid)
		)
		(layer "F.Fab")
		(uuid "96575434-879a-43ab-8fcf-273aca00b01e")
	)
	(fp_line
		(start -0.32 4.76)
		(end -0.32 5.4)
		(stroke
			(width 0.1)
			(type solid)
		)
		(layer "F.Fab")
		(uuid "35b3b3ff-2173-442c-b5c0-8c521f5d6204")
	)
	(fp_line
		(start -0.32 4.76)
		(end 1.5 4.76)
		(stroke
			(width 0.1)
			(type solid)
		)
		(layer "F.Fab")
		(uuid "4c2b35ce-8aee-47e6-bbeb-d0fc6c871572")
	)
	(fp_line
		(start -0.32 5.4)
		(end 1.5 5.4)
		(stroke
			(width 0.1)
			(type solid)
		)
		(layer "F.Fab")
		(uuid "425dc5c5-e2ea-4324-a41a-64761cd18cd3")
	)
	(fp_line
		(start -0.32 7.3)
		(end -0.32 7.94)
		(stroke
			(width 0.1)
			(type solid)
		)
		(layer "F.Fab")
		(uuid "3649d3de-be8f-4517-b7c0-2ea4d8c58524")
	)
	(fp_line
		(start -0.32 7.3)
		(end 1.5 7.3)
		(stroke
			(width 0.1)
			(type solid)
		)
		(layer "F.Fab")
		(uuid "e1b80435-083a-4f55-99ee-a10c43983436")
	)
	(fp_line
		(start -0.32 7.94)
		(end 1.5 7.94)
		(stroke
			(width 0.1)
			(type solid)
		)
		(layer "F.Fab")
		(uuid "51c832ac-c277-4969-8e38-068c4c78361b")
	)
	(fp_line
		(start -0.32 9.84)
		(end -0.32 10.48)
		(stroke
			(width 0.1)
			(type solid)
		)
		(layer "F.Fab")
		(uuid "ac16c029-acd3-4ff6-942e-ef4385173f02")
	)
	(fp_line
		(start -0.32 9.84)
		(end 1.5 9.84)
		(stroke
			(width 0.1)
			(type solid)
		)
		(layer "F.Fab")
		(uuid "4f12af22-4b84-4c6d-b129-417ac201adc9")
	)
	(fp_line
		(start -0.32 10.48)
		(end 1.5 10.48)
		(stroke
			(width 0.1)
			(type solid)
		)
		(layer "F.Fab")
		(uuid "46987acf-1d0b-4f02-990a-500338435a34")
	)
	(fp_line
		(start -0.32 12.38)
		(end -0.32 13.02)
		(stroke
			(width 0.1)
			(type solid)
		)
		(layer "F.Fab")
		(uuid "0779d048-1808-4536-b511-bbe702806cbb")
	)
	(fp_line
		(start -0.32 12.38)
		(end 1.5 12.38)
		(stroke
			(width 0.1)
			(type solid)
		)
		(layer "F.Fab")
		(uuid "d72ba61c-130a-4ea4-8eb1-4732042877f4")
	)
	(fp_line
		(start -0.32 13.02)
		(end 1.5 13.02)
		(stroke
			(width 0.1)
			(type solid)
		)
		(layer "F.Fab")
		(uuid "562f5f78-1f43-47da-9b36-8b250fe18986")
	)
	(fp_line
		(start 1.5 -0.635)
		(end 2.135 -1.27)
		(stroke
			(width 0.1)
			(type solid)
		)
		(layer "F.Fab")
		(uuid "c6bea4b2-e5db-4ec0-b1ce-c0517f94cf74")
	)
	(fp_line
		(start 1.5 13.97)
		(end 1.5 -0.635)
		(stroke
			(width 0.1)
			(type solid)
		)
		(layer "F.Fab")
		(uuid "d05fecbb-4da1-4f46-bf15-c89119ec3295")
	)
	(fp_line
		(start 2.135 -1.27)
		(end 4.04 -1.27)
		(stroke
			(width 0.1)
			(type solid)
		)
		(layer "F.Fab")
		(uuid "fb334a53-8453-4112-bb8a-e39d5482dec5")
	)
	(fp_line
		(start 4.04 -1.27)
		(end 4.04 13.97)
		(stroke
			(width 0.1)
			(type solid)
		)
		(layer "F.Fab")
		(uuid "362fde44-d3a8-4260-8b71-320cf81d0b66")
	)
	(fp_line
		(start 4.04 -0.32)
		(end 10.04 -0.32)
		(stroke
			(width 0.1)
			(type solid)
		)
		(layer "F.Fab")
		(uuid "df13b6e2-8c1a-414d-bf39-8e97c5d33f86")
	)
	(fp_line
		(start 4.04 0.32)
		(end 10.04 0.32)
		(stroke
			(width 0.1)
			(type solid)
		)
		(layer "F.Fab")
		(uuid "f70933b0-296c-4f45-af43-7cc860f6d9ef")
	)
	(fp_line
		(start 4.04 2.22)
		(end 10.04 2.22)
		(stroke
			(width 0.1)
			(type solid)
		)
		(layer "F.Fab")
		(uuid "0312ebe2-1c80-4738-8b10-05000339ef93")
	)
	(fp_line
		(start 4.04 2.86)
		(end 10.04 2.86)
		(stroke
			(width 0.1)
			(type solid)
		)
		(layer "F.Fab")
		(uuid "48dd98c2-abeb-452d-93e2-06be2c9ab5c3")
	)
	(fp_line
		(start 4.04 4.76)
		(end 10.04 4.76)
		(stroke
			(width 0.1)
			(type solid)
		)
		(layer "F.Fab")
		(uuid "5aba7d39-aeef-4c86-b1e3-3d48b642bacd")
	)
	(fp_line
		(start 4.04 5.4)
		(end 10.04 5.4)
		(stroke
			(width 0.1)
			(type solid)
		)
		(layer "F.Fab")
		(uuid "31df1cb1-95f0-416b-b5a7-3f37dac43252")
	)
	(fp_line
		(start 4.04 7.3)
		(end 10.04 7.3)
		(stroke
			(width 0.1)
			(type solid)
		)
		(layer "F.Fab")
		(uuid "53139387-927b-4fa1-a82d-15eb7f5be88f")
	)
	(fp_line
		(start 4.04 7.94)
		(end 10.04 7.94)
		(stroke
			(width 0.1)
			(type solid)
		)
		(layer "F.Fab")
		(uuid "74ee14f6-31e6-4768-beaf-a465b69c837f")
	)
	(fp_line
		(start 4.04 9.84)
		(end 10.04 9.84)
		(stroke
			(width 0.1)
			(type solid)
		)
		(layer "F.Fab")
		(uuid "c1766cbf-19bf-4ce0-8f0e-b2e8ce4e2754")
	)
	(fp_line
		(start 4.04 10.48)
		(end 10.04 10.48)
		(stroke
			(width 0.1)
			(type solid)
		)
		(layer "F.Fab")
		(uuid "f609c52a-5489-4ee3-b908-feb1eecc721f")
	)
	(fp_line
		(start 4.04 12.38)
		(end 10.04 12.38)
		(stroke
			(width 0.1)
			(type solid)
		)
		(layer "F.Fab")
		(uuid "6049a8da-6806-49d3-8bae-5c12354db2ed")
	)
	(fp_line
		(start 4.04 13.02)
		(end 10.04 13.02)
		(stroke
			(width 0.1)
			(type solid)
		)
		(layer "F.Fab")
		(uuid "0815b831-b014-4566-a5c5-58c933ea3673")
	)
	(fp_line
		(start 4.04 13.97)
		(end 1.5 13.97)
		(stroke
			(width 0.1)
			(type solid)
		)
		(layer "F.Fab")
		(uuid "50570007-ae69-4750-857b-f77fb74e1f56")
	)
	(fp_line
		(start 10.04 -0.32)
		(end 10.04 0.32)
		(stroke
			(width 0.1)
			(type solid)
		)
		(layer "F.Fab")
		(uuid "8d76e69a-8f2e-4cbb-b088-8db77674b224")
	)
	(fp_line
		(start 10.04 2.22)
		(end 10.04 2.86)
		(stroke
			(width 0.1)
			(type solid)
		)
		(layer "F.Fab")
		(uuid "3f568200-2e17-4130-bb2a-802540e51b67")
	)
	(fp_line
		(start 10.04 4.76)
		(end 10.04 5.4)
		(stroke
			(width 0.1)
			(type solid)
		)
		(layer "F.Fab")
		(uuid "5bdde465-eae5-446a-b013-d774b5190211")
	)
	(fp_line
		(start 10.04 7.3)
		(end 10.04 7.94)
		(stroke
			(width 0.1)
			(type solid)
		)
		(layer "F.Fab")
		(uuid "de920f36-83a8-456a-a725-039c41fc27b0")
	)
	(fp_line
		(start 10.04 9.84)
		(end 10.04 10.48)
		(stroke
			(width 0.1)
			(type solid)
		)
		(layer "F.Fab")
		(uuid "9a30d53b-2819-4ec5-b9e3-85a6a20916b1")
	)
	(fp_line
		(start 10.04 12.38)
		(end 10.04 13.02)
		(stroke
			(width 0.1)
			(type solid)
		)
		(layer "F.Fab")
		(uuid "874d54e1-65bf-4263-b170-3094835475b0")
	)
	(fp_text user "${REFERENCE}"
		(at 2.77 6.35 90)
		(layer "F.Fab")
		(uuid "fc25547e-568d-42a8-8162-593351ba0eb4")
		(effects
			(font
				(size 1 1)
				(thickness 0.15)
			)
		)
	)
	(pad "1" thru_hole rect
		(at 0 0)
		(size 1.7 1.7)
		(drill 1)
		(layers "*.Cu" "*.Mask")
		(remove_unused_layers no)
		(uuid "9c401120-14ab-40ec-b793-45ce385a313e")
	)
	(pad "2" thru_hole oval
		(at 0 2.54)
		(size 1.7 1.7)
		(drill 1)
		(layers "*.Cu" "*.Mask")
		(remove_unused_layers no)
		(uuid "f6e3a4a4-4a3b-4fe2-a8b6-5e44dff2c981")
	)
	(pad "3" thru_hole oval
		(at 0 5.08)
		(size 1.7 1.7)
		(drill 1)
		(layers "*.Cu" "*.Mask")
		(remove_unused_layers no)
		(uuid "a6c62ab0-2cf2-40c7-88af-6ad31d0e3a09")
	)
	(pad "4" thru_hole oval
		(at 0 7.62)
		(size 1.7 1.7)
		(drill 1)
		(layers "*.Cu" "*.Mask")
		(remove_unused_layers no)
		(uuid "1421a011-0975-47ea-b5ab-355357537880")
	)
	(pad "5" thru_hole oval
		(at 0 10.16)
		(size 1.7 1.7)
		(drill 1)
		(layers "*.Cu" "*.Mask")
		(remove_unused_layers no)
		(uuid "ce7bb67f-7c8d-4766-ada4-d75afc40938d")
	)
	(pad "6" thru_hole oval
		(at 0 12.7)
		(size 1.7 1.7)
		(drill 1)
		(layers "*.Cu" "*.Mask")
		(remove_unused_layers no)
		(uuid "f28a28ec-5288-4bc7-bc00-0baf33c76c9e")
	)
	(embedded_fonts no)
	(model "${KICAD8_3DMODEL_DIR}/Connector_PinHeader_2.54mm.3dshapes/PinHeader_1x06_P2.54mm_Horizontal.wrl"
		(offset
			(xyz 0 0 0)
		)
		(scale
			(xyz 1 1 1)
		)
		(rotate
			(xyz 0 0 0)
		)
	)
)
