(module DR73 (layer F.Cu) (tedit 5A58E6EE)
  (fp_text reference REF** (at 0 5.4) (layer F.SilkS)
    (effects (font (size 1 1) (thickness 0.15)))
  )
  (fp_text value DR73 (at 0 -5.1) (layer F.Fab)
    (effects (font (size 1 1) (thickness 0.15)))
  )
  (fp_line (start -3.8 2) (end -3.8 3.8) (layer F.SilkS) (width 0.15))
  (fp_line (start 3.8 -3.8) (end -3.8 -3.8) (layer F.SilkS) (width 0.15))
  (fp_line (start 3.8 3.8) (end 3.8 2) (layer F.SilkS) (width 0.15))
  (fp_line (start -3.8 3.8) (end 3.8 3.8) (layer F.SilkS) (width 0.15))
  (fp_line (start 3.8 -2) (end 3.8 -3.8) (layer F.SilkS) (width 0.15))
  (fp_line (start -3.8 -2) (end -3.8 -3.8) (layer F.SilkS) (width 0.15))
  (pad 1 smd rect (at -3 0) (size 2.5 3.25) (layers F.Cu F.Paste F.Mask))
  (pad 2 smd rect (at 3 0) (size 2.5 3.25) (layers F.Cu F.Paste F.Mask))
)
